MD5Version 10
commandline ""

numFrames 200
numJoints 4
frameRate 24
numAnimatedComponents 6

hierarchy {
	"origin"	-1 0 0	//
	"weapon"	0 63 0	// origin
	"shot"	1 0 0	// weapon
	"shell"	1 0 0	// weapon
}

bounds {
	( 0.000000 0.000000 0.000000 ) ( 0.000000 0.000000 0.000000 )
	( 0.000000 0.000000 0.000000 ) ( 0.000000 0.000000 0.000000 )
	( 0.000000 0.000000 0.000000 ) ( 0.000000 0.000000 0.000000 )
	( 0.000000 0.000000 0.000000 ) ( 0.000000 0.000000 0.000000 )
	( 0.000000 0.000000 0.000000 ) ( 0.000000 0.000000 0.000000 )
	( 0.000000 0.000000 0.000000 ) ( 0.000000 0.000000 0.000000 )
	( 0.000000 0.000000 0.000000 ) ( 0.000000 0.000000 0.000000 )
	( 0.000000 0.000000 0.000000 ) ( 0.000000 0.000000 0.000000 )
	( 0.000000 0.000000 0.000000 ) ( 0.000000 0.000000 0.000000 )
	( 0.000000 0.000000 0.000000 ) ( 0.000000 0.000000 0.000000 )
	( 0.000000 0.000000 0.000000 ) ( 0.000000 0.000000 0.000000 )
	( 0.000000 0.000000 0.000000 ) ( 0.000000 0.000000 0.000000 )
	( 0.000000 0.000000 0.000000 ) ( 0.000000 0.000000 0.000000 )
	( 0.000000 0.000000 0.000000 ) ( 0.000000 0.000000 0.000000 )
	( 0.000000 0.000000 0.000000 ) ( 0.000000 0.000000 0.000000 )
	( 0.000000 0.000000 0.000000 ) ( 0.000000 0.000000 0.000000 )
	( 0.000000 0.000000 0.000000 ) ( 0.000000 0.000000 0.000000 )
	( 0.000000 0.000000 0.000000 ) ( 0.000000 0.000000 0.000000 )
	( 0.000000 0.000000 0.000000 ) ( 0.000000 0.000000 0.000000 )
	( 0.000000 0.000000 0.000000 ) ( 0.000000 0.000000 0.000000 )
	( 0.000000 0.000000 0.000000 ) ( 0.000000 0.000000 0.000000 )
	( 0.000000 0.000000 0.000000 ) ( 0.000000 0.000000 0.000000 )
	( 0.000000 0.000000 0.000000 ) ( 0.000000 0.000000 0.000000 )
	( 0.000000 0.000000 0.000000 ) ( 0.000000 0.000000 0.000000 )
	( 0.000000 0.000000 0.000000 ) ( 0.000000 0.000000 0.000000 )
	( 0.000000 0.000000 0.000000 ) ( 0.000000 0.000000 0.000000 )
	( 0.000000 0.000000 0.000000 ) ( 0.000000 0.000000 0.000000 )
	( 0.000000 0.000000 0.000000 ) ( 0.000000 0.000000 0.000000 )
	( 0.000000 0.000000 0.000000 ) ( 0.000000 0.000000 0.000000 )
	( 0.000000 0.000000 0.000000 ) ( 0.000000 0.000000 0.000000 )
	( 0.000000 0.000000 0.000000 ) ( 0.000000 0.000000 0.000000 )
	( 0.000000 0.000000 0.000000 ) ( 0.000000 0.000000 0.000000 )
	( 0.000000 0.000000 0.000000 ) ( 0.000000 0.000000 0.000000 )
	( 0.000000 0.000000 0.000000 ) ( 0.000000 0.000000 0.000000 )
	( 0.000000 0.000000 0.000000 ) ( 0.000000 0.000000 0.000000 )
	( 0.000000 0.000000 0.000000 ) ( 0.000000 0.000000 0.000000 )
	( 0.000000 0.000000 0.000000 ) ( 0.000000 0.000000 0.000000 )
	( 0.000000 0.000000 0.000000 ) ( 0.000000 0.000000 0.000000 )
	( 0.000000 0.000000 0.000000 ) ( 0.000000 0.000000 0.000000 )
	( 0.000000 0.000000 0.000000 ) ( 0.000000 0.000000 0.000000 )
	( 0.000000 0.000000 0.000000 ) ( 0.000000 0.000000 0.000000 )
	( 0.000000 0.000000 0.000000 ) ( 0.000000 0.000000 0.000000 )
	( 0.000000 0.000000 0.000000 ) ( 0.000000 0.000000 0.000000 )
	( 0.000000 0.000000 0.000000 ) ( 0.000000 0.000000 0.000000 )
	( 0.000000 0.000000 0.000000 ) ( 0.000000 0.000000 0.000000 )
	( 0.000000 0.000000 0.000000 ) ( 0.000000 0.000000 0.000000 )
	( 0.000000 0.000000 0.000000 ) ( 0.000000 0.000000 0.000000 )
	( 0.000000 0.000000 0.000000 ) ( 0.000000 0.000000 0.000000 )
	( 0.000000 0.000000 0.000000 ) ( 0.000000 0.000000 0.000000 )
	( 0.000000 0.000000 0.000000 ) ( 0.000000 0.000000 0.000000 )
	( 0.000000 0.000000 0.000000 ) ( 0.000000 0.000000 0.000000 )
	( 0.000000 0.000000 0.000000 ) ( 0.000000 0.000000 0.000000 )
	( 0.000000 0.000000 0.000000 ) ( 0.000000 0.000000 0.000000 )
	( 0.000000 0.000000 0.000000 ) ( 0.000000 0.000000 0.000000 )
	( 0.000000 0.000000 0.000000 ) ( 0.000000 0.000000 0.000000 )
	( 0.000000 0.000000 0.000000 ) ( 0.000000 0.000000 0.000000 )
	( 0.000000 0.000000 0.000000 ) ( 0.000000 0.000000 0.000000 )
	( 0.000000 0.000000 0.000000 ) ( 0.000000 0.000000 0.000000 )
	( 0.000000 0.000000 0.000000 ) ( 0.000000 0.000000 0.000000 )
	( 0.000000 0.000000 0.000000 ) ( 0.000000 0.000000 0.000000 )
	( 0.000000 0.000000 0.000000 ) ( 0.000000 0.000000 0.000000 )
	( 0.000000 0.000000 0.000000 ) ( 0.000000 0.000000 0.000000 )
	( 0.000000 0.000000 0.000000 ) ( 0.000000 0.000000 0.000000 )
	( 0.000000 0.000000 0.000000 ) ( 0.000000 0.000000 0.000000 )
	( 0.000000 0.000000 0.000000 ) ( 0.000000 0.000000 0.000000 )
	( 0.000000 0.000000 0.000000 ) ( 0.000000 0.000000 0.000000 )
	( 0.000000 0.000000 0.000000 ) ( 0.000000 0.000000 0.000000 )
	( 0.000000 0.000000 0.000000 ) ( 0.000000 0.000000 0.000000 )
	( 0.000000 0.000000 0.000000 ) ( 0.000000 0.000000 0.000000 )
	( 0.000000 0.000000 0.000000 ) ( 0.000000 0.000000 0.000000 )
	( 0.000000 0.000000 0.000000 ) ( 0.000000 0.000000 0.000000 )
	( 0.000000 0.000000 0.000000 ) ( 0.000000 0.000000 0.000000 )
	( 0.000000 0.000000 0.000000 ) ( 0.000000 0.000000 0.000000 )
	( 0.000000 0.000000 0.000000 ) ( 0.000000 0.000000 0.000000 )
	( 0.000000 0.000000 0.000000 ) ( 0.000000 0.000000 0.000000 )
	( 0.000000 0.000000 0.000000 ) ( 0.000000 0.000000 0.000000 )
	( 0.000000 0.000000 0.000000 ) ( 0.000000 0.000000 0.000000 )
	( 0.000000 0.000000 0.000000 ) ( 0.000000 0.000000 0.000000 )
	( 0.000000 0.000000 0.000000 ) ( 0.000000 0.000000 0.000000 )
	( 0.000000 0.000000 0.000000 ) ( 0.000000 0.000000 0.000000 )
	( 0.000000 0.000000 0.000000 ) ( 0.000000 0.000000 0.000000 )
	( 0.000000 0.000000 0.000000 ) ( 0.000000 0.000000 0.000000 )
	( 0.000000 0.000000 0.000000 ) ( 0.000000 0.000000 0.000000 )
	( 0.000000 0.000000 0.000000 ) ( 0.000000 0.000000 0.000000 )
	( 0.000000 0.000000 0.000000 ) ( 0.000000 0.000000 0.000000 )
	( 0.000000 0.000000 0.000000 ) ( 0.000000 0.000000 0.000000 )
	( 0.000000 0.000000 0.000000 ) ( 0.000000 0.000000 0.000000 )
	( 0.000000 0.000000 0.000000 ) ( 0.000000 0.000000 0.000000 )
	( 0.000000 0.000000 0.000000 ) ( 0.000000 0.000000 0.000000 )
	( 0.000000 0.000000 0.000000 ) ( 0.000000 0.000000 0.000000 )
	( 0.000000 0.000000 0.000000 ) ( 0.000000 0.000000 0.000000 )
	( 0.000000 0.000000 0.000000 ) ( 0.000000 0.000000 0.000000 )
	( 0.000000 0.000000 0.000000 ) ( 0.000000 0.000000 0.000000 )
	( 0.000000 0.000000 0.000000 ) ( 0.000000 0.000000 0.000000 )
	( 0.000000 0.000000 0.000000 ) ( 0.000000 0.000000 0.000000 )
	( 0.000000 0.000000 0.000000 ) ( 0.000000 0.000000 0.000000 )
	( 0.000000 0.000000 0.000000 ) ( 0.000000 0.000000 0.000000 )
	( 0.000000 0.000000 0.000000 ) ( 0.000000 0.000000 0.000000 )
	( 0.000000 0.000000 0.000000 ) ( 0.000000 0.000000 0.000000 )
	( 0.000000 0.000000 0.000000 ) ( 0.000000 0.000000 0.000000 )
	( 0.000000 0.000000 0.000000 ) ( 0.000000 0.000000 0.000000 )
	( 0.000000 0.000000 0.000000 ) ( 0.000000 0.000000 0.000000 )
	( 0.000000 0.000000 0.000000 ) ( 0.000000 0.000000 0.000000 )
	( 0.000000 0.000000 0.000000 ) ( 0.000000 0.000000 0.000000 )
	( 0.000000 0.000000 0.000000 ) ( 0.000000 0.000000 0.000000 )
	( 0.000000 0.000000 0.000000 ) ( 0.000000 0.000000 0.000000 )
	( 0.000000 0.000000 0.000000 ) ( 0.000000 0.000000 0.000000 )
	( 0.000000 0.000000 0.000000 ) ( 0.000000 0.000000 0.000000 )
	( 0.000000 0.000000 0.000000 ) ( 0.000000 0.000000 0.000000 )
	( 0.000000 0.000000 0.000000 ) ( 0.000000 0.000000 0.000000 )
	( 0.000000 0.000000 0.000000 ) ( 0.000000 0.000000 0.000000 )
	( 0.000000 0.000000 0.000000 ) ( 0.000000 0.000000 0.000000 )
	( 0.000000 0.000000 0.000000 ) ( 0.000000 0.000000 0.000000 )
	( 0.000000 0.000000 0.000000 ) ( 0.000000 0.000000 0.000000 )
	( 0.000000 0.000000 0.000000 ) ( 0.000000 0.000000 0.000000 )
	( 0.000000 0.000000 0.000000 ) ( 0.000000 0.000000 0.000000 )
	( 0.000000 0.000000 0.000000 ) ( 0.000000 0.000000 0.000000 )
	( 0.000000 0.000000 0.000000 ) ( 0.000000 0.000000 0.000000 )
	( 0.000000 0.000000 0.000000 ) ( 0.000000 0.000000 0.000000 )
	( 0.000000 0.000000 0.000000 ) ( 0.000000 0.000000 0.000000 )
	( 0.000000 0.000000 0.000000 ) ( 0.000000 0.000000 0.000000 )
	( 0.000000 0.000000 0.000000 ) ( 0.000000 0.000000 0.000000 )
	( 0.000000 0.000000 0.000000 ) ( 0.000000 0.000000 0.000000 )
	( 0.000000 0.000000 0.000000 ) ( 0.000000 0.000000 0.000000 )
	( 0.000000 0.000000 0.000000 ) ( 0.000000 0.000000 0.000000 )
	( 0.000000 0.000000 0.000000 ) ( 0.000000 0.000000 0.000000 )
	( 0.000000 0.000000 0.000000 ) ( 0.000000 0.000000 0.000000 )
	( 0.000000 0.000000 0.000000 ) ( 0.000000 0.000000 0.000000 )
	( 0.000000 0.000000 0.000000 ) ( 0.000000 0.000000 0.000000 )
	( 0.000000 0.000000 0.000000 ) ( 0.000000 0.000000 0.000000 )
	( 0.000000 0.000000 0.000000 ) ( 0.000000 0.000000 0.000000 )
	( 0.000000 0.000000 0.000000 ) ( 0.000000 0.000000 0.000000 )
	( 0.000000 0.000000 0.000000 ) ( 0.000000 0.000000 0.000000 )
	( 0.000000 0.000000 0.000000 ) ( 0.000000 0.000000 0.000000 )
	( 0.000000 0.000000 0.000000 ) ( 0.000000 0.000000 0.000000 )
	( 0.000000 0.000000 0.000000 ) ( 0.000000 0.000000 0.000000 )
	( 0.000000 0.000000 0.000000 ) ( 0.000000 0.000000 0.000000 )
	( 0.000000 0.000000 0.000000 ) ( 0.000000 0.000000 0.000000 )
	( 0.000000 0.000000 0.000000 ) ( 0.000000 0.000000 0.000000 )
	( 0.000000 0.000000 0.000000 ) ( 0.000000 0.000000 0.000000 )
	( 0.000000 0.000000 0.000000 ) ( 0.000000 0.000000 0.000000 )
	( 0.000000 0.000000 0.000000 ) ( 0.000000 0.000000 0.000000 )
	( 0.000000 0.000000 0.000000 ) ( 0.000000 0.000000 0.000000 )
	( 0.000000 0.000000 0.000000 ) ( 0.000000 0.000000 0.000000 )
	( 0.000000 0.000000 0.000000 ) ( 0.000000 0.000000 0.000000 )
	( 0.000000 0.000000 0.000000 ) ( 0.000000 0.000000 0.000000 )
	( 0.000000 0.000000 0.000000 ) ( 0.000000 0.000000 0.000000 )
	( 0.000000 0.000000 0.000000 ) ( 0.000000 0.000000 0.000000 )
	( 0.000000 0.000000 0.000000 ) ( 0.000000 0.000000 0.000000 )
	( 0.000000 0.000000 0.000000 ) ( 0.000000 0.000000 0.000000 )
	( 0.000000 0.000000 0.000000 ) ( 0.000000 0.000000 0.000000 )
	( 0.000000 0.000000 0.000000 ) ( 0.000000 0.000000 0.000000 )
	( 0.000000 0.000000 0.000000 ) ( 0.000000 0.000000 0.000000 )
	( 0.000000 0.000000 0.000000 ) ( 0.000000 0.000000 0.000000 )
	( 0.000000 0.000000 0.000000 ) ( 0.000000 0.000000 0.000000 )
	( 0.000000 0.000000 0.000000 ) ( 0.000000 0.000000 0.000000 )
	( 0.000000 0.000000 0.000000 ) ( 0.000000 0.000000 0.000000 )
	( 0.000000 0.000000 0.000000 ) ( 0.000000 0.000000 0.000000 )
	( 0.000000 0.000000 0.000000 ) ( 0.000000 0.000000 0.000000 )
	( 0.000000 0.000000 0.000000 ) ( 0.000000 0.000000 0.000000 )
	( 0.000000 0.000000 0.000000 ) ( 0.000000 0.000000 0.000000 )
	( 0.000000 0.000000 0.000000 ) ( 0.000000 0.000000 0.000000 )
	( 0.000000 0.000000 0.000000 ) ( 0.000000 0.000000 0.000000 )
	( 0.000000 0.000000 0.000000 ) ( 0.000000 0.000000 0.000000 )
	( 0.000000 0.000000 0.000000 ) ( 0.000000 0.000000 0.000000 )
	( 0.000000 0.000000 0.000000 ) ( 0.000000 0.000000 0.000000 )
	( 0.000000 0.000000 0.000000 ) ( 0.000000 0.000000 0.000000 )
	( 0.000000 0.000000 0.000000 ) ( 0.000000 0.000000 0.000000 )
	( 0.000000 0.000000 0.000000 ) ( 0.000000 0.000000 0.000000 )
	( 0.000000 0.000000 0.000000 ) ( 0.000000 0.000000 0.000000 )
	( 0.000000 0.000000 0.000000 ) ( 0.000000 0.000000 0.000000 )
	( 0.000000 0.000000 0.000000 ) ( 0.000000 0.000000 0.000000 )
	( 0.000000 0.000000 0.000000 ) ( 0.000000 0.000000 0.000000 )
	( 0.000000 0.000000 0.000000 ) ( 0.000000 0.000000 0.000000 )
	( 0.000000 0.000000 0.000000 ) ( 0.000000 0.000000 0.000000 )
	( 0.000000 0.000000 0.000000 ) ( 0.000000 0.000000 0.000000 )
	( 0.000000 0.000000 0.000000 ) ( 0.000000 0.000000 0.000000 )
	( 0.000000 0.000000 0.000000 ) ( 0.000000 0.000000 0.000000 )
	( 0.000000 0.000000 0.000000 ) ( 0.000000 0.000000 0.000000 )
	( 0.000000 0.000000 0.000000 ) ( 0.000000 0.000000 0.000000 )
	( 0.000000 0.000000 0.000000 ) ( 0.000000 0.000000 0.000000 )
	( 0.000000 0.000000 0.000000 ) ( 0.000000 0.000000 0.000000 )
	( 0.000000 0.000000 0.000000 ) ( 0.000000 0.000000 0.000000 )
	( 0.000000 0.000000 0.000000 ) ( 0.000000 0.000000 0.000000 )
	( 0.000000 0.000000 0.000000 ) ( 0.000000 0.000000 0.000000 )
	( 0.000000 0.000000 0.000000 ) ( 0.000000 0.000000 0.000000 )
	( 0.000000 0.000000 0.000000 ) ( 0.000000 0.000000 0.000000 )
	( 0.000000 0.000000 0.000000 ) ( 0.000000 0.000000 0.000000 )
	( 0.000000 0.000000 0.000000 ) ( 0.000000 0.000000 0.000000 )
	( 0.000000 0.000000 0.000000 ) ( 0.000000 0.000000 0.000000 )
	( 0.000000 0.000000 0.000000 ) ( 0.000000 0.000000 0.000000 )
	( 0.000000 0.000000 0.000000 ) ( 0.000000 0.000000 0.000000 )
	( 0.000000 0.000000 0.000000 ) ( 0.000000 0.000000 0.000000 )
	( 0.000000 0.000000 0.000000 ) ( 0.000000 0.000000 0.000000 )
	( 0.000000 0.000000 0.000000 ) ( 0.000000 0.000000 0.000000 )
	( 0.000000 0.000000 0.000000 ) ( 0.000000 0.000000 0.000000 )
	( 0.000000 0.000000 0.000000 ) ( 0.000000 0.000000 0.000000 )
	( 0.000000 0.000000 0.000000 ) ( 0.000000 0.000000 0.000000 )
	( 0.000000 0.000000 0.000000 ) ( 0.000000 0.000000 0.000000 )
	( 0.000000 0.000000 0.000000 ) ( 0.000000 0.000000 0.000000 )
}

baseframe {
	( 0.000000 0.000000 0.000000 ) ( -0.000000 -0.000000 -0.000000 )
	( 2.516594 -9.984591 -19.776464 ) ( -0.000000 0.000000 0.000332 )
	( 42.437859 1.321201 4.473041 ) ( 0.000000 0.000000 -0.000332 )
	( 22.080593 -3.577745 3.863950 ) ( 0.000000 -0.000000 -0.000332 )
}

frame 0 {
	2.516594 -9.984591 -19.776464 -0.000000 0.000000 0.000332
}

frame 1 {
	2.516594 -9.984591 -19.776464 -0.000502 0.000000 0.000332
}

frame 2 {
	2.516594 -9.984591 -19.776464 -0.001004 0.000000 0.000332
}

frame 3 {
	2.516594 -9.984591 -19.776464 -0.001505 0.000001 0.000332
}

frame 4 {
	2.516594 -9.984591 -19.776464 -0.002006 0.000001 0.000332
}

frame 5 {
	2.516594 -9.984591 -19.776464 -0.002506 0.000001 0.000332
}

frame 6 {
	2.516594 -9.984591 -19.776464 -0.003006 0.000001 0.000332
}

frame 7 {
	2.516594 -9.984591 -19.776464 -0.003505 0.000001 0.000332
}

frame 8 {
	2.516594 -9.984591 -19.776464 -0.004005 0.000001 0.000332
}

frame 9 {
	2.516594 -9.984591 -19.776464 -0.004504 0.000001 0.000332
}

frame 10 {
	2.516594 -9.984591 -19.776464 -0.005003 0.000002 0.000332
}

frame 11 {
	2.516594 -9.984591 -19.776464 -0.005502 0.000002 0.000332
}

frame 12 {
	2.516594 -9.984591 -19.776464 -0.006001 0.000002 0.000332
}

frame 13 {
	2.516594 -9.984591 -19.776464 -0.006501 0.000002 0.000332
}

frame 14 {
	2.516594 -9.984591 -19.776464 -0.007001 0.000002 0.000332
}

frame 15 {
	2.516594 -9.984591 -19.776464 -0.007501 0.000002 0.000332
}

frame 16 {
	2.516594 -9.984591 -19.776464 -0.008003 0.000003 0.000332
}

frame 17 {
	2.516594 -9.984591 -19.776464 -0.008505 0.000003 0.000332
}

frame 18 {
	2.516594 -9.984591 -19.776464 -0.009008 0.000003 0.000332
}

frame 19 {
	2.516594 -9.984591 -19.776464 -0.009511 0.000003 0.000332
}

frame 20 {
	2.516594 -9.984591 -19.776464 -0.010016 0.000003 0.000332
}

frame 21 {
	2.516594 -9.984591 -19.776464 -0.010522 0.000003 0.000332
}

frame 22 {
	2.516594 -9.984591 -19.776464 -0.011028 0.000004 0.000332
}

frame 23 {
	2.516594 -9.984591 -19.776464 -0.011536 0.000004 0.000332
}

frame 24 {
	2.516594 -9.984591 -19.776464 -0.012044 0.000004 0.000332
}

frame 25 {
	2.516594 -9.984591 -19.776464 -0.012554 0.000004 0.000332
}

frame 26 {
	2.516594 -9.984591 -19.776464 -0.013064 0.000004 0.000332
}

frame 27 {
	2.516594 -9.984591 -19.776464 -0.013595 0.000069 0.000334
}

frame 28 {
	2.516594 -9.984591 -19.776464 -0.014163 0.000264 0.000339
}

frame 29 {
	2.516594 -9.984591 -19.776464 -0.014769 0.000591 0.000347
}

frame 30 {
	2.516594 -9.984591 -19.776464 -0.015410 0.001048 0.000358
}

frame 31 {
	2.516594 -9.984591 -19.776464 -0.016081 0.001631 0.000373
}

frame 32 {
	2.516594 -9.984591 -19.776464 -0.016779 0.002336 0.000391
}

frame 33 {
	2.516594 -9.984591 -19.776464 -0.017496 0.003151 0.000411
}

frame 34 {
	2.516594 -9.984591 -19.776464 -0.018226 0.004064 0.000434
}

frame 35 {
	2.516594 -9.984591 -19.776464 -0.018960 0.005058 0.000459
}

frame 36 {
	2.516594 -9.984591 -19.776464 -0.019689 0.006112 0.000485
}

frame 37 {
	2.516594 -9.984591 -19.776464 -0.020402 0.007204 0.000512
}

frame 38 {
	2.516594 -9.984591 -19.776464 -0.021089 0.008309 0.000540
}

frame 39 {
	2.516594 -9.984591 -19.776464 -0.021740 0.009401 0.000567
}

frame 40 {
	2.516594 -9.984591 -19.776464 -0.022346 0.010455 0.000594
}

frame 41 {
	2.516594 -9.984591 -19.776464 -0.022899 0.011449 0.000618
}

frame 42 {
	2.516594 -9.984591 -19.776464 -0.023393 0.012362 0.000641
}

frame 43 {
	2.516594 -9.984591 -19.776464 -0.023823 0.013177 0.000662
}

frame 44 {
	2.516594 -9.984591 -19.776464 -0.024187 0.013881 0.000679
}

frame 45 {
	2.516594 -9.984591 -19.776464 -0.024482 0.014465 0.000694
}

frame 46 {
	2.516594 -9.984591 -19.776464 -0.024710 0.014922 0.000705
}

frame 47 {
	2.516594 -9.984591 -19.776464 -0.024870 0.015248 0.000713
}

frame 48 {
	2.516594 -9.984591 -19.776464 -0.024964 0.015443 0.000718
}

frame 49 {
	2.516594 -9.984591 -19.776464 -0.024995 0.015508 0.000720
}

frame 50 {
	2.516594 -9.984591 -19.776464 -0.024930 0.015491 0.000715
}

frame 51 {
	2.516594 -9.984591 -19.776464 -0.024731 0.015439 0.000699
}

frame 52 {
	2.516594 -9.984591 -19.776464 -0.024399 0.015352 0.000672
}

frame 53 {
	2.516594 -9.984591 -19.776464 -0.023931 0.015229 0.000635
}

frame 54 {
	2.516594 -9.984591 -19.776464 -0.023329 0.015070 0.000587
}

frame 55 {
	2.516594 -9.984591 -19.776464 -0.022591 0.014874 0.000529
}

frame 56 {
	2.516594 -9.984591 -19.776464 -0.021719 0.014641 0.000459
}

frame 57 {
	2.516594 -9.984591 -19.776464 -0.020713 0.014372 0.000379
}

frame 58 {
	2.516594 -9.984591 -19.776464 -0.019574 0.014066 0.000289
}

frame 59 {
	2.516594 -9.984591 -19.776464 -0.018306 0.013724 0.000188
}

frame 60 {
	2.516594 -9.984591 -19.776464 -0.016910 0.013345 0.000077
}

frame 61 {
	2.516594 -9.984591 -19.776464 -0.015391 0.012931 -0.000043
}

frame 62 {
	2.516594 -9.984591 -19.776464 -0.013751 0.012481 -0.000174
}

frame 63 {
	2.516594 -9.984591 -19.776464 -0.011997 0.011998 -0.000313
}

frame 64 {
	2.516594 -9.984591 -19.776464 -0.010134 0.011481 -0.000461
}

frame 65 {
	2.516594 -9.984591 -19.776464 -0.008168 0.010932 -0.000617
}

frame 66 {
	2.516594 -9.984591 -19.776464 -0.006107 0.010353 -0.000781
}

frame 67 {
	2.516594 -9.984591 -19.776464 -0.003959 0.009744 -0.000951
}

frame 68 {
	2.516594 -9.984591 -19.776464 -0.001733 0.009109 -0.001128
}

frame 69 {
	2.516594 -9.984591 -19.776464 0.000562 0.008449 -0.001310
}

frame 70 {
	2.516594 -9.984591 -19.776464 0.002915 0.007766 -0.001497
}

frame 71 {
	2.516594 -9.984591 -19.776464 0.005314 0.007063 -0.001688
}

frame 72 {
	2.516594 -9.984591 -19.776464 0.007750 0.006342 -0.001881
}

frame 73 {
	2.516594 -9.984591 -19.776464 0.010210 0.005606 -0.002077
}

frame 74 {
	2.516594 -9.984591 -19.776464 0.012682 0.004857 -0.002273
}

frame 75 {
	2.516594 -9.984591 -19.776464 0.015153 0.004099 -0.002469
}

frame 76 {
	2.516594 -9.984591 -19.776464 0.017613 0.003335 -0.002664
}

frame 77 {
	2.516594 -9.984591 -19.776464 0.020048 0.002567 -0.002858
}

frame 78 {
	2.516594 -9.984591 -19.776464 0.022447 0.001798 -0.003048
}

frame 79 {
	2.516594 -9.984591 -19.776464 0.024799 0.001031 -0.003235
}

frame 80 {
	2.516594 -9.984591 -19.776464 0.027092 0.000269 -0.003417
}

frame 81 {
	2.516594 -9.984591 -19.776464 0.029317 -0.000485 -0.003593
}

frame 82 {
	2.516594 -9.984591 -19.776464 0.031464 -0.001229 -0.003764
}

frame 83 {
	2.516594 -9.984591 -19.776464 0.033523 -0.001961 -0.003927
}

frame 84 {
	2.516594 -9.984591 -19.776464 0.035487 -0.002679 -0.004083
}

frame 85 {
	2.516594 -9.984591 -19.776464 0.037349 -0.003379 -0.004231
}

frame 86 {
	2.516594 -9.984591 -19.776464 0.039102 -0.004062 -0.004370
}

frame 87 {
	2.516594 -9.984591 -19.776464 0.040740 -0.004724 -0.004500
}

frame 88 {
	2.516594 -9.984591 -19.776464 0.042258 -0.005364 -0.004621
}

frame 89 {
	2.516594 -9.984591 -19.776464 0.043652 -0.005982 -0.004731
}

frame 90 {
	2.516594 -9.984591 -19.776464 0.044919 -0.006575 -0.004832
}

frame 91 {
	2.516594 -9.984591 -19.776464 0.046056 -0.007143 -0.004922
}

frame 92 {
	2.516594 -9.984591 -19.776464 0.047061 -0.007685 -0.005002
}

frame 93 {
	2.516594 -9.984591 -19.776464 0.047932 -0.008201 -0.005071
}

frame 94 {
	2.516594 -9.984591 -19.776464 0.048669 -0.008690 -0.005129
}

frame 95 {
	2.516594 -9.984591 -19.776464 0.049271 -0.009151 -0.005177
}

frame 96 {
	2.516594 -9.984591 -19.776464 0.049737 -0.009585 -0.005214
}

frame 97 {
	2.516594 -9.984591 -19.776464 0.050070 -0.009991 -0.005240
}

frame 98 {
	2.516594 -9.984591 -19.776464 0.050268 -0.010368 -0.005256
}

frame 99 {
	2.516594 -9.984591 -19.776464 0.050334 -0.010718 -0.005261
}

frame 100 {
	2.516594 -9.984591 -19.776464 0.050258 -0.011051 -0.005244
}

frame 101 {
	2.516594 -9.984591 -19.776464 0.050029 -0.011379 -0.005192
}

frame 102 {
	2.516594 -9.984591 -19.776464 0.049647 -0.011701 -0.005106
}

frame 103 {
	2.516594 -9.984591 -19.776464 0.049111 -0.012018 -0.004984
}

frame 104 {
	2.516594 -9.984591 -19.776464 0.048419 -0.012329 -0.004828
}

frame 105 {
	2.516594 -9.984591 -19.776464 0.047573 -0.012633 -0.004636
}

frame 106 {
	2.516594 -9.984591 -19.776464 0.046572 -0.012931 -0.004409
}

frame 107 {
	2.516594 -9.984591 -19.776464 0.045418 -0.013222 -0.004148
}

frame 108 {
	2.516594 -9.984591 -19.776464 0.044112 -0.013505 -0.003852
}

frame 109 {
	2.516594 -9.984591 -19.776464 0.042657 -0.013782 -0.003522
}

frame 110 {
	2.516594 -9.984591 -19.776464 0.041056 -0.014050 -0.003159
}

frame 111 {
	2.516594 -9.984591 -19.776464 0.039312 -0.014310 -0.002764
}

frame 112 {
	2.516594 -9.984591 -19.776464 0.037431 -0.014563 -0.002338
}

frame 113 {
	2.516594 -9.984591 -19.776464 0.035418 -0.014806 -0.001882
}

frame 114 {
	2.516594 -9.984591 -19.776464 0.033280 -0.015041 -0.001397
}

frame 115 {
	2.516594 -9.984591 -19.776464 0.031024 -0.015266 -0.000886
}

frame 116 {
	2.516594 -9.984591 -19.776464 0.028659 -0.015483 -0.000351
}

frame 117 {
	2.516594 -9.984591 -19.776464 0.026193 -0.015689 0.000208
}

frame 118 {
	2.516594 -9.984591 -19.776464 0.023638 -0.015886 0.000787
}

frame 119 {
	2.516594 -9.984591 -19.776464 0.021004 -0.016074 0.001383
}

frame 120 {
	2.516594 -9.984591 -19.776464 0.018303 -0.016252 0.001995
}

frame 121 {
	2.516594 -9.984591 -19.776464 0.015547 -0.016419 0.002619
}

frame 122 {
	2.516594 -9.984591 -19.776464 0.012750 -0.016577 0.003252
}

frame 123 {
	2.516594 -9.984591 -19.776464 0.009926 -0.016725 0.003891
}

frame 124 {
	2.516594 -9.984591 -19.776464 0.007087 -0.016864 0.004534
}

frame 125 {
	2.516594 -9.984591 -19.776464 0.004248 -0.016992 0.005177
}

frame 126 {
	2.516594 -9.984591 -19.776464 0.001423 -0.017112 0.005816
}

frame 127 {
	2.516594 -9.984591 -19.776464 -0.001374 -0.017222 0.006449
}

frame 128 {
	2.516594 -9.984591 -19.776464 -0.004130 -0.017324 0.007073
}

frame 129 {
	2.516594 -9.984591 -19.776464 -0.006832 -0.017417 0.007684
}

frame 130 {
	2.516594 -9.984591 -19.776464 -0.009467 -0.017501 0.008281
}

frame 131 {
	2.516594 -9.984591 -19.776464 -0.012023 -0.017578 0.008859
}

frame 132 {
	2.516594 -9.984591 -19.776464 -0.014490 -0.017647 0.009417
}

frame 133 {
	2.516594 -9.984591 -19.776464 -0.016856 -0.017709 0.009952
}

frame 134 {
	2.516594 -9.984591 -19.776464 -0.019113 -0.017765 0.010463
}

frame 135 {
	2.516594 -9.984591 -19.776464 -0.021253 -0.017814 0.010947
}

frame 136 {
	2.516594 -9.984591 -19.776464 -0.023267 -0.017857 0.011402
}

frame 137 {
	2.516594 -9.984591 -19.776464 -0.025149 -0.017895 0.011828
}

frame 138 {
	2.516594 -9.984591 -19.776464 -0.026893 -0.017928 0.012222
}

frame 139 {
	2.516594 -9.984591 -19.776464 -0.028496 -0.017956 0.012585
}

frame 140 {
	2.516594 -9.984591 -19.776464 -0.029951 -0.017980 0.012914
}

frame 141 {
	2.516594 -9.984591 -19.776464 -0.031258 -0.018000 0.013209
}

frame 142 {
	2.516594 -9.984591 -19.776464 -0.032413 -0.018016 0.013470
}

frame 143 {
	2.516594 -9.984591 -19.776464 -0.033414 -0.018029 0.013697
}

frame 144 {
	2.516594 -9.984591 -19.776464 -0.034260 -0.018040 0.013888
}

frame 145 {
	2.516594 -9.984591 -19.776464 -0.034952 -0.018048 0.014044
}

frame 146 {
	2.516594 -9.984591 -19.776464 -0.035488 -0.018053 0.014166
}

frame 147 {
	2.516594 -9.984591 -19.776464 -0.035870 -0.018057 0.014252
}

frame 148 {
	2.516594 -9.984591 -19.776464 -0.036098 -0.018059 0.014303
}

frame 149 {
	2.516594 -9.984591 -19.776464 -0.036173 -0.018059 0.014320
}

frame 150 {
	2.516594 -9.984591 -19.776464 -0.036154 -0.018050 0.014313
}

frame 151 {
	2.516594 -9.984591 -19.776464 -0.036097 -0.018021 0.014291
}

frame 152 {
	2.516594 -9.984591 -19.776464 -0.036002 -0.017974 0.014254
}

frame 153 {
	2.516594 -9.984591 -19.776464 -0.035867 -0.017906 0.014202
}

frame 154 {
	2.516594 -9.984591 -19.776464 -0.035693 -0.017819 0.014134
}

frame 155 {
	2.516594 -9.984591 -19.776464 -0.035478 -0.017712 0.014051
}

frame 156 {
	2.516594 -9.984591 -19.776464 -0.035222 -0.017584 0.013952
}

frame 157 {
	2.516594 -9.984591 -19.776464 -0.034925 -0.017436 0.013837
}

frame 158 {
	2.516594 -9.984591 -19.776464 -0.034586 -0.017267 0.013706
}

frame 159 {
	2.516594 -9.984591 -19.776464 -0.034205 -0.017077 0.013559
}

frame 160 {
	2.516594 -9.984591 -19.776464 -0.033783 -0.016866 0.013396
}

frame 161 {
	2.516594 -9.984591 -19.776464 -0.033318 -0.016634 0.013216
}

frame 162 {
	2.516594 -9.984591 -19.776464 -0.032812 -0.016381 0.013021
}

frame 163 {
	2.516594 -9.984591 -19.776464 -0.032265 -0.016108 0.012809
}

frame 164 {
	2.516594 -9.984591 -19.776464 -0.031678 -0.015815 0.012582
}

frame 165 {
	2.516594 -9.984591 -19.776464 -0.031051 -0.015502 0.012339
}

frame 166 {
	2.516594 -9.984591 -19.776464 -0.030385 -0.015169 0.012082
}

frame 167 {
	2.516594 -9.984591 -19.776464 -0.029681 -0.014818 0.011810
}

frame 168 {
	2.516594 -9.984591 -19.776464 -0.028942 -0.014449 0.011524
}

frame 169 {
	2.516594 -9.984591 -19.776464 -0.028168 -0.014062 0.011224
}

frame 170 {
	2.516594 -9.984591 -19.776464 -0.027361 -0.013660 0.010913
}

frame 171 {
	2.516594 -9.984591 -19.776464 -0.026524 -0.013242 0.010589
}

frame 172 {
	2.516594 -9.984591 -19.776464 -0.025658 -0.012809 0.010254
}

frame 173 {
	2.516594 -9.984591 -19.776464 -0.024766 -0.012364 0.009909
}

frame 174 {
	2.516594 -9.984591 -19.776464 -0.023851 -0.011907 0.009555
}

frame 175 {
	2.516594 -9.984591 -19.776464 -0.022915 -0.011440 0.009193
}

frame 176 {
	2.516594 -9.984591 -19.776464 -0.021960 -0.010963 0.008824
}

frame 177 {
	2.516594 -9.984591 -19.776464 -0.020991 -0.010479 0.008449
}

frame 178 {
	2.516594 -9.984591 -19.776464 -0.020009 -0.009989 0.008070
}

frame 179 {
	2.516594 -9.984591 -19.776464 -0.019017 -0.009494 0.007686
}

frame 180 {
	2.516594 -9.984591 -19.776464 -0.018018 -0.008995 0.007300
}

frame 181 {
	2.516594 -9.984591 -19.776464 -0.017016 -0.008495 0.006912
}

frame 182 {
	2.516594 -9.984591 -19.776464 -0.016012 -0.007994 0.006524
}

frame 183 {
	2.516594 -9.984591 -19.776464 -0.015009 -0.007493 0.006136
}

frame 184 {
	2.516594 -9.984591 -19.776464 -0.014010 -0.006995 0.005750
}

frame 185 {
	2.516594 -9.984591 -19.776464 -0.013018 -0.006499 0.005366
}

frame 186 {
	2.516594 -9.984591 -19.776464 -0.012033 -0.006008 0.004986
}

frame 187 {
	2.516594 -9.984591 -19.776464 -0.011059 -0.005521 0.004609
}

frame 188 {
	2.516594 -9.984591 -19.776464 -0.010098 -0.005041 0.004237
}

frame 189 {
	2.516594 -9.984591 -19.776464 -0.009150 -0.004568 0.003871
}

frame 190 {
	2.516594 -9.984591 -19.776464 -0.008219 -0.004103 0.003510
}

frame 191 {
	2.516594 -9.984591 -19.776464 -0.007304 -0.003646 0.003157
}

frame 192 {
	2.516594 -9.984591 -19.776464 -0.006407 -0.003199 0.002810
}

frame 193 {
	2.516594 -9.984591 -19.776464 -0.005530 -0.002761 0.002471
}

frame 194 {
	2.516594 -9.984591 -19.776464 -0.004674 -0.002333 0.002140
}

frame 195 {
	2.516594 -9.984591 -19.776464 -0.003838 -0.001916 0.001817
}

frame 196 {
	2.516594 -9.984591 -19.776464 -0.003025 -0.001510 0.001502
}

frame 197 {
	2.516594 -9.984591 -19.776464 -0.002234 -0.001115 0.001196
}

frame 198 {
	2.516594 -9.984591 -19.776464 -0.001466 -0.000732 0.000899
}

frame 199 {
	2.516594 -9.984591 -19.776464 -0.000721 -0.000360 0.000611
}

