MD5Version 10
commandline ""

numFrames 200
numJoints 4
frameRate 24
numAnimatedComponents 6

hierarchy {
	"origin"	-1 0 0	//
	"weapon"	0 63 0	// origin
	"shot"	1 0 0	// weapon
	"shell"	1 0 0	// weapon
}

bounds {
	( 0.000000 0.000000 0.000000 ) ( 0.000000 0.000000 0.000000 )
	( 0.000000 0.000000 0.000000 ) ( 0.000000 0.000000 0.000000 )
	( 0.000000 0.000000 0.000000 ) ( 0.000000 0.000000 0.000000 )
	( 0.000000 0.000000 0.000000 ) ( 0.000000 0.000000 0.000000 )
	( 0.000000 0.000000 0.000000 ) ( 0.000000 0.000000 0.000000 )
	( 0.000000 0.000000 0.000000 ) ( 0.000000 0.000000 0.000000 )
	( 0.000000 0.000000 0.000000 ) ( 0.000000 0.000000 0.000000 )
	( 0.000000 0.000000 0.000000 ) ( 0.000000 0.000000 0.000000 )
	( 0.000000 0.000000 0.000000 ) ( 0.000000 0.000000 0.000000 )
	( 0.000000 0.000000 0.000000 ) ( 0.000000 0.000000 0.000000 )
	( 0.000000 0.000000 0.000000 ) ( 0.000000 0.000000 0.000000 )
	( 0.000000 0.000000 0.000000 ) ( 0.000000 0.000000 0.000000 )
	( 0.000000 0.000000 0.000000 ) ( 0.000000 0.000000 0.000000 )
	( 0.000000 0.000000 0.000000 ) ( 0.000000 0.000000 0.000000 )
	( 0.000000 0.000000 0.000000 ) ( 0.000000 0.000000 0.000000 )
	( 0.000000 0.000000 0.000000 ) ( 0.000000 0.000000 0.000000 )
	( 0.000000 0.000000 0.000000 ) ( 0.000000 0.000000 0.000000 )
	( 0.000000 0.000000 0.000000 ) ( 0.000000 0.000000 0.000000 )
	( 0.000000 0.000000 0.000000 ) ( 0.000000 0.000000 0.000000 )
	( 0.000000 0.000000 0.000000 ) ( 0.000000 0.000000 0.000000 )
	( 0.000000 0.000000 0.000000 ) ( 0.000000 0.000000 0.000000 )
	( 0.000000 0.000000 0.000000 ) ( 0.000000 0.000000 0.000000 )
	( 0.000000 0.000000 0.000000 ) ( 0.000000 0.000000 0.000000 )
	( 0.000000 0.000000 0.000000 ) ( 0.000000 0.000000 0.000000 )
	( 0.000000 0.000000 0.000000 ) ( 0.000000 0.000000 0.000000 )
	( 0.000000 0.000000 0.000000 ) ( 0.000000 0.000000 0.000000 )
	( 0.000000 0.000000 0.000000 ) ( 0.000000 0.000000 0.000000 )
	( 0.000000 0.000000 0.000000 ) ( 0.000000 0.000000 0.000000 )
	( 0.000000 0.000000 0.000000 ) ( 0.000000 0.000000 0.000000 )
	( 0.000000 0.000000 0.000000 ) ( 0.000000 0.000000 0.000000 )
	( 0.000000 0.000000 0.000000 ) ( 0.000000 0.000000 0.000000 )
	( 0.000000 0.000000 0.000000 ) ( 0.000000 0.000000 0.000000 )
	( 0.000000 0.000000 0.000000 ) ( 0.000000 0.000000 0.000000 )
	( 0.000000 0.000000 0.000000 ) ( 0.000000 0.000000 0.000000 )
	( 0.000000 0.000000 0.000000 ) ( 0.000000 0.000000 0.000000 )
	( 0.000000 0.000000 0.000000 ) ( 0.000000 0.000000 0.000000 )
	( 0.000000 0.000000 0.000000 ) ( 0.000000 0.000000 0.000000 )
	( 0.000000 0.000000 0.000000 ) ( 0.000000 0.000000 0.000000 )
	( 0.000000 0.000000 0.000000 ) ( 0.000000 0.000000 0.000000 )
	( 0.000000 0.000000 0.000000 ) ( 0.000000 0.000000 0.000000 )
	( 0.000000 0.000000 0.000000 ) ( 0.000000 0.000000 0.000000 )
	( 0.000000 0.000000 0.000000 ) ( 0.000000 0.000000 0.000000 )
	( 0.000000 0.000000 0.000000 ) ( 0.000000 0.000000 0.000000 )
	( 0.000000 0.000000 0.000000 ) ( 0.000000 0.000000 0.000000 )
	( 0.000000 0.000000 0.000000 ) ( 0.000000 0.000000 0.000000 )
	( 0.000000 0.000000 0.000000 ) ( 0.000000 0.000000 0.000000 )
	( 0.000000 0.000000 0.000000 ) ( 0.000000 0.000000 0.000000 )
	( 0.000000 0.000000 0.000000 ) ( 0.000000 0.000000 0.000000 )
	( 0.000000 0.000000 0.000000 ) ( 0.000000 0.000000 0.000000 )
	( 0.000000 0.000000 0.000000 ) ( 0.000000 0.000000 0.000000 )
	( 0.000000 0.000000 0.000000 ) ( 0.000000 0.000000 0.000000 )
	( 0.000000 0.000000 0.000000 ) ( 0.000000 0.000000 0.000000 )
	( 0.000000 0.000000 0.000000 ) ( 0.000000 0.000000 0.000000 )
	( 0.000000 0.000000 0.000000 ) ( 0.000000 0.000000 0.000000 )
	( 0.000000 0.000000 0.000000 ) ( 0.000000 0.000000 0.000000 )
	( 0.000000 0.000000 0.000000 ) ( 0.000000 0.000000 0.000000 )
	( 0.000000 0.000000 0.000000 ) ( 0.000000 0.000000 0.000000 )
	( 0.000000 0.000000 0.000000 ) ( 0.000000 0.000000 0.000000 )
	( 0.000000 0.000000 0.000000 ) ( 0.000000 0.000000 0.000000 )
	( 0.000000 0.000000 0.000000 ) ( 0.000000 0.000000 0.000000 )
	( 0.000000 0.000000 0.000000 ) ( 0.000000 0.000000 0.000000 )
	( 0.000000 0.000000 0.000000 ) ( 0.000000 0.000000 0.000000 )
	( 0.000000 0.000000 0.000000 ) ( 0.000000 0.000000 0.000000 )
	( 0.000000 0.000000 0.000000 ) ( 0.000000 0.000000 0.000000 )
	( 0.000000 0.000000 0.000000 ) ( 0.000000 0.000000 0.000000 )
	( 0.000000 0.000000 0.000000 ) ( 0.000000 0.000000 0.000000 )
	( 0.000000 0.000000 0.000000 ) ( 0.000000 0.000000 0.000000 )
	( 0.000000 0.000000 0.000000 ) ( 0.000000 0.000000 0.000000 )
	( 0.000000 0.000000 0.000000 ) ( 0.000000 0.000000 0.000000 )
	( 0.000000 0.000000 0.000000 ) ( 0.000000 0.000000 0.000000 )
	( 0.000000 0.000000 0.000000 ) ( 0.000000 0.000000 0.000000 )
	( 0.000000 0.000000 0.000000 ) ( 0.000000 0.000000 0.000000 )
	( 0.000000 0.000000 0.000000 ) ( 0.000000 0.000000 0.000000 )
	( 0.000000 0.000000 0.000000 ) ( 0.000000 0.000000 0.000000 )
	( 0.000000 0.000000 0.000000 ) ( 0.000000 0.000000 0.000000 )
	( 0.000000 0.000000 0.000000 ) ( 0.000000 0.000000 0.000000 )
	( 0.000000 0.000000 0.000000 ) ( 0.000000 0.000000 0.000000 )
	( 0.000000 0.000000 0.000000 ) ( 0.000000 0.000000 0.000000 )
	( 0.000000 0.000000 0.000000 ) ( 0.000000 0.000000 0.000000 )
	( 0.000000 0.000000 0.000000 ) ( 0.000000 0.000000 0.000000 )
	( 0.000000 0.000000 0.000000 ) ( 0.000000 0.000000 0.000000 )
	( 0.000000 0.000000 0.000000 ) ( 0.000000 0.000000 0.000000 )
	( 0.000000 0.000000 0.000000 ) ( 0.000000 0.000000 0.000000 )
	( 0.000000 0.000000 0.000000 ) ( 0.000000 0.000000 0.000000 )
	( 0.000000 0.000000 0.000000 ) ( 0.000000 0.000000 0.000000 )
	( 0.000000 0.000000 0.000000 ) ( 0.000000 0.000000 0.000000 )
	( 0.000000 0.000000 0.000000 ) ( 0.000000 0.000000 0.000000 )
	( 0.000000 0.000000 0.000000 ) ( 0.000000 0.000000 0.000000 )
	( 0.000000 0.000000 0.000000 ) ( 0.000000 0.000000 0.000000 )
	( 0.000000 0.000000 0.000000 ) ( 0.000000 0.000000 0.000000 )
	( 0.000000 0.000000 0.000000 ) ( 0.000000 0.000000 0.000000 )
	( 0.000000 0.000000 0.000000 ) ( 0.000000 0.000000 0.000000 )
	( 0.000000 0.000000 0.000000 ) ( 0.000000 0.000000 0.000000 )
	( 0.000000 0.000000 0.000000 ) ( 0.000000 0.000000 0.000000 )
	( 0.000000 0.000000 0.000000 ) ( 0.000000 0.000000 0.000000 )
	( 0.000000 0.000000 0.000000 ) ( 0.000000 0.000000 0.000000 )
	( 0.000000 0.000000 0.000000 ) ( 0.000000 0.000000 0.000000 )
	( 0.000000 0.000000 0.000000 ) ( 0.000000 0.000000 0.000000 )
	( 0.000000 0.000000 0.000000 ) ( 0.000000 0.000000 0.000000 )
	( 0.000000 0.000000 0.000000 ) ( 0.000000 0.000000 0.000000 )
	( 0.000000 0.000000 0.000000 ) ( 0.000000 0.000000 0.000000 )
	( 0.000000 0.000000 0.000000 ) ( 0.000000 0.000000 0.000000 )
	( 0.000000 0.000000 0.000000 ) ( 0.000000 0.000000 0.000000 )
	( 0.000000 0.000000 0.000000 ) ( 0.000000 0.000000 0.000000 )
	( 0.000000 0.000000 0.000000 ) ( 0.000000 0.000000 0.000000 )
	( 0.000000 0.000000 0.000000 ) ( 0.000000 0.000000 0.000000 )
	( 0.000000 0.000000 0.000000 ) ( 0.000000 0.000000 0.000000 )
	( 0.000000 0.000000 0.000000 ) ( 0.000000 0.000000 0.000000 )
	( 0.000000 0.000000 0.000000 ) ( 0.000000 0.000000 0.000000 )
	( 0.000000 0.000000 0.000000 ) ( 0.000000 0.000000 0.000000 )
	( 0.000000 0.000000 0.000000 ) ( 0.000000 0.000000 0.000000 )
	( 0.000000 0.000000 0.000000 ) ( 0.000000 0.000000 0.000000 )
	( 0.000000 0.000000 0.000000 ) ( 0.000000 0.000000 0.000000 )
	( 0.000000 0.000000 0.000000 ) ( 0.000000 0.000000 0.000000 )
	( 0.000000 0.000000 0.000000 ) ( 0.000000 0.000000 0.000000 )
	( 0.000000 0.000000 0.000000 ) ( 0.000000 0.000000 0.000000 )
	( 0.000000 0.000000 0.000000 ) ( 0.000000 0.000000 0.000000 )
	( 0.000000 0.000000 0.000000 ) ( 0.000000 0.000000 0.000000 )
	( 0.000000 0.000000 0.000000 ) ( 0.000000 0.000000 0.000000 )
	( 0.000000 0.000000 0.000000 ) ( 0.000000 0.000000 0.000000 )
	( 0.000000 0.000000 0.000000 ) ( 0.000000 0.000000 0.000000 )
	( 0.000000 0.000000 0.000000 ) ( 0.000000 0.000000 0.000000 )
	( 0.000000 0.000000 0.000000 ) ( 0.000000 0.000000 0.000000 )
	( 0.000000 0.000000 0.000000 ) ( 0.000000 0.000000 0.000000 )
	( 0.000000 0.000000 0.000000 ) ( 0.000000 0.000000 0.000000 )
	( 0.000000 0.000000 0.000000 ) ( 0.000000 0.000000 0.000000 )
	( 0.000000 0.000000 0.000000 ) ( 0.000000 0.000000 0.000000 )
	( 0.000000 0.000000 0.000000 ) ( 0.000000 0.000000 0.000000 )
	( 0.000000 0.000000 0.000000 ) ( 0.000000 0.000000 0.000000 )
	( 0.000000 0.000000 0.000000 ) ( 0.000000 0.000000 0.000000 )
	( 0.000000 0.000000 0.000000 ) ( 0.000000 0.000000 0.000000 )
	( 0.000000 0.000000 0.000000 ) ( 0.000000 0.000000 0.000000 )
	( 0.000000 0.000000 0.000000 ) ( 0.000000 0.000000 0.000000 )
	( 0.000000 0.000000 0.000000 ) ( 0.000000 0.000000 0.000000 )
	( 0.000000 0.000000 0.000000 ) ( 0.000000 0.000000 0.000000 )
	( 0.000000 0.000000 0.000000 ) ( 0.000000 0.000000 0.000000 )
	( 0.000000 0.000000 0.000000 ) ( 0.000000 0.000000 0.000000 )
	( 0.000000 0.000000 0.000000 ) ( 0.000000 0.000000 0.000000 )
	( 0.000000 0.000000 0.000000 ) ( 0.000000 0.000000 0.000000 )
	( 0.000000 0.000000 0.000000 ) ( 0.000000 0.000000 0.000000 )
	( 0.000000 0.000000 0.000000 ) ( 0.000000 0.000000 0.000000 )
	( 0.000000 0.000000 0.000000 ) ( 0.000000 0.000000 0.000000 )
	( 0.000000 0.000000 0.000000 ) ( 0.000000 0.000000 0.000000 )
	( 0.000000 0.000000 0.000000 ) ( 0.000000 0.000000 0.000000 )
	( 0.000000 0.000000 0.000000 ) ( 0.000000 0.000000 0.000000 )
	( 0.000000 0.000000 0.000000 ) ( 0.000000 0.000000 0.000000 )
	( 0.000000 0.000000 0.000000 ) ( 0.000000 0.000000 0.000000 )
	( 0.000000 0.000000 0.000000 ) ( 0.000000 0.000000 0.000000 )
	( 0.000000 0.000000 0.000000 ) ( 0.000000 0.000000 0.000000 )
	( 0.000000 0.000000 0.000000 ) ( 0.000000 0.000000 0.000000 )
	( 0.000000 0.000000 0.000000 ) ( 0.000000 0.000000 0.000000 )
	( 0.000000 0.000000 0.000000 ) ( 0.000000 0.000000 0.000000 )
	( 0.000000 0.000000 0.000000 ) ( 0.000000 0.000000 0.000000 )
	( 0.000000 0.000000 0.000000 ) ( 0.000000 0.000000 0.000000 )
	( 0.000000 0.000000 0.000000 ) ( 0.000000 0.000000 0.000000 )
	( 0.000000 0.000000 0.000000 ) ( 0.000000 0.000000 0.000000 )
	( 0.000000 0.000000 0.000000 ) ( 0.000000 0.000000 0.000000 )
	( 0.000000 0.000000 0.000000 ) ( 0.000000 0.000000 0.000000 )
	( 0.000000 0.000000 0.000000 ) ( 0.000000 0.000000 0.000000 )
	( 0.000000 0.000000 0.000000 ) ( 0.000000 0.000000 0.000000 )
	( 0.000000 0.000000 0.000000 ) ( 0.000000 0.000000 0.000000 )
	( 0.000000 0.000000 0.000000 ) ( 0.000000 0.000000 0.000000 )
	( 0.000000 0.000000 0.000000 ) ( 0.000000 0.000000 0.000000 )
	( 0.000000 0.000000 0.000000 ) ( 0.000000 0.000000 0.000000 )
	( 0.000000 0.000000 0.000000 ) ( 0.000000 0.000000 0.000000 )
	( 0.000000 0.000000 0.000000 ) ( 0.000000 0.000000 0.000000 )
	( 0.000000 0.000000 0.000000 ) ( 0.000000 0.000000 0.000000 )
	( 0.000000 0.000000 0.000000 ) ( 0.000000 0.000000 0.000000 )
	( 0.000000 0.000000 0.000000 ) ( 0.000000 0.000000 0.000000 )
	( 0.000000 0.000000 0.000000 ) ( 0.000000 0.000000 0.000000 )
	( 0.000000 0.000000 0.000000 ) ( 0.000000 0.000000 0.000000 )
	( 0.000000 0.000000 0.000000 ) ( 0.000000 0.000000 0.000000 )
	( 0.000000 0.000000 0.000000 ) ( 0.000000 0.000000 0.000000 )
	( 0.000000 0.000000 0.000000 ) ( 0.000000 0.000000 0.000000 )
	( 0.000000 0.000000 0.000000 ) ( 0.000000 0.000000 0.000000 )
	( 0.000000 0.000000 0.000000 ) ( 0.000000 0.000000 0.000000 )
	( 0.000000 0.000000 0.000000 ) ( 0.000000 0.000000 0.000000 )
	( 0.000000 0.000000 0.000000 ) ( 0.000000 0.000000 0.000000 )
	( 0.000000 0.000000 0.000000 ) ( 0.000000 0.000000 0.000000 )
	( 0.000000 0.000000 0.000000 ) ( 0.000000 0.000000 0.000000 )
	( 0.000000 0.000000 0.000000 ) ( 0.000000 0.000000 0.000000 )
	( 0.000000 0.000000 0.000000 ) ( 0.000000 0.000000 0.000000 )
	( 0.000000 0.000000 0.000000 ) ( 0.000000 0.000000 0.000000 )
	( 0.000000 0.000000 0.000000 ) ( 0.000000 0.000000 0.000000 )
	( 0.000000 0.000000 0.000000 ) ( 0.000000 0.000000 0.000000 )
	( 0.000000 0.000000 0.000000 ) ( 0.000000 0.000000 0.000000 )
	( 0.000000 0.000000 0.000000 ) ( 0.000000 0.000000 0.000000 )
	( 0.000000 0.000000 0.000000 ) ( 0.000000 0.000000 0.000000 )
	( 0.000000 0.000000 0.000000 ) ( 0.000000 0.000000 0.000000 )
	( 0.000000 0.000000 0.000000 ) ( 0.000000 0.000000 0.000000 )
	( 0.000000 0.000000 0.000000 ) ( 0.000000 0.000000 0.000000 )
	( 0.000000 0.000000 0.000000 ) ( 0.000000 0.000000 0.000000 )
	( 0.000000 0.000000 0.000000 ) ( 0.000000 0.000000 0.000000 )
	( 0.000000 0.000000 0.000000 ) ( 0.000000 0.000000 0.000000 )
	( 0.000000 0.000000 0.000000 ) ( 0.000000 0.000000 0.000000 )
	( 0.000000 0.000000 0.000000 ) ( 0.000000 0.000000 0.000000 )
	( 0.000000 0.000000 0.000000 ) ( 0.000000 0.000000 0.000000 )
	( 0.000000 0.000000 0.000000 ) ( 0.000000 0.000000 0.000000 )
	( 0.000000 0.000000 0.000000 ) ( 0.000000 0.000000 0.000000 )
	( 0.000000 0.000000 0.000000 ) ( 0.000000 0.000000 0.000000 )
}

baseframe {
	( 0.000000 0.000000 0.000000 ) ( -0.000000 -0.000000 -0.000000 )
	( 4.350708 -9.984997 -18.587168 ) ( -0.000000 0.000000 0.000332 )
	( 37.126469 1.543020 8.684062 ) ( 0.000000 0.000000 -0.000335 )
	( 16.348166 -4.226727 9.153497 ) ( 0.000000 -0.000000 -0.000332 )
}

frame 0 {
	4.350708 -9.984997 -18.587168 -0.000000 0.000000 0.000332
}

frame 1 {
	4.350708 -9.984997 -18.587168 0.000265 -0.000000 0.000332
}

frame 2 {
	4.350708 -9.984997 -18.587168 0.000536 -0.000000 0.000332
}

frame 3 {
	4.350708 -9.984997 -18.587168 0.000811 -0.000000 0.000332
}

frame 4 {
	4.350708 -9.984997 -18.587168 0.001090 -0.000000 0.000332
}

frame 5 {
	4.350708 -9.984997 -18.587168 0.001372 -0.000000 0.000332
}

frame 6 {
	4.350708 -9.984997 -18.587168 0.001658 -0.000001 0.000332
}

frame 7 {
	4.350708 -9.984997 -18.587168 0.001945 -0.000001 0.000332
}

frame 8 {
	4.350708 -9.984997 -18.587168 0.002233 -0.000001 0.000332
}

frame 9 {
	4.350708 -9.984997 -18.587168 0.002521 -0.000001 0.000332
}

frame 10 {
	4.350708 -9.984997 -18.587168 0.002807 -0.000001 0.000332
}

frame 11 {
	4.350708 -9.984997 -18.587168 0.003089 -0.000001 0.000332
}

frame 12 {
	4.350708 -9.984997 -18.587168 0.003367 -0.000001 0.000332
}

frame 13 {
	4.350708 -9.984997 -18.587168 0.003639 -0.000001 0.000332
}

frame 14 {
	4.350708 -9.984997 -18.587168 0.003903 -0.000001 0.000332
}

frame 15 {
	4.350708 -9.984997 -18.587168 0.004160 -0.000001 0.000332
}

frame 16 {
	4.350708 -9.984997 -18.587168 0.004409 -0.000001 0.000332
}

frame 17 {
	4.350708 -9.984997 -18.587168 0.004649 -0.000002 0.000332
}

frame 18 {
	4.350708 -9.984997 -18.587168 0.004881 -0.000002 0.000332
}

frame 19 {
	4.350708 -9.984997 -18.587168 0.005103 -0.000002 0.000332
}

frame 20 {
	4.350708 -9.984997 -18.587168 0.005318 -0.000002 0.000332
}

frame 21 {
	4.350708 -9.984997 -18.587168 0.005524 -0.000002 0.000332
}

frame 22 {
	4.350708 -9.984997 -18.587168 0.005728 -0.000023 0.000332
}

frame 23 {
	4.350708 -9.984997 -18.587168 0.005934 -0.000086 0.000332
}

frame 24 {
	4.350708 -9.984997 -18.587168 0.006143 -0.000191 0.000332
}

frame 25 {
	4.350708 -9.984997 -18.587168 0.006352 -0.000339 0.000333
}

frame 26 {
	4.350708 -9.984997 -18.587168 0.006563 -0.000529 0.000333
}

frame 27 {
	4.350708 -9.984997 -18.587168 0.006774 -0.000759 0.000333
}

frame 28 {
	4.350708 -9.984997 -18.587168 0.006984 -0.001029 0.000333
}

frame 29 {
	4.350708 -9.984997 -18.587168 0.007192 -0.001335 0.000334
}

frame 30 {
	4.350708 -9.984997 -18.587168 0.007397 -0.001675 0.000334
}

frame 31 {
	4.350708 -9.984997 -18.587168 0.007598 -0.002045 0.000335
}

frame 32 {
	4.350708 -9.984997 -18.587168 0.007794 -0.002439 0.000336
}

frame 33 {
	4.350708 -9.984997 -18.587168 0.007984 -0.002853 0.000338
}

frame 34 {
	4.350708 -9.984997 -18.587168 0.008165 -0.003280 0.000339
}

frame 35 {
	4.350708 -9.984997 -18.587168 0.008338 -0.003714 0.000341
}

frame 36 {
	4.350708 -9.984997 -18.587168 0.008500 -0.004148 0.000343
}

frame 37 {
	4.350708 -9.984997 -18.587168 0.008652 -0.004575 0.000346
}

frame 38 {
	4.350708 -9.984997 -18.587168 0.008791 -0.004989 0.000349
}

frame 39 {
	4.350708 -9.984997 -18.587168 0.008918 -0.005383 0.000352
}

frame 40 {
	4.350708 -9.984997 -18.587168 0.009032 -0.005753 0.000356
}

frame 41 {
	4.350708 -9.984997 -18.587168 0.009133 -0.006093 0.000360
}

frame 42 {
	4.350708 -9.984997 -18.587168 0.009221 -0.006399 0.000364
}

frame 43 {
	4.350708 -9.984997 -18.587168 0.009296 -0.006669 0.000369
}

frame 44 {
	4.350708 -9.984997 -18.587168 0.009358 -0.006900 0.000374
}

frame 45 {
	4.350708 -9.984997 -18.587168 0.009408 -0.007089 0.000379
}

frame 46 {
	4.350708 -9.984997 -18.587168 0.009445 -0.007237 0.000385
}

frame 47 {
	4.350708 -9.984997 -18.587168 0.009472 -0.007342 0.000390
}

frame 48 {
	4.350708 -9.984997 -18.587168 0.009487 -0.007405 0.000396
}

frame 49 {
	4.350708 -9.984997 -18.587168 0.009492 -0.007426 0.000403
}

frame 50 {
	4.350708 -9.984997 -18.587168 0.009471 -0.007422 0.000417
}

frame 51 {
	4.350708 -9.984997 -18.587168 0.009409 -0.007411 0.000445
}

frame 52 {
	4.350708 -9.984997 -18.587168 0.009304 -0.007391 0.000489
}

frame 53 {
	4.350708 -9.984997 -18.587168 0.009157 -0.007364 0.000547
}

frame 54 {
	4.350708 -9.984997 -18.587168 0.008967 -0.007328 0.000621
}

frame 55 {
	4.350708 -9.984997 -18.587168 0.008735 -0.007284 0.000710
}

frame 56 {
	4.350708 -9.984997 -18.587168 0.008461 -0.007232 0.000814
}

frame 57 {
	4.350708 -9.984997 -18.587168 0.008144 -0.007171 0.000932
}

frame 58 {
	4.350708 -9.984997 -18.587168 0.007786 -0.007102 0.001065
}

frame 59 {
	4.350708 -9.984997 -18.587168 0.007388 -0.007024 0.001213
}

frame 60 {
	4.350708 -9.984997 -18.587168 0.006949 -0.006938 0.001375
}

frame 61 {
	4.350708 -9.984997 -18.587168 0.006471 -0.006843 0.001550
}

frame 62 {
	4.350708 -9.984997 -18.587168 0.005956 -0.006740 0.001739
}

frame 63 {
	4.350708 -9.984997 -18.587168 0.005404 -0.006628 0.001941
}

frame 64 {
	4.350708 -9.984997 -18.587168 0.004819 -0.006509 0.002154
}

frame 65 {
	4.350708 -9.984997 -18.587168 0.004201 -0.006381 0.002379
}

frame 66 {
	4.350708 -9.984997 -18.587168 0.003554 -0.006246 0.002615
}

frame 67 {
	4.350708 -9.984997 -18.587168 0.002879 -0.006103 0.002859
}

frame 68 {
	4.350708 -9.984997 -18.587168 0.002180 -0.005953 0.003113
}

frame 69 {
	4.350708 -9.984997 -18.587168 0.001459 -0.005796 0.003374
}

frame 70 {
	4.350708 -9.984997 -18.587168 0.000720 -0.005633 0.003641
}

frame 71 {
	4.350708 -9.984997 -18.587168 -0.000033 -0.005464 0.003913
}

frame 72 {
	4.350708 -9.984997 -18.587168 -0.000798 -0.005290 0.004190
}

frame 73 {
	4.350708 -9.984997 -18.587168 -0.001571 -0.005111 0.004468
}

frame 74 {
	4.350708 -9.984997 -18.587168 -0.002347 -0.004927 0.004748
}

frame 75 {
	4.350708 -9.984997 -18.587168 -0.003123 -0.004740 0.005028
}

frame 76 {
	4.350708 -9.984997 -18.587168 -0.003896 -0.004549 0.005306
}

frame 77 {
	4.350708 -9.984997 -18.587168 -0.004661 -0.004356 0.005581
}

frame 78 {
	4.350708 -9.984997 -18.587168 -0.005414 -0.004161 0.005852
}

frame 79 {
	4.350708 -9.984997 -18.587168 -0.006153 -0.003964 0.006118
}

frame 80 {
	4.350708 -9.984997 -18.587168 -0.006874 -0.003767 0.006376
}

frame 81 {
	4.350708 -9.984997 -18.587168 -0.007573 -0.003569 0.006628
}

frame 82 {
	4.350708 -9.984997 -18.587168 -0.008248 -0.003372 0.006870
}

frame 83 {
	4.350708 -9.984997 -18.587168 -0.008895 -0.003176 0.007102
}

frame 84 {
	4.350708 -9.984997 -18.587168 -0.009513 -0.002981 0.007324
}

frame 85 {
	4.350708 -9.984997 -18.587168 -0.010098 -0.002787 0.007534
}

frame 86 {
	4.350708 -9.984997 -18.587168 -0.010649 -0.002596 0.007731
}

frame 87 {
	4.350708 -9.984997 -18.587168 -0.011164 -0.002408 0.007916
}

frame 88 {
	4.350708 -9.984997 -18.587168 -0.011642 -0.002223 0.008087
}

frame 89 {
	4.350708 -9.984997 -18.587168 -0.012081 -0.002041 0.008245
}

frame 90 {
	4.350708 -9.984997 -18.587168 -0.012480 -0.001862 0.008387
}

frame 91 {
	4.350708 -9.984997 -18.587168 -0.012837 -0.001688 0.008516
}

frame 92 {
	4.350708 -9.984997 -18.587168 -0.013154 -0.001518 0.008629
}

frame 93 {
	4.350708 -9.984997 -18.587168 -0.013428 -0.001352 0.008727
}

frame 94 {
	4.350708 -9.984997 -18.587168 -0.013660 -0.001190 0.008810
}

frame 95 {
	4.350708 -9.984997 -18.587168 -0.013850 -0.001034 0.008878
}

frame 96 {
	4.350708 -9.984997 -18.587168 -0.013997 -0.000882 0.008931
}

frame 97 {
	4.350708 -9.984997 -18.587168 -0.014101 -0.000735 0.008968
}

frame 98 {
	4.350708 -9.984997 -18.587168 -0.014164 -0.000592 0.008990
}

frame 99 {
	4.350708 -9.984997 -18.587168 -0.014185 -0.000455 0.008998
}

frame 100 {
	4.350708 -9.984997 -18.587168 -0.014160 -0.000318 0.008993
}

frame 101 {
	4.350708 -9.984997 -18.587168 -0.014085 -0.000177 0.008977
}

frame 102 {
	4.350708 -9.984997 -18.587168 -0.013959 -0.000032 0.008952
}

frame 103 {
	4.350708 -9.984997 -18.587168 -0.013783 0.000117 0.008915
}

frame 104 {
	4.350708 -9.984997 -18.587168 -0.013556 0.000270 0.008868
}

frame 105 {
	4.350708 -9.984997 -18.587168 -0.013277 0.000426 0.008810
}

frame 106 {
	4.350708 -9.984997 -18.587168 -0.012949 0.000587 0.008742
}

frame 107 {
	4.350708 -9.984997 -18.587168 -0.012569 0.000751 0.008663
}

frame 108 {
	4.350708 -9.984997 -18.587168 -0.012141 0.000918 0.008573
}

frame 109 {
	4.350708 -9.984997 -18.587168 -0.011663 0.001088 0.008473
}

frame 110 {
	4.350708 -9.984997 -18.587168 -0.011137 0.001262 0.008362
}

frame 111 {
	4.350708 -9.984997 -18.587168 -0.010564 0.001437 0.008241
}

frame 112 {
	4.350708 -9.984997 -18.587168 -0.009947 0.001615 0.008110
}

frame 113 {
	4.350708 -9.984997 -18.587168 -0.009286 0.001795 0.007969
}

frame 114 {
	4.350708 -9.984997 -18.587168 -0.008585 0.001977 0.007819
}

frame 115 {
	4.350708 -9.984997 -18.587168 -0.007844 0.002160 0.007660
}

frame 116 {
	4.350708 -9.984997 -18.587168 -0.007068 0.002343 0.007492
}

frame 117 {
	4.350708 -9.984997 -18.587168 -0.006260 0.002527 0.007316
}

frame 118 {
	4.350708 -9.984997 -18.587168 -0.005422 0.002711 0.007133
}

frame 119 {
	4.350708 -9.984997 -18.587168 -0.004558 0.002894 0.006943
}

frame 120 {
	4.350708 -9.984997 -18.587168 -0.003673 0.003076 0.006746
}

frame 121 {
	4.350708 -9.984997 -18.587168 -0.002770 0.003256 0.006545
}

frame 122 {
	4.350708 -9.984997 -18.587168 -0.001853 0.003434 0.006339
}

frame 123 {
	4.350708 -9.984997 -18.587168 -0.000927 0.003609 0.006129
}

frame 124 {
	4.350708 -9.984997 -18.587168 0.000003 0.003781 0.005916
}

frame 125 {
	4.350708 -9.984997 -18.587168 0.000933 0.003949 0.005702
}

frame 126 {
	4.350708 -9.984997 -18.587168 0.001859 0.004113 0.005486
}

frame 127 {
	4.350708 -9.984997 -18.587168 0.002776 0.004272 0.005270
}

frame 128 {
	4.350708 -9.984997 -18.587168 0.003679 0.004426 0.005054
}

frame 129 {
	4.350708 -9.984997 -18.587168 0.004564 0.004574 0.004840
}

frame 130 {
	4.350708 -9.984997 -18.587168 0.005428 0.004717 0.004628
}

frame 131 {
	4.350708 -9.984997 -18.587168 0.006266 0.004853 0.004419
}

frame 132 {
	4.350708 -9.984997 -18.587168 0.007075 0.004982 0.004214
}

frame 133 {
	4.350708 -9.984997 -18.587168 0.007851 0.005104 0.004013
}

frame 134 {
	4.350708 -9.984997 -18.587168 0.008591 0.005220 0.003818
}

frame 135 {
	4.350708 -9.984997 -18.587168 0.009292 0.005328 0.003628
}

frame 136 {
	4.350708 -9.984997 -18.587168 0.009953 0.005428 0.003444
}

frame 137 {
	4.350708 -9.984997 -18.587168 0.010570 0.005521 0.003267
}

frame 138 {
	4.350708 -9.984997 -18.587168 0.011143 0.005606 0.003097
}

frame 139 {
	4.350708 -9.984997 -18.587168 0.011669 0.005684 0.002935
}

frame 140 {
	4.350708 -9.984997 -18.587168 0.012147 0.005754 0.002781
}

frame 141 {
	4.350708 -9.984997 -18.587168 0.012575 0.005816 0.002634
}

frame 142 {
	4.350708 -9.984997 -18.587168 0.012955 0.005870 0.002496
}

frame 143 {
	4.350708 -9.984997 -18.587168 0.013283 0.005917 0.002367
}

frame 144 {
	4.350708 -9.984997 -18.587168 0.013561 0.005956 0.002246
}

frame 145 {
	4.350708 -9.984997 -18.587168 0.013789 0.005988 0.002134
}

frame 146 {
	4.350708 -9.984997 -18.587168 0.013965 0.006013 0.002031
}

frame 147 {
	4.350708 -9.984997 -18.587168 0.014090 0.006030 0.001936
}

frame 148 {
	4.350708 -9.984997 -18.587168 0.014165 0.006040 0.001851
}

frame 149 {
	4.350708 -9.984997 -18.587168 0.014190 0.006044 0.001774
}

frame 150 {
	4.350708 -9.984997 -18.587168 0.014183 0.006041 0.001703
}

frame 151 {
	4.350708 -9.984997 -18.587168 0.014161 0.006031 0.001634
}

frame 152 {
	4.350708 -9.984997 -18.587168 0.014123 0.006015 0.001567
}

frame 153 {
	4.350708 -9.984997 -18.587168 0.014071 0.005993 0.001503
}

frame 154 {
	4.350708 -9.984997 -18.587168 0.014002 0.005964 0.001442
}

frame 155 {
	4.350708 -9.984997 -18.587168 0.013918 0.005928 0.001383
}

frame 156 {
	4.350708 -9.984997 -18.587168 0.013818 0.005885 0.001326
}

frame 157 {
	4.350708 -9.984997 -18.587168 0.013701 0.005835 0.001272
}

frame 158 {
	4.350708 -9.984997 -18.587168 0.013568 0.005779 0.001221
}

frame 159 {
	4.350708 -9.984997 -18.587168 0.013419 0.005715 0.001172
}

frame 160 {
	4.350708 -9.984997 -18.587168 0.013253 0.005645 0.001126
}

frame 161 {
	4.350708 -9.984997 -18.587168 0.013071 0.005567 0.001083
}

frame 162 {
	4.350708 -9.984997 -18.587168 0.012872 0.005482 0.001042
}

frame 163 {
	4.350708 -9.984997 -18.587168 0.012658 0.005391 0.001003
}

frame 164 {
	4.350708 -9.984997 -18.587168 0.012427 0.005293 0.000968
}

frame 165 {
	4.350708 -9.984997 -18.587168 0.012181 0.005188 0.000934
}

frame 166 {
	4.350708 -9.984997 -18.587168 0.011919 0.005077 0.000903
}

frame 167 {
	4.350708 -9.984997 -18.587168 0.011643 0.004959 0.000875
}

frame 168 {
	4.350708 -9.984997 -18.587168 0.011353 0.004835 0.000848
}

frame 169 {
	4.350708 -9.984997 -18.587168 0.011049 0.004706 0.000824
}

frame 170 {
	4.350708 -9.984997 -18.587168 0.010733 0.004571 0.000802
}

frame 171 {
	4.350708 -9.984997 -18.587168 0.010404 0.004431 0.000782
}

frame 172 {
	4.350708 -9.984997 -18.587168 0.010065 0.004287 0.000763
}

frame 173 {
	4.350708 -9.984997 -18.587168 0.009715 0.004138 0.000746
}

frame 174 {
	4.350708 -9.984997 -18.587168 0.009356 0.003985 0.000731
}

frame 175 {
	4.350708 -9.984997 -18.587168 0.008988 0.003828 0.000717
}

frame 176 {
	4.350708 -9.984997 -18.587168 0.008614 0.003669 0.000704
}

frame 177 {
	4.350708 -9.984997 -18.587168 0.008233 0.003507 0.000692
}

frame 178 {
	4.350708 -9.984997 -18.587168 0.007848 0.003343 0.000680
}

frame 179 {
	4.350708 -9.984997 -18.587168 0.007459 0.003177 0.000670
}

frame 180 {
	4.350708 -9.984997 -18.587168 0.007067 0.003010 0.000659
}

frame 181 {
	4.350708 -9.984997 -18.587168 0.006674 0.002843 0.000649
}

frame 182 {
	4.350708 -9.984997 -18.587168 0.006280 0.002675 0.000639
}

frame 183 {
	4.350708 -9.984997 -18.587168 0.005887 0.002507 0.000629
}

frame 184 {
	4.350708 -9.984997 -18.587168 0.005495 0.002341 0.000619
}

frame 185 {
	4.350708 -9.984997 -18.587168 0.005106 0.002175 0.000608
}

frame 186 {
	4.350708 -9.984997 -18.587168 0.004720 0.002010 0.000597
}

frame 187 {
	4.350708 -9.984997 -18.587168 0.004338 0.001848 0.000585
}

frame 188 {
	4.350708 -9.984997 -18.587168 0.003961 0.001687 0.000573
}

frame 189 {
	4.350708 -9.984997 -18.587168 0.003589 0.001529 0.000559
}

frame 190 {
	4.350708 -9.984997 -18.587168 0.003224 0.001373 0.000545
}

frame 191 {
	4.350708 -9.984997 -18.587168 0.002865 0.001220 0.000530
}

frame 192 {
	4.350708 -9.984997 -18.587168 0.002513 0.001070 0.000513
}

frame 193 {
	4.350708 -9.984997 -18.587168 0.002169 0.000924 0.000495
}

frame 194 {
	4.350708 -9.984997 -18.587168 0.001833 0.000781 0.000476
}

frame 195 {
	4.350708 -9.984997 -18.587168 0.001506 0.000641 0.000456
}

frame 196 {
	4.350708 -9.984997 -18.587168 0.001186 0.000505 0.000434
}

frame 197 {
	4.350708 -9.984997 -18.587168 0.000876 0.000373 0.000411
}

frame 198 {
	4.350708 -9.984997 -18.587168 0.000575 0.000245 0.000386
}

frame 199 {
	4.350708 -9.984997 -18.587168 0.000283 0.000120 0.000360
}

