MD5Version 10
commandline ""

numFrames 200
numJoints 4
frameRate 24
numAnimatedComponents 6

hierarchy {
	"origin"	-1 0 0	//
	"weapon"	0 63 0	// origin
	"shot"	1 0 0	// weapon
	"shell"	1 0 0	// weapon
}

bounds {
	( 0.000000 0.000000 0.000000 ) ( 0.000000 0.000000 0.000000 )
	( 0.000000 0.000000 0.000000 ) ( 0.000000 0.000000 0.000000 )
	( 0.000000 0.000000 0.000000 ) ( 0.000000 0.000000 0.000000 )
	( 0.000000 0.000000 0.000000 ) ( 0.000000 0.000000 0.000000 )
	( 0.000000 0.000000 0.000000 ) ( 0.000000 0.000000 0.000000 )
	( 0.000000 0.000000 0.000000 ) ( 0.000000 0.000000 0.000000 )
	( 0.000000 0.000000 0.000000 ) ( 0.000000 0.000000 0.000000 )
	( 0.000000 0.000000 0.000000 ) ( 0.000000 0.000000 0.000000 )
	( 0.000000 0.000000 0.000000 ) ( 0.000000 0.000000 0.000000 )
	( 0.000000 0.000000 0.000000 ) ( 0.000000 0.000000 0.000000 )
	( 0.000000 0.000000 0.000000 ) ( 0.000000 0.000000 0.000000 )
	( 0.000000 0.000000 0.000000 ) ( 0.000000 0.000000 0.000000 )
	( 0.000000 0.000000 0.000000 ) ( 0.000000 0.000000 0.000000 )
	( 0.000000 0.000000 0.000000 ) ( 0.000000 0.000000 0.000000 )
	( 0.000000 0.000000 0.000000 ) ( 0.000000 0.000000 0.000000 )
	( 0.000000 0.000000 0.000000 ) ( 0.000000 0.000000 0.000000 )
	( 0.000000 0.000000 0.000000 ) ( 0.000000 0.000000 0.000000 )
	( 0.000000 0.000000 0.000000 ) ( 0.000000 0.000000 0.000000 )
	( 0.000000 0.000000 0.000000 ) ( 0.000000 0.000000 0.000000 )
	( 0.000000 0.000000 0.000000 ) ( 0.000000 0.000000 0.000000 )
	( 0.000000 0.000000 0.000000 ) ( 0.000000 0.000000 0.000000 )
	( 0.000000 0.000000 0.000000 ) ( 0.000000 0.000000 0.000000 )
	( 0.000000 0.000000 0.000000 ) ( 0.000000 0.000000 0.000000 )
	( 0.000000 0.000000 0.000000 ) ( 0.000000 0.000000 0.000000 )
	( 0.000000 0.000000 0.000000 ) ( 0.000000 0.000000 0.000000 )
	( 0.000000 0.000000 0.000000 ) ( 0.000000 0.000000 0.000000 )
	( 0.000000 0.000000 0.000000 ) ( 0.000000 0.000000 0.000000 )
	( 0.000000 0.000000 0.000000 ) ( 0.000000 0.000000 0.000000 )
	( 0.000000 0.000000 0.000000 ) ( 0.000000 0.000000 0.000000 )
	( 0.000000 0.000000 0.000000 ) ( 0.000000 0.000000 0.000000 )
	( 0.000000 0.000000 0.000000 ) ( 0.000000 0.000000 0.000000 )
	( 0.000000 0.000000 0.000000 ) ( 0.000000 0.000000 0.000000 )
	( 0.000000 0.000000 0.000000 ) ( 0.000000 0.000000 0.000000 )
	( 0.000000 0.000000 0.000000 ) ( 0.000000 0.000000 0.000000 )
	( 0.000000 0.000000 0.000000 ) ( 0.000000 0.000000 0.000000 )
	( 0.000000 0.000000 0.000000 ) ( 0.000000 0.000000 0.000000 )
	( 0.000000 0.000000 0.000000 ) ( 0.000000 0.000000 0.000000 )
	( 0.000000 0.000000 0.000000 ) ( 0.000000 0.000000 0.000000 )
	( 0.000000 0.000000 0.000000 ) ( 0.000000 0.000000 0.000000 )
	( 0.000000 0.000000 0.000000 ) ( 0.000000 0.000000 0.000000 )
	( 0.000000 0.000000 0.000000 ) ( 0.000000 0.000000 0.000000 )
	( 0.000000 0.000000 0.000000 ) ( 0.000000 0.000000 0.000000 )
	( 0.000000 0.000000 0.000000 ) ( 0.000000 0.000000 0.000000 )
	( 0.000000 0.000000 0.000000 ) ( 0.000000 0.000000 0.000000 )
	( 0.000000 0.000000 0.000000 ) ( 0.000000 0.000000 0.000000 )
	( 0.000000 0.000000 0.000000 ) ( 0.000000 0.000000 0.000000 )
	( 0.000000 0.000000 0.000000 ) ( 0.000000 0.000000 0.000000 )
	( 0.000000 0.000000 0.000000 ) ( 0.000000 0.000000 0.000000 )
	( 0.000000 0.000000 0.000000 ) ( 0.000000 0.000000 0.000000 )
	( 0.000000 0.000000 0.000000 ) ( 0.000000 0.000000 0.000000 )
	( 0.000000 0.000000 0.000000 ) ( 0.000000 0.000000 0.000000 )
	( 0.000000 0.000000 0.000000 ) ( 0.000000 0.000000 0.000000 )
	( 0.000000 0.000000 0.000000 ) ( 0.000000 0.000000 0.000000 )
	( 0.000000 0.000000 0.000000 ) ( 0.000000 0.000000 0.000000 )
	( 0.000000 0.000000 0.000000 ) ( 0.000000 0.000000 0.000000 )
	( 0.000000 0.000000 0.000000 ) ( 0.000000 0.000000 0.000000 )
	( 0.000000 0.000000 0.000000 ) ( 0.000000 0.000000 0.000000 )
	( 0.000000 0.000000 0.000000 ) ( 0.000000 0.000000 0.000000 )
	( 0.000000 0.000000 0.000000 ) ( 0.000000 0.000000 0.000000 )
	( 0.000000 0.000000 0.000000 ) ( 0.000000 0.000000 0.000000 )
	( 0.000000 0.000000 0.000000 ) ( 0.000000 0.000000 0.000000 )
	( 0.000000 0.000000 0.000000 ) ( 0.000000 0.000000 0.000000 )
	( 0.000000 0.000000 0.000000 ) ( 0.000000 0.000000 0.000000 )
	( 0.000000 0.000000 0.000000 ) ( 0.000000 0.000000 0.000000 )
	( 0.000000 0.000000 0.000000 ) ( 0.000000 0.000000 0.000000 )
	( 0.000000 0.000000 0.000000 ) ( 0.000000 0.000000 0.000000 )
	( 0.000000 0.000000 0.000000 ) ( 0.000000 0.000000 0.000000 )
	( 0.000000 0.000000 0.000000 ) ( 0.000000 0.000000 0.000000 )
	( 0.000000 0.000000 0.000000 ) ( 0.000000 0.000000 0.000000 )
	( 0.000000 0.000000 0.000000 ) ( 0.000000 0.000000 0.000000 )
	( 0.000000 0.000000 0.000000 ) ( 0.000000 0.000000 0.000000 )
	( 0.000000 0.000000 0.000000 ) ( 0.000000 0.000000 0.000000 )
	( 0.000000 0.000000 0.000000 ) ( 0.000000 0.000000 0.000000 )
	( 0.000000 0.000000 0.000000 ) ( 0.000000 0.000000 0.000000 )
	( 0.000000 0.000000 0.000000 ) ( 0.000000 0.000000 0.000000 )
	( 0.000000 0.000000 0.000000 ) ( 0.000000 0.000000 0.000000 )
	( 0.000000 0.000000 0.000000 ) ( 0.000000 0.000000 0.000000 )
	( 0.000000 0.000000 0.000000 ) ( 0.000000 0.000000 0.000000 )
	( 0.000000 0.000000 0.000000 ) ( 0.000000 0.000000 0.000000 )
	( 0.000000 0.000000 0.000000 ) ( 0.000000 0.000000 0.000000 )
	( 0.000000 0.000000 0.000000 ) ( 0.000000 0.000000 0.000000 )
	( 0.000000 0.000000 0.000000 ) ( 0.000000 0.000000 0.000000 )
	( 0.000000 0.000000 0.000000 ) ( 0.000000 0.000000 0.000000 )
	( 0.000000 0.000000 0.000000 ) ( 0.000000 0.000000 0.000000 )
	( 0.000000 0.000000 0.000000 ) ( 0.000000 0.000000 0.000000 )
	( 0.000000 0.000000 0.000000 ) ( 0.000000 0.000000 0.000000 )
	( 0.000000 0.000000 0.000000 ) ( 0.000000 0.000000 0.000000 )
	( 0.000000 0.000000 0.000000 ) ( 0.000000 0.000000 0.000000 )
	( 0.000000 0.000000 0.000000 ) ( 0.000000 0.000000 0.000000 )
	( 0.000000 0.000000 0.000000 ) ( 0.000000 0.000000 0.000000 )
	( 0.000000 0.000000 0.000000 ) ( 0.000000 0.000000 0.000000 )
	( 0.000000 0.000000 0.000000 ) ( 0.000000 0.000000 0.000000 )
	( 0.000000 0.000000 0.000000 ) ( 0.000000 0.000000 0.000000 )
	( 0.000000 0.000000 0.000000 ) ( 0.000000 0.000000 0.000000 )
	( 0.000000 0.000000 0.000000 ) ( 0.000000 0.000000 0.000000 )
	( 0.000000 0.000000 0.000000 ) ( 0.000000 0.000000 0.000000 )
	( 0.000000 0.000000 0.000000 ) ( 0.000000 0.000000 0.000000 )
	( 0.000000 0.000000 0.000000 ) ( 0.000000 0.000000 0.000000 )
	( 0.000000 0.000000 0.000000 ) ( 0.000000 0.000000 0.000000 )
	( 0.000000 0.000000 0.000000 ) ( 0.000000 0.000000 0.000000 )
	( 0.000000 0.000000 0.000000 ) ( 0.000000 0.000000 0.000000 )
	( 0.000000 0.000000 0.000000 ) ( 0.000000 0.000000 0.000000 )
	( 0.000000 0.000000 0.000000 ) ( 0.000000 0.000000 0.000000 )
	( 0.000000 0.000000 0.000000 ) ( 0.000000 0.000000 0.000000 )
	( 0.000000 0.000000 0.000000 ) ( 0.000000 0.000000 0.000000 )
	( 0.000000 0.000000 0.000000 ) ( 0.000000 0.000000 0.000000 )
	( 0.000000 0.000000 0.000000 ) ( 0.000000 0.000000 0.000000 )
	( 0.000000 0.000000 0.000000 ) ( 0.000000 0.000000 0.000000 )
	( 0.000000 0.000000 0.000000 ) ( 0.000000 0.000000 0.000000 )
	( 0.000000 0.000000 0.000000 ) ( 0.000000 0.000000 0.000000 )
	( 0.000000 0.000000 0.000000 ) ( 0.000000 0.000000 0.000000 )
	( 0.000000 0.000000 0.000000 ) ( 0.000000 0.000000 0.000000 )
	( 0.000000 0.000000 0.000000 ) ( 0.000000 0.000000 0.000000 )
	( 0.000000 0.000000 0.000000 ) ( 0.000000 0.000000 0.000000 )
	( 0.000000 0.000000 0.000000 ) ( 0.000000 0.000000 0.000000 )
	( 0.000000 0.000000 0.000000 ) ( 0.000000 0.000000 0.000000 )
	( 0.000000 0.000000 0.000000 ) ( 0.000000 0.000000 0.000000 )
	( 0.000000 0.000000 0.000000 ) ( 0.000000 0.000000 0.000000 )
	( 0.000000 0.000000 0.000000 ) ( 0.000000 0.000000 0.000000 )
	( 0.000000 0.000000 0.000000 ) ( 0.000000 0.000000 0.000000 )
	( 0.000000 0.000000 0.000000 ) ( 0.000000 0.000000 0.000000 )
	( 0.000000 0.000000 0.000000 ) ( 0.000000 0.000000 0.000000 )
	( 0.000000 0.000000 0.000000 ) ( 0.000000 0.000000 0.000000 )
	( 0.000000 0.000000 0.000000 ) ( 0.000000 0.000000 0.000000 )
	( 0.000000 0.000000 0.000000 ) ( 0.000000 0.000000 0.000000 )
	( 0.000000 0.000000 0.000000 ) ( 0.000000 0.000000 0.000000 )
	( 0.000000 0.000000 0.000000 ) ( 0.000000 0.000000 0.000000 )
	( 0.000000 0.000000 0.000000 ) ( 0.000000 0.000000 0.000000 )
	( 0.000000 0.000000 0.000000 ) ( 0.000000 0.000000 0.000000 )
	( 0.000000 0.000000 0.000000 ) ( 0.000000 0.000000 0.000000 )
	( 0.000000 0.000000 0.000000 ) ( 0.000000 0.000000 0.000000 )
	( 0.000000 0.000000 0.000000 ) ( 0.000000 0.000000 0.000000 )
	( 0.000000 0.000000 0.000000 ) ( 0.000000 0.000000 0.000000 )
	( 0.000000 0.000000 0.000000 ) ( 0.000000 0.000000 0.000000 )
	( 0.000000 0.000000 0.000000 ) ( 0.000000 0.000000 0.000000 )
	( 0.000000 0.000000 0.000000 ) ( 0.000000 0.000000 0.000000 )
	( 0.000000 0.000000 0.000000 ) ( 0.000000 0.000000 0.000000 )
	( 0.000000 0.000000 0.000000 ) ( 0.000000 0.000000 0.000000 )
	( 0.000000 0.000000 0.000000 ) ( 0.000000 0.000000 0.000000 )
	( 0.000000 0.000000 0.000000 ) ( 0.000000 0.000000 0.000000 )
	( 0.000000 0.000000 0.000000 ) ( 0.000000 0.000000 0.000000 )
	( 0.000000 0.000000 0.000000 ) ( 0.000000 0.000000 0.000000 )
	( 0.000000 0.000000 0.000000 ) ( 0.000000 0.000000 0.000000 )
	( 0.000000 0.000000 0.000000 ) ( 0.000000 0.000000 0.000000 )
	( 0.000000 0.000000 0.000000 ) ( 0.000000 0.000000 0.000000 )
	( 0.000000 0.000000 0.000000 ) ( 0.000000 0.000000 0.000000 )
	( 0.000000 0.000000 0.000000 ) ( 0.000000 0.000000 0.000000 )
	( 0.000000 0.000000 0.000000 ) ( 0.000000 0.000000 0.000000 )
	( 0.000000 0.000000 0.000000 ) ( 0.000000 0.000000 0.000000 )
	( 0.000000 0.000000 0.000000 ) ( 0.000000 0.000000 0.000000 )
	( 0.000000 0.000000 0.000000 ) ( 0.000000 0.000000 0.000000 )
	( 0.000000 0.000000 0.000000 ) ( 0.000000 0.000000 0.000000 )
	( 0.000000 0.000000 0.000000 ) ( 0.000000 0.000000 0.000000 )
	( 0.000000 0.000000 0.000000 ) ( 0.000000 0.000000 0.000000 )
	( 0.000000 0.000000 0.000000 ) ( 0.000000 0.000000 0.000000 )
	( 0.000000 0.000000 0.000000 ) ( 0.000000 0.000000 0.000000 )
	( 0.000000 0.000000 0.000000 ) ( 0.000000 0.000000 0.000000 )
	( 0.000000 0.000000 0.000000 ) ( 0.000000 0.000000 0.000000 )
	( 0.000000 0.000000 0.000000 ) ( 0.000000 0.000000 0.000000 )
	( 0.000000 0.000000 0.000000 ) ( 0.000000 0.000000 0.000000 )
	( 0.000000 0.000000 0.000000 ) ( 0.000000 0.000000 0.000000 )
	( 0.000000 0.000000 0.000000 ) ( 0.000000 0.000000 0.000000 )
	( 0.000000 0.000000 0.000000 ) ( 0.000000 0.000000 0.000000 )
	( 0.000000 0.000000 0.000000 ) ( 0.000000 0.000000 0.000000 )
	( 0.000000 0.000000 0.000000 ) ( 0.000000 0.000000 0.000000 )
	( 0.000000 0.000000 0.000000 ) ( 0.000000 0.000000 0.000000 )
	( 0.000000 0.000000 0.000000 ) ( 0.000000 0.000000 0.000000 )
	( 0.000000 0.000000 0.000000 ) ( 0.000000 0.000000 0.000000 )
	( 0.000000 0.000000 0.000000 ) ( 0.000000 0.000000 0.000000 )
	( 0.000000 0.000000 0.000000 ) ( 0.000000 0.000000 0.000000 )
	( 0.000000 0.000000 0.000000 ) ( 0.000000 0.000000 0.000000 )
	( 0.000000 0.000000 0.000000 ) ( 0.000000 0.000000 0.000000 )
	( 0.000000 0.000000 0.000000 ) ( 0.000000 0.000000 0.000000 )
	( 0.000000 0.000000 0.000000 ) ( 0.000000 0.000000 0.000000 )
	( 0.000000 0.000000 0.000000 ) ( 0.000000 0.000000 0.000000 )
	( 0.000000 0.000000 0.000000 ) ( 0.000000 0.000000 0.000000 )
	( 0.000000 0.000000 0.000000 ) ( 0.000000 0.000000 0.000000 )
	( 0.000000 0.000000 0.000000 ) ( 0.000000 0.000000 0.000000 )
	( 0.000000 0.000000 0.000000 ) ( 0.000000 0.000000 0.000000 )
	( 0.000000 0.000000 0.000000 ) ( 0.000000 0.000000 0.000000 )
	( 0.000000 0.000000 0.000000 ) ( 0.000000 0.000000 0.000000 )
	( 0.000000 0.000000 0.000000 ) ( 0.000000 0.000000 0.000000 )
	( 0.000000 0.000000 0.000000 ) ( 0.000000 0.000000 0.000000 )
	( 0.000000 0.000000 0.000000 ) ( 0.000000 0.000000 0.000000 )
	( 0.000000 0.000000 0.000000 ) ( 0.000000 0.000000 0.000000 )
	( 0.000000 0.000000 0.000000 ) ( 0.000000 0.000000 0.000000 )
	( 0.000000 0.000000 0.000000 ) ( 0.000000 0.000000 0.000000 )
	( 0.000000 0.000000 0.000000 ) ( 0.000000 0.000000 0.000000 )
	( 0.000000 0.000000 0.000000 ) ( 0.000000 0.000000 0.000000 )
	( 0.000000 0.000000 0.000000 ) ( 0.000000 0.000000 0.000000 )
	( 0.000000 0.000000 0.000000 ) ( 0.000000 0.000000 0.000000 )
	( 0.000000 0.000000 0.000000 ) ( 0.000000 0.000000 0.000000 )
	( 0.000000 0.000000 0.000000 ) ( 0.000000 0.000000 0.000000 )
	( 0.000000 0.000000 0.000000 ) ( 0.000000 0.000000 0.000000 )
	( 0.000000 0.000000 0.000000 ) ( 0.000000 0.000000 0.000000 )
	( 0.000000 0.000000 0.000000 ) ( 0.000000 0.000000 0.000000 )
	( 0.000000 0.000000 0.000000 ) ( 0.000000 0.000000 0.000000 )
	( 0.000000 0.000000 0.000000 ) ( 0.000000 0.000000 0.000000 )
	( 0.000000 0.000000 0.000000 ) ( 0.000000 0.000000 0.000000 )
	( 0.000000 0.000000 0.000000 ) ( 0.000000 0.000000 0.000000 )
}

baseframe {
	( 0.000000 0.000000 0.000000 ) ( -0.000000 -0.000000 -0.000000 )
	( 5.136892 -9.985170 -21.731905 ) ( -0.000000 0.000000 0.000332 )
	( 43.202423 0.106245 10.184049 ) ( 0.000000 0.000000 -0.000332 )
	( 8.994451 -3.355066 4.723814 ) ( 0.000000 -0.000000 -0.000332 )
}

frame 0 {
	5.136892 -9.985170 -21.731905 -0.000000 0.000000 0.000332
}

frame 1 {
	5.136892 -9.985170 -21.731905 0.000568 -0.000000 0.000332
}

frame 2 {
	5.136892 -9.985170 -21.731905 0.001173 -0.000000 0.000332
}

frame 3 {
	5.136892 -9.985170 -21.731905 0.001813 -0.000001 0.000332
}

frame 4 {
	5.136892 -9.985170 -21.731905 0.002487 -0.000001 0.000332
}

frame 5 {
	5.136892 -9.985170 -21.731905 0.003191 -0.000001 0.000332
}

frame 6 {
	5.136892 -9.985170 -21.731905 0.003922 -0.000001 0.000332
}

frame 7 {
	5.136892 -9.985170 -21.731905 0.004674 -0.000002 0.000332
}

frame 8 {
	5.136892 -9.985170 -21.731905 0.005441 -0.000002 0.000332
}

frame 9 {
	5.136892 -9.985170 -21.731905 0.006217 -0.000002 0.000332
}

frame 10 {
	5.136892 -9.985170 -21.731905 0.006994 -0.000002 0.000332
}

frame 11 {
	5.136892 -9.985170 -21.731905 0.007762 -0.000003 0.000332
}

frame 12 {
	5.136892 -9.985170 -21.731905 0.008514 -0.000003 0.000332
}

frame 13 {
	5.136892 -9.985170 -21.731905 0.009239 -0.000003 0.000332
}

frame 14 {
	5.136892 -9.985170 -21.731905 0.009929 -0.000003 0.000332
}

frame 15 {
	5.136892 -9.985170 -21.731905 0.010576 -0.000004 0.000332
}

frame 16 {
	5.136892 -9.985170 -21.731905 0.011172 -0.000004 0.000332
}

frame 17 {
	5.136892 -9.985170 -21.731905 0.011713 -0.000004 0.000332
}

frame 18 {
	5.136892 -9.985170 -21.731905 0.012193 -0.000004 0.000332
}

frame 19 {
	5.136892 -9.985170 -21.731905 0.012609 -0.000004 0.000332
}

frame 20 {
	5.136892 -9.985170 -21.731905 0.012960 -0.000004 0.000332
}

frame 21 {
	5.136892 -9.985170 -21.731905 0.013245 -0.000004 0.000332
}

frame 22 {
	5.136892 -9.985170 -21.731905 0.013464 -0.000004 0.000332
}

frame 23 {
	5.136892 -9.985170 -21.731905 0.013617 -0.000005 0.000332
}

frame 24 {
	5.136892 -9.985170 -21.731905 0.013708 -0.000005 0.000332
}

frame 25 {
	5.136892 -9.985170 -21.731905 0.013738 -0.000005 0.000332
}

frame 26 {
	5.136892 -9.985170 -21.731905 0.013693 -0.000148 0.000369
}

frame 27 {
	5.136892 -9.985170 -21.731905 0.013554 -0.000579 0.000479
}

frame 28 {
	5.136892 -9.985170 -21.731905 0.013319 -0.001302 0.000663
}

frame 29 {
	5.136892 -9.985170 -21.731905 0.012985 -0.002315 0.000922
}

frame 30 {
	5.136892 -9.985170 -21.731905 0.012551 -0.003610 0.001252
}

frame 31 {
	5.136892 -9.985170 -21.731905 0.012018 -0.005177 0.001652
}

frame 32 {
	5.136892 -9.985170 -21.731905 0.011388 -0.006995 0.002115
}

frame 33 {
	5.136892 -9.985170 -21.731905 0.010665 -0.009039 0.002637
}

frame 34 {
	5.136892 -9.985170 -21.731905 0.009855 -0.011276 0.003207
}

frame 35 {
	5.136892 -9.985170 -21.731905 0.008967 -0.013665 0.003817
}

frame 36 {
	5.136892 -9.985170 -21.731905 0.008011 -0.016159 0.004453
}

frame 37 {
	5.136892 -9.985170 -21.731905 0.007001 -0.018707 0.005103
}

frame 38 {
	5.136892 -9.985170 -21.731905 0.005951 -0.021254 0.005752
}

frame 39 {
	5.136892 -9.985170 -21.731905 0.004875 -0.023747 0.006388
}

frame 40 {
	5.136892 -9.985170 -21.731905 0.003787 -0.026135 0.006997
}

frame 41 {
	5.136892 -9.985170 -21.731905 0.002704 -0.028371 0.007568
}

frame 42 {
	5.136892 -9.985170 -21.731905 0.001636 -0.030414 0.008089
}

frame 43 {
	5.136892 -9.985170 -21.731905 0.000597 -0.032231 0.008552
}

frame 44 {
	5.136892 -9.985170 -21.731905 -0.000404 -0.033797 0.008952
}

frame 45 {
	5.136892 -9.985170 -21.731905 -0.001359 -0.035091 0.009282
}

frame 46 {
	5.136892 -9.985170 -21.731905 -0.002263 -0.036103 0.009540
}

frame 47 {
	5.136892 -9.985170 -21.731905 -0.003110 -0.036825 0.009724
}

frame 48 {
	5.136892 -9.985170 -21.731905 -0.003897 -0.037257 0.009834
}

frame 49 {
	5.136892 -9.985170 -21.731905 -0.004624 -0.037400 0.009871
}

frame 50 {
	5.136892 -9.985170 -21.731905 -0.005328 -0.037396 0.009866
}

frame 51 {
	5.136892 -9.985170 -21.731905 -0.006049 -0.037382 0.009849
}

frame 52 {
	5.136892 -9.985170 -21.731905 -0.006788 -0.037360 0.009821
}

frame 53 {
	5.136892 -9.985170 -21.731905 -0.007543 -0.037328 0.009782
}

frame 54 {
	5.136892 -9.985170 -21.731905 -0.008315 -0.037286 0.009732
}

frame 55 {
	5.136892 -9.985170 -21.731905 -0.009102 -0.037235 0.009671
}

frame 56 {
	5.136892 -9.985170 -21.731905 -0.009904 -0.037174 0.009598
}

frame 57 {
	5.136892 -9.985170 -21.731905 -0.010720 -0.037103 0.009514
}

frame 58 {
	5.136892 -9.985170 -21.731905 -0.011550 -0.037022 0.009419
}

frame 59 {
	5.136892 -9.985170 -21.731905 -0.012391 -0.036931 0.009313
}

frame 60 {
	5.136892 -9.985170 -21.731905 -0.013243 -0.036831 0.009197
}

frame 61 {
	5.136892 -9.985170 -21.731905 -0.014105 -0.036721 0.009070
}

frame 62 {
	5.136892 -9.985170 -21.731905 -0.014976 -0.036601 0.008933
}

frame 63 {
	5.136892 -9.985170 -21.731905 -0.015852 -0.036472 0.008787
}

frame 64 {
	5.136892 -9.985170 -21.731905 -0.016734 -0.036334 0.008631
}

frame 65 {
	5.136892 -9.985170 -21.731905 -0.017619 -0.036187 0.008467
}

frame 66 {
	5.136892 -9.985170 -21.731905 -0.018504 -0.036031 0.008295
}

frame 67 {
	5.136892 -9.985170 -21.731905 -0.019389 -0.035867 0.008116
}

frame 68 {
	5.136892 -9.985170 -21.731905 -0.020270 -0.035695 0.007931
}

frame 69 {
	5.136892 -9.985170 -21.731905 -0.021146 -0.035515 0.007739
}

frame 70 {
	5.136892 -9.985170 -21.731905 -0.022015 -0.035329 0.007543
}

frame 71 {
	5.136892 -9.985170 -21.731905 -0.022873 -0.035137 0.007343
}

frame 72 {
	5.136892 -9.985170 -21.731905 -0.023718 -0.034939 0.007140
}

frame 73 {
	5.136892 -9.985170 -21.731905 -0.024549 -0.034736 0.006935
}

frame 74 {
	5.136892 -9.985170 -21.731905 -0.025362 -0.034528 0.006728
}

frame 75 {
	5.136892 -9.985170 -21.731905 -0.026156 -0.034317 0.006522
}

frame 76 {
	5.136892 -9.985170 -21.731905 -0.026928 -0.034104 0.006317
}

frame 77 {
	5.136892 -9.985170 -21.731905 -0.027676 -0.033888 0.006114
}

frame 78 {
	5.136892 -9.985170 -21.731905 -0.028399 -0.033670 0.005914
}

frame 79 {
	5.136892 -9.985170 -21.731905 -0.029094 -0.033452 0.005718
}

frame 80 {
	5.136892 -9.985170 -21.731905 -0.029760 -0.033234 0.005526
}

frame 81 {
	5.136892 -9.985170 -21.731905 -0.030395 -0.033017 0.005341
}

frame 82 {
	5.136892 -9.985170 -21.731905 -0.030999 -0.032801 0.005161
}

frame 83 {
	5.136892 -9.985170 -21.731905 -0.031569 -0.032587 0.004989
}

frame 84 {
	5.136892 -9.985170 -21.731905 -0.032105 -0.032375 0.004825
}

frame 85 {
	5.136892 -9.985170 -21.731905 -0.032607 -0.032167 0.004670
}

frame 86 {
	5.136892 -9.985170 -21.731905 -0.033073 -0.031962 0.004524
}

frame 87 {
	5.136892 -9.985170 -21.731905 -0.033504 -0.031761 0.004387
}

frame 88 {
	5.136892 -9.985170 -21.731905 -0.033898 -0.031565 0.004260
}

frame 89 {
	5.136892 -9.985170 -21.731905 -0.034257 -0.031374 0.004143
}

frame 90 {
	5.136892 -9.985170 -21.731905 -0.034579 -0.031187 0.004037
}

frame 91 {
	5.136892 -9.985170 -21.731905 -0.034866 -0.031006 0.003942
}

frame 92 {
	5.136892 -9.985170 -21.731905 -0.035117 -0.030831 0.003858
}

frame 93 {
	5.136892 -9.985170 -21.731905 -0.035332 -0.030662 0.003785
}

frame 94 {
	5.136892 -9.985170 -21.731905 -0.035513 -0.030499 0.003724
}

frame 95 {
	5.136892 -9.985170 -21.731905 -0.035660 -0.030342 0.003673
}

frame 96 {
	5.136892 -9.985170 -21.731905 -0.035773 -0.030192 0.003634
}

frame 97 {
	5.136892 -9.985170 -21.731905 -0.035853 -0.030048 0.003607
}

frame 98 {
	5.136892 -9.985170 -21.731905 -0.035900 -0.029910 0.003590
}

frame 99 {
	5.136892 -9.985170 -21.731905 -0.035916 -0.029779 0.003585
}

frame 100 {
	5.136892 -9.985170 -21.731905 -0.035916 -0.029654 0.003589
}

frame 101 {
	5.136892 -9.985170 -21.731905 -0.035916 -0.029537 0.003604
}

frame 102 {
	5.136892 -9.985170 -21.731905 -0.035916 -0.029426 0.003628
}

frame 103 {
	5.136892 -9.985170 -21.731905 -0.035915 -0.029321 0.003661
}

frame 104 {
	5.136892 -9.985170 -21.731905 -0.035914 -0.029224 0.003705
}

frame 105 {
	5.136892 -9.985170 -21.731905 -0.035913 -0.029133 0.003758
}

frame 106 {
	5.136892 -9.985170 -21.731905 -0.035911 -0.029048 0.003821
}

frame 107 {
	5.136892 -9.985170 -21.731905 -0.035909 -0.028969 0.003893
}

frame 108 {
	5.136892 -9.985170 -21.731905 -0.035905 -0.028897 0.003975
}

frame 109 {
	5.136892 -9.985170 -21.731905 -0.035901 -0.028830 0.004067
}

frame 110 {
	5.136892 -9.985170 -21.731905 -0.035895 -0.028768 0.004167
}

frame 111 {
	5.136892 -9.985170 -21.731905 -0.035889 -0.028711 0.004277
}

frame 112 {
	5.136892 -9.985170 -21.731905 -0.035880 -0.028659 0.004395
}

frame 113 {
	5.136892 -9.985170 -21.731905 -0.035871 -0.028612 0.004521
}

frame 114 {
	5.136892 -9.985170 -21.731905 -0.035859 -0.028567 0.004655
}

frame 115 {
	5.136892 -9.985170 -21.731905 -0.035846 -0.028527 0.004797
}

frame 116 {
	5.136892 -9.985170 -21.731905 -0.035830 -0.028488 0.004945
}

frame 117 {
	5.136892 -9.985170 -21.731905 -0.035812 -0.028452 0.005100
}

frame 118 {
	5.136892 -9.985170 -21.731905 -0.035792 -0.028417 0.005260
}

frame 119 {
	5.136892 -9.985170 -21.731905 -0.035768 -0.028382 0.005425
}

frame 120 {
	5.136892 -9.985170 -21.731905 -0.035742 -0.028348 0.005594
}

frame 121 {
	5.136892 -9.985170 -21.731905 -0.035714 -0.028313 0.005767
}

frame 122 {
	5.136892 -9.985170 -21.731905 -0.035681 -0.028276 0.005942
}

frame 123 {
	5.136892 -9.985170 -21.731905 -0.035646 -0.028236 0.006119
}

frame 124 {
	5.136892 -9.985170 -21.731905 -0.035607 -0.028194 0.006297
}

frame 125 {
	5.136892 -9.985170 -21.731905 -0.035565 -0.028148 0.006475
}

frame 126 {
	5.136892 -9.985170 -21.731905 -0.035519 -0.028097 0.006652
}

frame 127 {
	5.136892 -9.985170 -21.731905 -0.035469 -0.028041 0.006827
}

frame 128 {
	5.136892 -9.985170 -21.731905 -0.035416 -0.027979 0.007000
}

frame 129 {
	5.136892 -9.985170 -21.731905 -0.035358 -0.027910 0.007169
}

frame 130 {
	5.136892 -9.985170 -21.731905 -0.035297 -0.027834 0.007334
}

frame 131 {
	5.136892 -9.985170 -21.731905 -0.035232 -0.027750 0.007494
}

frame 132 {
	5.136892 -9.985170 -21.731905 -0.035163 -0.027658 0.007649
}

frame 133 {
	5.136892 -9.985170 -21.731905 -0.035090 -0.027557 0.007797
}

frame 134 {
	5.136892 -9.985170 -21.731905 -0.035013 -0.027448 0.007938
}

frame 135 {
	5.136892 -9.985170 -21.731905 -0.034932 -0.027328 0.008073
}

frame 136 {
	5.136892 -9.985170 -21.731905 -0.034847 -0.027199 0.008199
}

frame 137 {
	5.136892 -9.985170 -21.731905 -0.034759 -0.027060 0.008317
}

frame 138 {
	5.136892 -9.985170 -21.731905 -0.034667 -0.026911 0.008426
}

frame 139 {
	5.136892 -9.985170 -21.731905 -0.034572 -0.026751 0.008527
}

frame 140 {
	5.136892 -9.985170 -21.731905 -0.034473 -0.026581 0.008618
}

frame 141 {
	5.136892 -9.985170 -21.731905 -0.034371 -0.026401 0.008700
}

frame 142 {
	5.136892 -9.985170 -21.731905 -0.034266 -0.026211 0.008773
}

frame 143 {
	5.136892 -9.985170 -21.731905 -0.034157 -0.026010 0.008836
}

frame 144 {
	5.136892 -9.985170 -21.731905 -0.034045 -0.025798 0.008889
}

frame 145 {
	5.136892 -9.985170 -21.731905 -0.033931 -0.025577 0.008932
}

frame 146 {
	5.136892 -9.985170 -21.731905 -0.033814 -0.025345 0.008966
}

frame 147 {
	5.136892 -9.985170 -21.731905 -0.033693 -0.025104 0.008990
}

frame 148 {
	5.136892 -9.985170 -21.731905 -0.033571 -0.024853 0.009004
}

frame 149 {
	5.136892 -9.985170 -21.731905 -0.033445 -0.024592 0.009009
}

frame 150 {
	5.136892 -9.985170 -21.731905 -0.033305 -0.024320 0.009005
}

frame 151 {
	5.136892 -9.985170 -21.731905 -0.033136 -0.024037 0.008991
}

frame 152 {
	5.136892 -9.985170 -21.731905 -0.032939 -0.023743 0.008968
}

frame 153 {
	5.136892 -9.985170 -21.731905 -0.032712 -0.023436 0.008936
}

frame 154 {
	5.136892 -9.985170 -21.731905 -0.032456 -0.023117 0.008894
}

frame 155 {
	5.136892 -9.985170 -21.731905 -0.032169 -0.022786 0.008843
}

frame 156 {
	5.136892 -9.985170 -21.731905 -0.031852 -0.022442 0.008782
}

frame 157 {
	5.136892 -9.985170 -21.731905 -0.031504 -0.022086 0.008710
}

frame 158 {
	5.136892 -9.985170 -21.731905 -0.031124 -0.021717 0.008629
}

frame 159 {
	5.136892 -9.985170 -21.731905 -0.030714 -0.021335 0.008538
}

frame 160 {
	5.136892 -9.985170 -21.731905 -0.030272 -0.020941 0.008436
}

frame 161 {
	5.136892 -9.985170 -21.731905 -0.029799 -0.020533 0.008325
}

frame 162 {
	5.136892 -9.985170 -21.731905 -0.029295 -0.020113 0.008204
}

frame 163 {
	5.136892 -9.985170 -21.731905 -0.028761 -0.019681 0.008073
}

frame 164 {
	5.136892 -9.985170 -21.731905 -0.028196 -0.019236 0.007932
}

frame 165 {
	5.136892 -9.985170 -21.731905 -0.027601 -0.018779 0.007781
}

frame 166 {
	5.136892 -9.985170 -21.731905 -0.026978 -0.018310 0.007621
}

frame 167 {
	5.136892 -9.985170 -21.731905 -0.026326 -0.017829 0.007453
}

frame 168 {
	5.136892 -9.985170 -21.731905 -0.025648 -0.017338 0.007275
}

frame 169 {
	5.136892 -9.985170 -21.731905 -0.024943 -0.016836 0.007090
}

frame 170 {
	5.136892 -9.985170 -21.731905 -0.024215 -0.016324 0.006896
}

frame 171 {
	5.136892 -9.985170 -21.731905 -0.023463 -0.015803 0.006695
}

frame 172 {
	5.136892 -9.985170 -21.731905 -0.022691 -0.015273 0.006487
}

frame 173 {
	5.136892 -9.985170 -21.731905 -0.021899 -0.014735 0.006273
}

frame 174 {
	5.136892 -9.985170 -21.731905 -0.021089 -0.014190 0.006054
}

frame 175 {
	5.136892 -9.985170 -21.731905 -0.020264 -0.013638 0.005829
}

frame 176 {
	5.136892 -9.985170 -21.731905 -0.019425 -0.013081 0.005600
}

frame 177 {
	5.136892 -9.985170 -21.731905 -0.018575 -0.012519 0.005368
}

frame 178 {
	5.136892 -9.985170 -21.731905 -0.017715 -0.011954 0.005132
}

frame 179 {
	5.136892 -9.985170 -21.731905 -0.016849 -0.011385 0.004894
}

frame 180 {
	5.136892 -9.985170 -21.731905 -0.015977 -0.010815 0.004655
}

frame 181 {
	5.136892 -9.985170 -21.731905 -0.015102 -0.010243 0.004414
}

frame 182 {
	5.136892 -9.985170 -21.731905 -0.014226 -0.009671 0.004173
}

frame 183 {
	5.136892 -9.985170 -21.731905 -0.013351 -0.009099 0.003933
}

frame 184 {
	5.136892 -9.985170 -21.731905 -0.012480 -0.008528 0.003693
}

frame 185 {
	5.136892 -9.985170 -21.731905 -0.011612 -0.007960 0.003455
}

frame 186 {
	5.136892 -9.985170 -21.731905 -0.010751 -0.007393 0.003219
}

frame 187 {
	5.136892 -9.985170 -21.731905 -0.009898 -0.006830 0.002985
}

frame 188 {
	5.136892 -9.985170 -21.731905 -0.009054 -0.006271 0.002755
}

frame 189 {
	5.136892 -9.985170 -21.731905 -0.008220 -0.005716 0.002527
}

frame 190 {
	5.136892 -9.985170 -21.731905 -0.007398 -0.005166 0.002304
}

frame 191 {
	5.136892 -9.985170 -21.731905 -0.006589 -0.004621 0.002084
}

frame 192 {
	5.136892 -9.985170 -21.731905 -0.005794 -0.004082 0.001869
}

frame 193 {
	5.136892 -9.985170 -21.731905 -0.005013 -0.003548 0.001659
}

frame 194 {
	5.136892 -9.985170 -21.731905 -0.004247 -0.003021 0.001453
}

frame 195 {
	5.136892 -9.985170 -21.731905 -0.003497 -0.002500 0.001253
}

frame 196 {
	5.136892 -9.985170 -21.731905 -0.002763 -0.001986 0.001058
}

frame 197 {
	5.136892 -9.985170 -21.731905 -0.002047 -0.001479 0.000868
}

frame 198 {
	5.136892 -9.985170 -21.731905 -0.001347 -0.000979 0.000684
}

frame 199 {
	5.136892 -9.985170 -21.731905 -0.000665 -0.000486 0.000505
}

