MD5Version 10
commandline ""

numFrames 200
numJoints 4
frameRate 24
numAnimatedComponents 6

hierarchy {
	"origin"	-1 0 0	//
	"weapon"	0 63 0	// origin
	"shot"	1 0 0	// weapon
	"shell"	1 0 0	// weapon
}

bounds {
	( 0.000000 0.000000 0.000000 ) ( 0.000000 0.000000 0.000000 )
	( 0.000000 0.000000 0.000000 ) ( 0.000000 0.000000 0.000000 )
	( 0.000000 0.000000 0.000000 ) ( 0.000000 0.000000 0.000000 )
	( 0.000000 0.000000 0.000000 ) ( 0.000000 0.000000 0.000000 )
	( 0.000000 0.000000 0.000000 ) ( 0.000000 0.000000 0.000000 )
	( 0.000000 0.000000 0.000000 ) ( 0.000000 0.000000 0.000000 )
	( 0.000000 0.000000 0.000000 ) ( 0.000000 0.000000 0.000000 )
	( 0.000000 0.000000 0.000000 ) ( 0.000000 0.000000 0.000000 )
	( 0.000000 0.000000 0.000000 ) ( 0.000000 0.000000 0.000000 )
	( 0.000000 0.000000 0.000000 ) ( 0.000000 0.000000 0.000000 )
	( 0.000000 0.000000 0.000000 ) ( 0.000000 0.000000 0.000000 )
	( 0.000000 0.000000 0.000000 ) ( 0.000000 0.000000 0.000000 )
	( 0.000000 0.000000 0.000000 ) ( 0.000000 0.000000 0.000000 )
	( 0.000000 0.000000 0.000000 ) ( 0.000000 0.000000 0.000000 )
	( 0.000000 0.000000 0.000000 ) ( 0.000000 0.000000 0.000000 )
	( 0.000000 0.000000 0.000000 ) ( 0.000000 0.000000 0.000000 )
	( 0.000000 0.000000 0.000000 ) ( 0.000000 0.000000 0.000000 )
	( 0.000000 0.000000 0.000000 ) ( 0.000000 0.000000 0.000000 )
	( 0.000000 0.000000 0.000000 ) ( 0.000000 0.000000 0.000000 )
	( 0.000000 0.000000 0.000000 ) ( 0.000000 0.000000 0.000000 )
	( 0.000000 0.000000 0.000000 ) ( 0.000000 0.000000 0.000000 )
	( 0.000000 0.000000 0.000000 ) ( 0.000000 0.000000 0.000000 )
	( 0.000000 0.000000 0.000000 ) ( 0.000000 0.000000 0.000000 )
	( 0.000000 0.000000 0.000000 ) ( 0.000000 0.000000 0.000000 )
	( 0.000000 0.000000 0.000000 ) ( 0.000000 0.000000 0.000000 )
	( 0.000000 0.000000 0.000000 ) ( 0.000000 0.000000 0.000000 )
	( 0.000000 0.000000 0.000000 ) ( 0.000000 0.000000 0.000000 )
	( 0.000000 0.000000 0.000000 ) ( 0.000000 0.000000 0.000000 )
	( 0.000000 0.000000 0.000000 ) ( 0.000000 0.000000 0.000000 )
	( 0.000000 0.000000 0.000000 ) ( 0.000000 0.000000 0.000000 )
	( 0.000000 0.000000 0.000000 ) ( 0.000000 0.000000 0.000000 )
	( 0.000000 0.000000 0.000000 ) ( 0.000000 0.000000 0.000000 )
	( 0.000000 0.000000 0.000000 ) ( 0.000000 0.000000 0.000000 )
	( 0.000000 0.000000 0.000000 ) ( 0.000000 0.000000 0.000000 )
	( 0.000000 0.000000 0.000000 ) ( 0.000000 0.000000 0.000000 )
	( 0.000000 0.000000 0.000000 ) ( 0.000000 0.000000 0.000000 )
	( 0.000000 0.000000 0.000000 ) ( 0.000000 0.000000 0.000000 )
	( 0.000000 0.000000 0.000000 ) ( 0.000000 0.000000 0.000000 )
	( 0.000000 0.000000 0.000000 ) ( 0.000000 0.000000 0.000000 )
	( 0.000000 0.000000 0.000000 ) ( 0.000000 0.000000 0.000000 )
	( 0.000000 0.000000 0.000000 ) ( 0.000000 0.000000 0.000000 )
	( 0.000000 0.000000 0.000000 ) ( 0.000000 0.000000 0.000000 )
	( 0.000000 0.000000 0.000000 ) ( 0.000000 0.000000 0.000000 )
	( 0.000000 0.000000 0.000000 ) ( 0.000000 0.000000 0.000000 )
	( 0.000000 0.000000 0.000000 ) ( 0.000000 0.000000 0.000000 )
	( 0.000000 0.000000 0.000000 ) ( 0.000000 0.000000 0.000000 )
	( 0.000000 0.000000 0.000000 ) ( 0.000000 0.000000 0.000000 )
	( 0.000000 0.000000 0.000000 ) ( 0.000000 0.000000 0.000000 )
	( 0.000000 0.000000 0.000000 ) ( 0.000000 0.000000 0.000000 )
	( 0.000000 0.000000 0.000000 ) ( 0.000000 0.000000 0.000000 )
	( 0.000000 0.000000 0.000000 ) ( 0.000000 0.000000 0.000000 )
	( 0.000000 0.000000 0.000000 ) ( 0.000000 0.000000 0.000000 )
	( 0.000000 0.000000 0.000000 ) ( 0.000000 0.000000 0.000000 )
	( 0.000000 0.000000 0.000000 ) ( 0.000000 0.000000 0.000000 )
	( 0.000000 0.000000 0.000000 ) ( 0.000000 0.000000 0.000000 )
	( 0.000000 0.000000 0.000000 ) ( 0.000000 0.000000 0.000000 )
	( 0.000000 0.000000 0.000000 ) ( 0.000000 0.000000 0.000000 )
	( 0.000000 0.000000 0.000000 ) ( 0.000000 0.000000 0.000000 )
	( 0.000000 0.000000 0.000000 ) ( 0.000000 0.000000 0.000000 )
	( 0.000000 0.000000 0.000000 ) ( 0.000000 0.000000 0.000000 )
	( 0.000000 0.000000 0.000000 ) ( 0.000000 0.000000 0.000000 )
	( 0.000000 0.000000 0.000000 ) ( 0.000000 0.000000 0.000000 )
	( 0.000000 0.000000 0.000000 ) ( 0.000000 0.000000 0.000000 )
	( 0.000000 0.000000 0.000000 ) ( 0.000000 0.000000 0.000000 )
	( 0.000000 0.000000 0.000000 ) ( 0.000000 0.000000 0.000000 )
	( 0.000000 0.000000 0.000000 ) ( 0.000000 0.000000 0.000000 )
	( 0.000000 0.000000 0.000000 ) ( 0.000000 0.000000 0.000000 )
	( 0.000000 0.000000 0.000000 ) ( 0.000000 0.000000 0.000000 )
	( 0.000000 0.000000 0.000000 ) ( 0.000000 0.000000 0.000000 )
	( 0.000000 0.000000 0.000000 ) ( 0.000000 0.000000 0.000000 )
	( 0.000000 0.000000 0.000000 ) ( 0.000000 0.000000 0.000000 )
	( 0.000000 0.000000 0.000000 ) ( 0.000000 0.000000 0.000000 )
	( 0.000000 0.000000 0.000000 ) ( 0.000000 0.000000 0.000000 )
	( 0.000000 0.000000 0.000000 ) ( 0.000000 0.000000 0.000000 )
	( 0.000000 0.000000 0.000000 ) ( 0.000000 0.000000 0.000000 )
	( 0.000000 0.000000 0.000000 ) ( 0.000000 0.000000 0.000000 )
	( 0.000000 0.000000 0.000000 ) ( 0.000000 0.000000 0.000000 )
	( 0.000000 0.000000 0.000000 ) ( 0.000000 0.000000 0.000000 )
	( 0.000000 0.000000 0.000000 ) ( 0.000000 0.000000 0.000000 )
	( 0.000000 0.000000 0.000000 ) ( 0.000000 0.000000 0.000000 )
	( 0.000000 0.000000 0.000000 ) ( 0.000000 0.000000 0.000000 )
	( 0.000000 0.000000 0.000000 ) ( 0.000000 0.000000 0.000000 )
	( 0.000000 0.000000 0.000000 ) ( 0.000000 0.000000 0.000000 )
	( 0.000000 0.000000 0.000000 ) ( 0.000000 0.000000 0.000000 )
	( 0.000000 0.000000 0.000000 ) ( 0.000000 0.000000 0.000000 )
	( 0.000000 0.000000 0.000000 ) ( 0.000000 0.000000 0.000000 )
	( 0.000000 0.000000 0.000000 ) ( 0.000000 0.000000 0.000000 )
	( 0.000000 0.000000 0.000000 ) ( 0.000000 0.000000 0.000000 )
	( 0.000000 0.000000 0.000000 ) ( 0.000000 0.000000 0.000000 )
	( 0.000000 0.000000 0.000000 ) ( 0.000000 0.000000 0.000000 )
	( 0.000000 0.000000 0.000000 ) ( 0.000000 0.000000 0.000000 )
	( 0.000000 0.000000 0.000000 ) ( 0.000000 0.000000 0.000000 )
	( 0.000000 0.000000 0.000000 ) ( 0.000000 0.000000 0.000000 )
	( 0.000000 0.000000 0.000000 ) ( 0.000000 0.000000 0.000000 )
	( 0.000000 0.000000 0.000000 ) ( 0.000000 0.000000 0.000000 )
	( 0.000000 0.000000 0.000000 ) ( 0.000000 0.000000 0.000000 )
	( 0.000000 0.000000 0.000000 ) ( 0.000000 0.000000 0.000000 )
	( 0.000000 0.000000 0.000000 ) ( 0.000000 0.000000 0.000000 )
	( 0.000000 0.000000 0.000000 ) ( 0.000000 0.000000 0.000000 )
	( 0.000000 0.000000 0.000000 ) ( 0.000000 0.000000 0.000000 )
	( 0.000000 0.000000 0.000000 ) ( 0.000000 0.000000 0.000000 )
	( 0.000000 0.000000 0.000000 ) ( 0.000000 0.000000 0.000000 )
	( 0.000000 0.000000 0.000000 ) ( 0.000000 0.000000 0.000000 )
	( 0.000000 0.000000 0.000000 ) ( 0.000000 0.000000 0.000000 )
	( 0.000000 0.000000 0.000000 ) ( 0.000000 0.000000 0.000000 )
	( 0.000000 0.000000 0.000000 ) ( 0.000000 0.000000 0.000000 )
	( 0.000000 0.000000 0.000000 ) ( 0.000000 0.000000 0.000000 )
	( 0.000000 0.000000 0.000000 ) ( 0.000000 0.000000 0.000000 )
	( 0.000000 0.000000 0.000000 ) ( 0.000000 0.000000 0.000000 )
	( 0.000000 0.000000 0.000000 ) ( 0.000000 0.000000 0.000000 )
	( 0.000000 0.000000 0.000000 ) ( 0.000000 0.000000 0.000000 )
	( 0.000000 0.000000 0.000000 ) ( 0.000000 0.000000 0.000000 )
	( 0.000000 0.000000 0.000000 ) ( 0.000000 0.000000 0.000000 )
	( 0.000000 0.000000 0.000000 ) ( 0.000000 0.000000 0.000000 )
	( 0.000000 0.000000 0.000000 ) ( 0.000000 0.000000 0.000000 )
	( 0.000000 0.000000 0.000000 ) ( 0.000000 0.000000 0.000000 )
	( 0.000000 0.000000 0.000000 ) ( 0.000000 0.000000 0.000000 )
	( 0.000000 0.000000 0.000000 ) ( 0.000000 0.000000 0.000000 )
	( 0.000000 0.000000 0.000000 ) ( 0.000000 0.000000 0.000000 )
	( 0.000000 0.000000 0.000000 ) ( 0.000000 0.000000 0.000000 )
	( 0.000000 0.000000 0.000000 ) ( 0.000000 0.000000 0.000000 )
	( 0.000000 0.000000 0.000000 ) ( 0.000000 0.000000 0.000000 )
	( 0.000000 0.000000 0.000000 ) ( 0.000000 0.000000 0.000000 )
	( 0.000000 0.000000 0.000000 ) ( 0.000000 0.000000 0.000000 )
	( 0.000000 0.000000 0.000000 ) ( 0.000000 0.000000 0.000000 )
	( 0.000000 0.000000 0.000000 ) ( 0.000000 0.000000 0.000000 )
	( 0.000000 0.000000 0.000000 ) ( 0.000000 0.000000 0.000000 )
	( 0.000000 0.000000 0.000000 ) ( 0.000000 0.000000 0.000000 )
	( 0.000000 0.000000 0.000000 ) ( 0.000000 0.000000 0.000000 )
	( 0.000000 0.000000 0.000000 ) ( 0.000000 0.000000 0.000000 )
	( 0.000000 0.000000 0.000000 ) ( 0.000000 0.000000 0.000000 )
	( 0.000000 0.000000 0.000000 ) ( 0.000000 0.000000 0.000000 )
	( 0.000000 0.000000 0.000000 ) ( 0.000000 0.000000 0.000000 )
	( 0.000000 0.000000 0.000000 ) ( 0.000000 0.000000 0.000000 )
	( 0.000000 0.000000 0.000000 ) ( 0.000000 0.000000 0.000000 )
	( 0.000000 0.000000 0.000000 ) ( 0.000000 0.000000 0.000000 )
	( 0.000000 0.000000 0.000000 ) ( 0.000000 0.000000 0.000000 )
	( 0.000000 0.000000 0.000000 ) ( 0.000000 0.000000 0.000000 )
	( 0.000000 0.000000 0.000000 ) ( 0.000000 0.000000 0.000000 )
	( 0.000000 0.000000 0.000000 ) ( 0.000000 0.000000 0.000000 )
	( 0.000000 0.000000 0.000000 ) ( 0.000000 0.000000 0.000000 )
	( 0.000000 0.000000 0.000000 ) ( 0.000000 0.000000 0.000000 )
	( 0.000000 0.000000 0.000000 ) ( 0.000000 0.000000 0.000000 )
	( 0.000000 0.000000 0.000000 ) ( 0.000000 0.000000 0.000000 )
	( 0.000000 0.000000 0.000000 ) ( 0.000000 0.000000 0.000000 )
	( 0.000000 0.000000 0.000000 ) ( 0.000000 0.000000 0.000000 )
	( 0.000000 0.000000 0.000000 ) ( 0.000000 0.000000 0.000000 )
	( 0.000000 0.000000 0.000000 ) ( 0.000000 0.000000 0.000000 )
	( 0.000000 0.000000 0.000000 ) ( 0.000000 0.000000 0.000000 )
	( 0.000000 0.000000 0.000000 ) ( 0.000000 0.000000 0.000000 )
	( 0.000000 0.000000 0.000000 ) ( 0.000000 0.000000 0.000000 )
	( 0.000000 0.000000 0.000000 ) ( 0.000000 0.000000 0.000000 )
	( 0.000000 0.000000 0.000000 ) ( 0.000000 0.000000 0.000000 )
	( 0.000000 0.000000 0.000000 ) ( 0.000000 0.000000 0.000000 )
	( 0.000000 0.000000 0.000000 ) ( 0.000000 0.000000 0.000000 )
	( 0.000000 0.000000 0.000000 ) ( 0.000000 0.000000 0.000000 )
	( 0.000000 0.000000 0.000000 ) ( 0.000000 0.000000 0.000000 )
	( 0.000000 0.000000 0.000000 ) ( 0.000000 0.000000 0.000000 )
	( 0.000000 0.000000 0.000000 ) ( 0.000000 0.000000 0.000000 )
	( 0.000000 0.000000 0.000000 ) ( 0.000000 0.000000 0.000000 )
	( 0.000000 0.000000 0.000000 ) ( 0.000000 0.000000 0.000000 )
	( 0.000000 0.000000 0.000000 ) ( 0.000000 0.000000 0.000000 )
	( 0.000000 0.000000 0.000000 ) ( 0.000000 0.000000 0.000000 )
	( 0.000000 0.000000 0.000000 ) ( 0.000000 0.000000 0.000000 )
	( 0.000000 0.000000 0.000000 ) ( 0.000000 0.000000 0.000000 )
	( 0.000000 0.000000 0.000000 ) ( 0.000000 0.000000 0.000000 )
	( 0.000000 0.000000 0.000000 ) ( 0.000000 0.000000 0.000000 )
	( 0.000000 0.000000 0.000000 ) ( 0.000000 0.000000 0.000000 )
	( 0.000000 0.000000 0.000000 ) ( 0.000000 0.000000 0.000000 )
	( 0.000000 0.000000 0.000000 ) ( 0.000000 0.000000 0.000000 )
	( 0.000000 0.000000 0.000000 ) ( 0.000000 0.000000 0.000000 )
	( 0.000000 0.000000 0.000000 ) ( 0.000000 0.000000 0.000000 )
	( 0.000000 0.000000 0.000000 ) ( 0.000000 0.000000 0.000000 )
	( 0.000000 0.000000 0.000000 ) ( 0.000000 0.000000 0.000000 )
	( 0.000000 0.000000 0.000000 ) ( 0.000000 0.000000 0.000000 )
	( 0.000000 0.000000 0.000000 ) ( 0.000000 0.000000 0.000000 )
	( 0.000000 0.000000 0.000000 ) ( 0.000000 0.000000 0.000000 )
	( 0.000000 0.000000 0.000000 ) ( 0.000000 0.000000 0.000000 )
	( 0.000000 0.000000 0.000000 ) ( 0.000000 0.000000 0.000000 )
	( 0.000000 0.000000 0.000000 ) ( 0.000000 0.000000 0.000000 )
	( 0.000000 0.000000 0.000000 ) ( 0.000000 0.000000 0.000000 )
	( 0.000000 0.000000 0.000000 ) ( 0.000000 0.000000 0.000000 )
	( 0.000000 0.000000 0.000000 ) ( 0.000000 0.000000 0.000000 )
	( 0.000000 0.000000 0.000000 ) ( 0.000000 0.000000 0.000000 )
	( 0.000000 0.000000 0.000000 ) ( 0.000000 0.000000 0.000000 )
	( 0.000000 0.000000 0.000000 ) ( 0.000000 0.000000 0.000000 )
	( 0.000000 0.000000 0.000000 ) ( 0.000000 0.000000 0.000000 )
	( 0.000000 0.000000 0.000000 ) ( 0.000000 0.000000 0.000000 )
	( 0.000000 0.000000 0.000000 ) ( 0.000000 0.000000 0.000000 )
	( 0.000000 0.000000 0.000000 ) ( 0.000000 0.000000 0.000000 )
	( 0.000000 0.000000 0.000000 ) ( 0.000000 0.000000 0.000000 )
	( 0.000000 0.000000 0.000000 ) ( 0.000000 0.000000 0.000000 )
	( 0.000000 0.000000 0.000000 ) ( 0.000000 0.000000 0.000000 )
	( 0.000000 0.000000 0.000000 ) ( 0.000000 0.000000 0.000000 )
	( 0.000000 0.000000 0.000000 ) ( 0.000000 0.000000 0.000000 )
	( 0.000000 0.000000 0.000000 ) ( 0.000000 0.000000 0.000000 )
	( 0.000000 0.000000 0.000000 ) ( 0.000000 0.000000 0.000000 )
	( 0.000000 0.000000 0.000000 ) ( 0.000000 0.000000 0.000000 )
	( 0.000000 0.000000 0.000000 ) ( 0.000000 0.000000 0.000000 )
	( 0.000000 0.000000 0.000000 ) ( 0.000000 0.000000 0.000000 )
}

baseframe {
	( 0.000000 0.000000 0.000000 ) ( -0.000000 -0.000000 -0.000000 )
	( 5.136892 -9.985170 -21.731905 ) ( -0.000000 0.000000 0.000332 )
	( 24.763441 0.289193 3.751886 ) ( 0.000000 -0.000000 -0.000332 )
	( 8.994992 -4.147033 1.683978 ) ( 0.000000 -0.000000 -0.000332 )
}

frame 0 {
	5.136892 -9.985170 -21.731905 -0.000000 0.000000 0.000332
}

frame 1 {
	5.136892 -9.985170 -21.731905 -0.000256 -0.000267 0.000543
}

frame 2 {
	5.136892 -9.985170 -21.731905 -0.000520 -0.000542 0.000761
}

frame 3 {
	5.136892 -9.985170 -21.731905 -0.000793 -0.000827 0.000985
}

frame 4 {
	5.136892 -9.985170 -21.731905 -0.001074 -0.001121 0.001217
}

frame 5 {
	5.136892 -9.985170 -21.731905 -0.001364 -0.001423 0.001456
}

frame 6 {
	5.136892 -9.985170 -21.731905 -0.001661 -0.001733 0.001701
}

frame 7 {
	5.136892 -9.985170 -21.731905 -0.001966 -0.002052 0.001952
}

frame 8 {
	5.136892 -9.985170 -21.731905 -0.002279 -0.002378 0.002210
}

frame 9 {
	5.136892 -9.985170 -21.731905 -0.002599 -0.002711 0.002473
}

frame 10 {
	5.136892 -9.985170 -21.731905 -0.002925 -0.003052 0.002742
}

frame 11 {
	5.136892 -9.985170 -21.731905 -0.003258 -0.003399 0.003016
}

frame 12 {
	5.136892 -9.985170 -21.731905 -0.003596 -0.003751 0.003294
}

frame 13 {
	5.136892 -9.985170 -21.731905 -0.003939 -0.004109 0.003577
}

frame 14 {
	5.136892 -9.985170 -21.731905 -0.004286 -0.004471 0.003862
}

frame 15 {
	5.136892 -9.985170 -21.731905 -0.004636 -0.004837 0.004151
}

frame 16 {
	5.136892 -9.985170 -21.731905 -0.004989 -0.005205 0.004442
}

frame 17 {
	5.136892 -9.985170 -21.731905 -0.005344 -0.005575 0.004734
}

frame 18 {
	5.136892 -9.985170 -21.731905 -0.005699 -0.005946 0.005027
}

frame 19 {
	5.136892 -9.985170 -21.731905 -0.006055 -0.006317 0.005320
}

frame 20 {
	5.136892 -9.985170 -21.731905 -0.006409 -0.006686 0.005611
}

frame 21 {
	5.136892 -9.985170 -21.731905 -0.006760 -0.007053 0.005901
}

frame 22 {
	5.136892 -9.985170 -21.731905 -0.007109 -0.007417 0.006188
}

frame 23 {
	5.136892 -9.985170 -21.731905 -0.007453 -0.007775 0.006471
}

frame 24 {
	5.136892 -9.985170 -21.731905 -0.007791 -0.008128 0.006750
}

frame 25 {
	5.136892 -9.985170 -21.731905 -0.008122 -0.008474 0.007023
}

frame 26 {
	5.136892 -9.985170 -21.731905 -0.008446 -0.008812 0.007290
}

frame 27 {
	5.136892 -9.985170 -21.731905 -0.008762 -0.009141 0.007549
}

frame 28 {
	5.136892 -9.985170 -21.731905 -0.009067 -0.009460 0.007801
}

frame 29 {
	5.136892 -9.985170 -21.731905 -0.009362 -0.009767 0.008044
}

frame 30 {
	5.136892 -9.985170 -21.731905 -0.009646 -0.010063 0.008278
}

frame 31 {
	5.136892 -9.985170 -21.731905 -0.009917 -0.010346 0.008501
}

frame 32 {
	5.136892 -9.985170 -21.731905 -0.010175 -0.010616 0.008714
}

frame 33 {
	5.136892 -9.985170 -21.731905 -0.010420 -0.010872 0.008916
}

frame 34 {
	5.136892 -9.985170 -21.731905 -0.010651 -0.011113 0.009106
}

frame 35 {
	5.136892 -9.985170 -21.731905 -0.010868 -0.011338 0.009284
}

frame 36 {
	5.136892 -9.985170 -21.731905 -0.011070 -0.011549 0.009451
}

frame 37 {
	5.136892 -9.985170 -21.731905 -0.011256 -0.011744 0.009604
}

frame 38 {
	5.136892 -9.985170 -21.731905 -0.011428 -0.011923 0.009746
}

frame 39 {
	5.136892 -9.985170 -21.731905 -0.011584 -0.012085 0.009874
}

frame 40 {
	5.136892 -9.985170 -21.731905 -0.011724 -0.012232 0.009990
}

frame 41 {
	5.136892 -9.985170 -21.731905 -0.011850 -0.012363 0.010093
}

frame 42 {
	5.136892 -9.985170 -21.731905 -0.011959 -0.012477 0.010184
}

frame 43 {
	5.136892 -9.985170 -21.731905 -0.012054 -0.012576 0.010261
}

frame 44 {
	5.136892 -9.985170 -21.731905 -0.012133 -0.012659 0.010327
}

frame 45 {
	5.136892 -9.985170 -21.731905 -0.012197 -0.012726 0.010380
}

frame 46 {
	5.136892 -9.985170 -21.731905 -0.012247 -0.012777 0.010421
}

frame 47 {
	5.136892 -9.985170 -21.731905 -0.012282 -0.012814 0.010449
}

frame 48 {
	5.136892 -9.985170 -21.731905 -0.012303 -0.012836 0.010467
}

frame 49 {
	5.136892 -9.985170 -21.731905 -0.012310 -0.012843 0.010472
}

frame 50 {
	5.136892 -9.985170 -21.731905 -0.012310 -0.012835 0.010445
}

frame 51 {
	5.136892 -9.985170 -21.731905 -0.012309 -0.012811 0.010362
}

frame 52 {
	5.136892 -9.985170 -21.731905 -0.012308 -0.012770 0.010224
}

frame 53 {
	5.136892 -9.985170 -21.731905 -0.012305 -0.012713 0.010029
}

frame 54 {
	5.136892 -9.985170 -21.731905 -0.012301 -0.012639 0.009779
}

frame 55 {
	5.136892 -9.985170 -21.731905 -0.012294 -0.012549 0.009472
}

frame 56 {
	5.136892 -9.985170 -21.731905 -0.012284 -0.012442 0.009110
}

frame 57 {
	5.136892 -9.985170 -21.731905 -0.012270 -0.012319 0.008692
}

frame 58 {
	5.136892 -9.985170 -21.731905 -0.012252 -0.012180 0.008219
}

frame 59 {
	5.136892 -9.985170 -21.731905 -0.012229 -0.012024 0.007692
}

frame 60 {
	5.136892 -9.985170 -21.731905 -0.012200 -0.011854 0.007112
}

frame 61 {
	5.136892 -9.985170 -21.731905 -0.012164 -0.011668 0.006481
}

frame 62 {
	5.136892 -9.985170 -21.731905 -0.012121 -0.011467 0.005800
}

frame 63 {
	5.136892 -9.985170 -21.731905 -0.012069 -0.011253 0.005072
}

frame 64 {
	5.136892 -9.985170 -21.731905 -0.012008 -0.011025 0.004298
}

frame 65 {
	5.136892 -9.985170 -21.731905 -0.011936 -0.010785 0.003482
}

frame 66 {
	5.136892 -9.985170 -21.731905 -0.011853 -0.010533 0.002627
}

frame 67 {
	5.136892 -9.985170 -21.731905 -0.011758 -0.010270 0.001735
}

frame 68 {
	5.136892 -9.985170 -21.731905 -0.011650 -0.009998 0.000811
}

frame 69 {
	5.136892 -9.985170 -21.731905 -0.011528 -0.009718 -0.000141
}

frame 70 {
	5.136892 -9.985170 -21.731905 -0.011391 -0.009430 -0.001117
}

frame 71 {
	5.136892 -9.985170 -21.731905 -0.011238 -0.009137 -0.002113
}

frame 72 {
	5.136892 -9.985170 -21.731905 -0.011068 -0.008839 -0.003124
}

frame 73 {
	5.136892 -9.985170 -21.731905 -0.010881 -0.008539 -0.004144
}

frame 74 {
	5.136892 -9.985170 -21.731905 -0.010676 -0.008237 -0.005170
}

frame 75 {
	5.136892 -9.985170 -21.731905 -0.010452 -0.007935 -0.006196
}

frame 76 {
	5.136892 -9.985170 -21.731905 -0.010208 -0.007634 -0.007216
}

frame 77 {
	5.136892 -9.985170 -21.731905 -0.009945 -0.007336 -0.008227
}

frame 78 {
	5.136892 -9.985170 -21.731905 -0.009662 -0.007043 -0.009223
}

frame 79 {
	5.136892 -9.985170 -21.731905 -0.009358 -0.006755 -0.010199
}

frame 80 {
	5.136892 -9.985170 -21.731905 -0.009034 -0.006475 -0.011151
}

frame 81 {
	5.136892 -9.985170 -21.731905 -0.008689 -0.006203 -0.012075
}

frame 82 {
	5.136892 -9.985170 -21.731905 -0.008323 -0.005940 -0.012966
}

frame 83 {
	5.136892 -9.985170 -21.731905 -0.007937 -0.005688 -0.013822
}

frame 84 {
	5.136892 -9.985170 -21.731905 -0.007530 -0.005448 -0.014638
}

frame 85 {
	5.136892 -9.985170 -21.731905 -0.007103 -0.005220 -0.015411
}

frame 86 {
	5.136892 -9.985170 -21.731905 -0.006656 -0.005006 -0.016140
}

frame 87 {
	5.136892 -9.985170 -21.731905 -0.006189 -0.004805 -0.016820
}

frame 88 {
	5.136892 -9.985170 -21.731905 -0.005703 -0.004620 -0.017451
}

frame 89 {
	5.136892 -9.985170 -21.731905 -0.005199 -0.004449 -0.018031
}

frame 90 {
	5.136892 -9.985170 -21.731905 -0.004676 -0.004294 -0.018558
}

frame 91 {
	5.136892 -9.985170 -21.731905 -0.004135 -0.004155 -0.019031
}

frame 92 {
	5.136892 -9.985170 -21.731905 -0.003577 -0.004032 -0.019449
}

frame 93 {
	5.136892 -9.985170 -21.731905 -0.003003 -0.003925 -0.019811
}

frame 94 {
	5.136892 -9.985170 -21.731905 -0.002412 -0.003835 -0.020118
}

frame 95 {
	5.136892 -9.985170 -21.731905 -0.001805 -0.003761 -0.020368
}

frame 96 {
	5.136892 -9.985170 -21.731905 -0.001184 -0.003704 -0.020563
}

frame 97 {
	5.136892 -9.985170 -21.731905 -0.000548 -0.003664 -0.020701
}

frame 98 {
	5.136892 -9.985170 -21.731905 0.000101 -0.003639 -0.020784
}

frame 99 {
	5.136892 -9.985170 -21.731905 0.000765 -0.003632 -0.020811
}

frame 100 {
	5.136892 -9.985170 -21.731905 0.001475 -0.003635 -0.020787
}

frame 101 {
	5.136892 -9.985170 -21.731905 0.002267 -0.003646 -0.020715
}

frame 102 {
	5.136892 -9.985170 -21.731905 0.003142 -0.003664 -0.020593
}

frame 103 {
	5.136892 -9.985170 -21.731905 0.004098 -0.003690 -0.020422
}

frame 104 {
	5.136892 -9.985170 -21.731905 0.005137 -0.003722 -0.020202
}

frame 105 {
	5.136892 -9.985170 -21.731905 0.006256 -0.003762 -0.019933
}

frame 106 {
	5.136892 -9.985170 -21.731905 0.007456 -0.003809 -0.019614
}

frame 107 {
	5.136892 -9.985170 -21.731905 0.008735 -0.003863 -0.019247
}

frame 108 {
	5.136892 -9.985170 -21.731905 0.010091 -0.003925 -0.018831
}

frame 109 {
	5.136892 -9.985170 -21.731905 0.011522 -0.003993 -0.018368
}

frame 110 {
	5.136892 -9.985170 -21.731905 0.013027 -0.004068 -0.017859
}

frame 111 {
	5.136892 -9.985170 -21.731905 0.014601 -0.004150 -0.017304
}

frame 112 {
	5.136892 -9.985170 -21.731905 0.016242 -0.004238 -0.016705
}

frame 113 {
	5.136892 -9.985170 -21.731905 0.017946 -0.004332 -0.016065
}

frame 114 {
	5.136892 -9.985170 -21.731905 0.019707 -0.004432 -0.015385
}

frame 115 {
	5.136892 -9.985170 -21.731905 0.021521 -0.004538 -0.014667
}

frame 116 {
	5.136892 -9.985170 -21.731905 0.023383 -0.004648 -0.013914
}

frame 117 {
	5.136892 -9.985170 -21.731905 0.025287 -0.004763 -0.013130
}

frame 118 {
	5.136892 -9.985170 -21.731905 0.027225 -0.004883 -0.012317
}

frame 119 {
	5.136892 -9.985170 -21.731905 0.029192 -0.005006 -0.011480
}

frame 120 {
	5.136892 -9.985170 -21.731905 0.031179 -0.005132 -0.010621
}

frame 121 {
	5.136892 -9.985170 -21.731905 0.033180 -0.005261 -0.009745
}

frame 122 {
	5.136892 -9.985170 -21.731905 0.035186 -0.005391 -0.008855
}

frame 123 {
	5.136892 -9.985170 -21.731905 0.037189 -0.005523 -0.007957
}

frame 124 {
	5.136892 -9.985170 -21.731905 0.039181 -0.005655 -0.007054
}

frame 125 {
	5.136892 -9.985170 -21.731905 0.041155 -0.005788 -0.006152
}

frame 126 {
	5.136892 -9.985170 -21.731905 0.043102 -0.005919 -0.005253
}

frame 127 {
	5.136892 -9.985170 -21.731905 0.045013 -0.006050 -0.004364
}

frame 128 {
	5.136892 -9.985170 -21.731905 0.046883 -0.006178 -0.003488
}

frame 129 {
	5.136892 -9.985170 -21.731905 0.048702 -0.006304 -0.002628
}

frame 130 {
	5.136892 -9.985170 -21.731905 0.050465 -0.006427 -0.001790
}

frame 131 {
	5.136892 -9.985170 -21.731905 0.052165 -0.006546 -0.000977
}

frame 132 {
	5.136892 -9.985170 -21.731905 0.053795 -0.006660 -0.000193
}

frame 133 {
	5.136892 -9.985170 -21.731905 0.055352 -0.006771 0.000560
}

frame 134 {
	5.136892 -9.985170 -21.731905 0.056828 -0.006876 0.001278
}

frame 135 {
	5.136892 -9.985170 -21.731905 0.058222 -0.006975 0.001959
}

frame 136 {
	5.136892 -9.985170 -21.731905 0.059528 -0.007069 0.002599
}

frame 137 {
	5.136892 -9.985170 -21.731905 0.060743 -0.007157 0.003198
}

frame 138 {
	5.136892 -9.985170 -21.731905 0.061865 -0.007238 0.003754
}

frame 139 {
	5.136892 -9.985170 -21.731905 0.062892 -0.007312 0.004264
}

frame 140 {
	5.136892 -9.985170 -21.731905 0.063822 -0.007380 0.004727
}

frame 141 {
	5.136892 -9.985170 -21.731905 0.064654 -0.007441 0.005143
}

frame 142 {
	5.136892 -9.985170 -21.731905 0.065387 -0.007495 0.005511
}

frame 143 {
	5.136892 -9.985170 -21.731905 0.066020 -0.007541 0.005830
}

frame 144 {
	5.136892 -9.985170 -21.731905 0.066555 -0.007581 0.006099
}

frame 145 {
	5.136892 -9.985170 -21.731905 0.066990 -0.007613 0.006320
}

frame 146 {
	5.136892 -9.985170 -21.731905 0.067327 -0.007638 0.006491
}

frame 147 {
	5.136892 -9.985170 -21.731905 0.067567 -0.007656 0.006612
}

frame 148 {
	5.136892 -9.985170 -21.731905 0.067709 -0.007667 0.006685
}

frame 149 {
	5.136892 -9.985170 -21.731905 0.067757 -0.007670 0.006709
}

frame 150 {
	5.136892 -9.985170 -21.731905 0.067722 -0.007666 0.006706
}

frame 151 {
	5.136892 -9.985170 -21.731905 0.067616 -0.007654 0.006696
}

frame 152 {
	5.136892 -9.985170 -21.731905 0.067438 -0.007634 0.006679
}

frame 153 {
	5.136892 -9.985170 -21.731905 0.067187 -0.007606 0.006656
}

frame 154 {
	5.136892 -9.985170 -21.731905 0.066861 -0.007569 0.006625
}

frame 155 {
	5.136892 -9.985170 -21.731905 0.066460 -0.007523 0.006587
}

frame 156 {
	5.136892 -9.985170 -21.731905 0.065982 -0.007469 0.006542
}

frame 157 {
	5.136892 -9.985170 -21.731905 0.065426 -0.007406 0.006490
}

frame 158 {
	5.136892 -9.985170 -21.731905 0.064793 -0.007335 0.006430
}

frame 159 {
	5.136892 -9.985170 -21.731905 0.064081 -0.007254 0.006363
}

frame 160 {
	5.136892 -9.985170 -21.731905 0.063291 -0.007164 0.006289
}

frame 161 {
	5.136892 -9.985170 -21.731905 0.062422 -0.007066 0.006207
}

frame 162 {
	5.136892 -9.985170 -21.731905 0.061475 -0.006959 0.006118
}

frame 163 {
	5.136892 -9.985170 -21.731905 0.060452 -0.006843 0.006022
}

frame 164 {
	5.136892 -9.985170 -21.731905 0.059352 -0.006719 0.005918
}

frame 165 {
	5.136892 -9.985170 -21.731905 0.058178 -0.006586 0.005808
}

frame 166 {
	5.136892 -9.985170 -21.731905 0.056931 -0.006445 0.005691
}

frame 167 {
	5.136892 -9.985170 -21.731905 0.055614 -0.006296 0.005567
}

frame 168 {
	5.136892 -9.985170 -21.731905 0.054230 -0.006139 0.005436
}

frame 169 {
	5.136892 -9.985170 -21.731905 0.052780 -0.005975 0.005300
}

frame 170 {
	5.136892 -9.985170 -21.731905 0.051269 -0.005804 0.005158
}

frame 171 {
	5.136892 -9.985170 -21.731905 0.049701 -0.005626 0.005010
}

frame 172 {
	5.136892 -9.985170 -21.731905 0.048079 -0.005443 0.004858
}

frame 173 {
	5.136892 -9.985170 -21.731905 0.046409 -0.005253 0.004700
}

frame 174 {
	5.136892 -9.985170 -21.731905 0.044694 -0.005059 0.004539
}

frame 175 {
	5.136892 -9.985170 -21.731905 0.042940 -0.004861 0.004374
}

frame 176 {
	5.136892 -9.985170 -21.731905 0.041152 -0.004658 0.004206
}

frame 177 {
	5.136892 -9.985170 -21.731905 0.039335 -0.004453 0.004035
}

frame 178 {
	5.136892 -9.985170 -21.731905 0.037495 -0.004244 0.003861
}

frame 179 {
	5.136892 -9.985170 -21.731905 0.035636 -0.004034 0.003687
}

frame 180 {
	5.136892 -9.985170 -21.731905 0.033765 -0.003822 0.003510
}

frame 181 {
	5.136892 -9.985170 -21.731905 0.031886 -0.003609 0.003334
}

frame 182 {
	5.136892 -9.985170 -21.731905 0.030004 -0.003396 0.003156
}

frame 183 {
	5.136892 -9.985170 -21.731905 0.028125 -0.003184 0.002980
}

frame 184 {
	5.136892 -9.985170 -21.731905 0.026253 -0.002972 0.002803
}

frame 185 {
	5.136892 -9.985170 -21.731905 0.024393 -0.002761 0.002628
}

frame 186 {
	5.136892 -9.985170 -21.731905 0.022548 -0.002552 0.002455
}

frame 187 {
	5.136892 -9.985170 -21.731905 0.020722 -0.002346 0.002283
}

frame 188 {
	5.136892 -9.985170 -21.731905 0.018920 -0.002142 0.002113
}

frame 189 {
	5.136892 -9.985170 -21.731905 0.017145 -0.001941 0.001946
}

frame 190 {
	5.136892 -9.985170 -21.731905 0.015398 -0.001743 0.001782
}

frame 191 {
	5.136892 -9.985170 -21.731905 0.013684 -0.001549 0.001620
}

frame 192 {
	5.136892 -9.985170 -21.731905 0.012004 -0.001359 0.001462
}

frame 193 {
	5.136892 -9.985170 -21.731905 0.010361 -0.001173 0.001308
}

frame 194 {
	5.136892 -9.985170 -21.731905 0.008756 -0.000991 0.001157
}

frame 195 {
	5.136892 -9.985170 -21.731905 0.007191 -0.000814 0.001009
}

frame 196 {
	5.136892 -9.985170 -21.731905 0.005667 -0.000641 0.000866
}

frame 197 {
	5.136892 -9.985170 -21.731905 0.004185 -0.000474 0.000726
}

frame 198 {
	5.136892 -9.985170 -21.731905 0.002746 -0.000311 0.000591
}

frame 199 {
	5.136892 -9.985170 -21.731905 0.001351 -0.000153 0.000460
}

