MD5Version 10
commandline ""

numFrames 40
numJoints 4
frameRate 24
numAnimatedComponents 6

hierarchy {
	"origin"	-1 0 0	//
	"weapon"	0 63 0	// origin
	"shot"	1 0 0	// weapon
	"shell"	1 0 0	// weapon
}

bounds {
	( 0.000000 0.000000 0.000000 ) ( 0.000000 0.000000 0.000000 )
	( 0.000000 0.000000 0.000000 ) ( 0.000000 0.000000 0.000000 )
	( 0.000000 0.000000 0.000000 ) ( 0.000000 0.000000 0.000000 )
	( 0.000000 0.000000 0.000000 ) ( 0.000000 0.000000 0.000000 )
	( 0.000000 0.000000 0.000000 ) ( 0.000000 0.000000 0.000000 )
	( 0.000000 0.000000 0.000000 ) ( 0.000000 0.000000 0.000000 )
	( 0.000000 0.000000 0.000000 ) ( 0.000000 0.000000 0.000000 )
	( 0.000000 0.000000 0.000000 ) ( 0.000000 0.000000 0.000000 )
	( 0.000000 0.000000 0.000000 ) ( 0.000000 0.000000 0.000000 )
	( 0.000000 0.000000 0.000000 ) ( 0.000000 0.000000 0.000000 )
	( 0.000000 0.000000 0.000000 ) ( 0.000000 0.000000 0.000000 )
	( 0.000000 0.000000 0.000000 ) ( 0.000000 0.000000 0.000000 )
	( 0.000000 0.000000 0.000000 ) ( 0.000000 0.000000 0.000000 )
	( 0.000000 0.000000 0.000000 ) ( 0.000000 0.000000 0.000000 )
	( 0.000000 0.000000 0.000000 ) ( 0.000000 0.000000 0.000000 )
	( 0.000000 0.000000 0.000000 ) ( 0.000000 0.000000 0.000000 )
	( 0.000000 0.000000 0.000000 ) ( 0.000000 0.000000 0.000000 )
	( 0.000000 0.000000 0.000000 ) ( 0.000000 0.000000 0.000000 )
	( 0.000000 0.000000 0.000000 ) ( 0.000000 0.000000 0.000000 )
	( 0.000000 0.000000 0.000000 ) ( 0.000000 0.000000 0.000000 )
	( 0.000000 0.000000 0.000000 ) ( 0.000000 0.000000 0.000000 )
	( 0.000000 0.000000 0.000000 ) ( 0.000000 0.000000 0.000000 )
	( 0.000000 0.000000 0.000000 ) ( 0.000000 0.000000 0.000000 )
	( 0.000000 0.000000 0.000000 ) ( 0.000000 0.000000 0.000000 )
	( 0.000000 0.000000 0.000000 ) ( 0.000000 0.000000 0.000000 )
	( 0.000000 0.000000 0.000000 ) ( 0.000000 0.000000 0.000000 )
	( 0.000000 0.000000 0.000000 ) ( 0.000000 0.000000 0.000000 )
	( 0.000000 0.000000 0.000000 ) ( 0.000000 0.000000 0.000000 )
	( 0.000000 0.000000 0.000000 ) ( 0.000000 0.000000 0.000000 )
	( 0.000000 0.000000 0.000000 ) ( 0.000000 0.000000 0.000000 )
	( 0.000000 0.000000 0.000000 ) ( 0.000000 0.000000 0.000000 )
	( 0.000000 0.000000 0.000000 ) ( 0.000000 0.000000 0.000000 )
	( 0.000000 0.000000 0.000000 ) ( 0.000000 0.000000 0.000000 )
	( 0.000000 0.000000 0.000000 ) ( 0.000000 0.000000 0.000000 )
	( 0.000000 0.000000 0.000000 ) ( 0.000000 0.000000 0.000000 )
	( 0.000000 0.000000 0.000000 ) ( 0.000000 0.000000 0.000000 )
	( 0.000000 0.000000 0.000000 ) ( 0.000000 0.000000 0.000000 )
	( 0.000000 0.000000 0.000000 ) ( 0.000000 0.000000 0.000000 )
	( 0.000000 0.000000 0.000000 ) ( 0.000000 0.000000 0.000000 )
	( 0.000000 0.000000 0.000000 ) ( 0.000000 0.000000 0.000000 )
}

baseframe {
	( 0.000000 0.000000 0.000000 ) ( -0.000000 -0.000000 -0.000000 )
	( 8.256093 -9.985861 -21.731905 ) ( -0.000000 0.000000 0.000332 )
	( 38.506584 1.280156 7.601718 ) ( 0.000000 0.000000 -0.000332 )
	( 16.826015 -2.256910 6.953482 ) ( 0.000000 -0.000000 -0.000332 )
}

frame 0 {
	8.256093 -9.985861 -21.731905 -0.000000 0.000000 0.000332
}

frame 1 {
	8.256093 -9.985861 -21.731905 0.001748 -0.003671 -0.005888
}

frame 2 {
	8.256093 -9.985861 -21.731905 0.007133 -0.014979 -0.024795
}

frame 3 {
	8.256093 -9.985861 -21.731905 0.016281 -0.034185 -0.056350
}

frame 4 {
	8.256093 -9.985861 -21.731905 0.029077 -0.061047 -0.099506
}

frame 5 {
	8.256093 -9.985861 -21.731905 0.044986 -0.094440 -0.151624
}

frame 6 {
	8.256093 -9.985861 -21.731905 0.062965 -0.132174 -0.208293
}

frame 7 {
	8.256093 -9.985861 -21.731905 0.081603 -0.171291 -0.264008
}

frame 8 {
	8.256093 -9.985861 -21.731905 0.099492 -0.208833 -0.313567
}

frame 9 {
	8.256093 -9.985861 -21.731905 0.115584 -0.242606 -0.353324
}

frame 10 {
	8.256093 -9.985861 -21.731905 0.129341 -0.271479 -0.381564
}

frame 11 {
	8.256093 -9.985861 -21.731905 0.140640 -0.295196 -0.398041
}

frame 12 {
	8.256093 -9.985861 -21.731905 0.149590 -0.313982 -0.403258
}

frame 13 {
	8.238271 -10.007832 -21.764801 0.156462 -0.328404 -0.402391
}

frame 14 {
	8.191658 -10.065289 -21.850807 0.160839 -0.337591 -0.400498
}

frame 15 {
	8.145050 -10.122739 -21.936789 0.162633 -0.341358 -0.398710
}

frame 16 {
	8.127232 -10.144702 -21.969660 0.162955 -0.342034 -0.398045
}

frame 17 {
	8.132763 -10.137872 -21.936789 0.161118 -0.338177 -0.398793
}

frame 18 {
	8.154928 -10.110540 -21.850815 0.156294 -0.328053 -0.400707
}

frame 19 {
	8.197922 -10.057557 -21.764807 0.151448 -0.317882 -0.402564
}

frame 20 {
	8.256093 -9.985861 -21.731905 0.149590 -0.313982 -0.403258
}

frame 21 {
	8.348167 -9.872320 -21.802469 0.149590 -0.313982 -0.403258
}

frame 22 {
	8.479655 -9.710236 -21.986931 0.149590 -0.313982 -0.403258
}

frame 23 {
	8.590197 -9.574023 -22.171326 0.149590 -0.313982 -0.403258
}

frame 24 {
	8.629523 -9.525550 -22.241831 0.149590 -0.313982 -0.403258
}

frame 25 {
	8.589101 -9.575373 -22.186640 0.149590 -0.313982 -0.403258
}

frame 26 {
	8.481739 -9.707694 -22.040071 0.149590 -0.313982 -0.403258
}

frame 27 {
	8.369929 -9.845521 -21.887386 0.149590 -0.313982 -0.403258
}

frame 28 {
	8.318325 -9.909150 -21.816885 0.149590 -0.313982 -0.403258
}

frame 29 {
	8.305594 -9.924849 -21.799488 0.147635 -0.309877 -0.397981
}

frame 30 {
	8.294118 -9.938998 -21.783812 0.141617 -0.297246 -0.381743
}

frame 31 {
	8.284085 -9.951366 -21.770111 0.131332 -0.275660 -0.353995
}

frame 32 {
	8.275655 -9.961757 -21.758600 0.116793 -0.245147 -0.314773
}

frame 33 {
	8.268920 -9.970057 -21.749409 0.098534 -0.206828 -0.265522
}

frame 34 {
	8.263865 -9.976284 -21.742512 0.077848 -0.163414 -0.209723
}

frame 35 {
	8.260352 -9.980613 -21.737717 0.056693 -0.119014 -0.152655
}

frame 36 {
	8.258129 -9.983352 -21.734684 0.037199 -0.078097 -0.100063
}

frame 37 {
	8.256886 -9.984883 -21.732988 0.021077 -0.044254 -0.056560
}

frame 38 {
	8.256309 -9.985595 -21.732199 0.009325 -0.019580 -0.024841
}

frame 39 {
	8.256118 -9.985830 -21.731939 0.002305 -0.004840 -0.005891
}

