/*
===========================================================================

  CLIENT WEAPONSYSTEM CODE
  Bring back W_Weaponframe

===========================================================================
*/

.float weapon_frametime;

float W_WeaponRateFactor()
{
	float t;
	t = 1.0 / g_weaponratefactor;

	if(g_runematch)
	{
		if(self.runes & RUNE_SPEED)
		{
			if(self.runes & CURSE_SLOW)
				t = t * cvar("g_balance_rune_speed_combo_atkrate");
			else
				t = t * cvar("g_balance_rune_speed_atkrate");
		}
		else if(self.runes & CURSE_SLOW)
		{
			t = t * cvar("g_balance_curse_slow_atkrate");
		}
	}

	return t;
}

void W_SwitchWeapon_Force(entity e, float w)
{
	e.cnt = e.switchweapon;
	e.switchweapon = w;
}

.float antilag_debug;

// VorteX: static frame globals
float WFRAME_DONTCHANGE = -1;
float WFRAME_FIRE1 = 0;
float WFRAME_FIRE2 = 1;
float WFRAME_IDLE = 2;
float WFRAME_RELOAD = 3;
.float wframe;

void(float fr, float t, void() func) weapon_thinkf;

vector W_HitPlotUnnormalizedUntransform(vector screenforward, vector screenright, vector screenup, vector v)
{
	vector ret;
	ret_x = screenright * v;
	ret_y = screenup * v;
	ret_z = screenforward * v;
	return ret;
}

vector W_HitPlotNormalizedUntransform(vector org, entity targ, vector screenforward, vector screenright, vector screenup, vector v)
{
	float i, j, k;
	vector mi, ma, thisv, myv, ret;

	myv = W_HitPlotUnnormalizedUntransform(screenforward, screenright, screenup, org);

	// x = 0..1 relative to hitbox; y = 0..1 relative to hitbox; z = distance

	for(i = 0; i < 2; ++i) for(j = 0; j < 2; ++j) for(k = 0; k < 2; ++k)
	{
		thisv = targ.origin;
		if(i) thisv_x += targ.maxs_x; else thisv_x += targ.mins_x;
		if(j) thisv_y += targ.maxs_y; else thisv_y += targ.mins_y;
		if(k) thisv_z += targ.maxs_z; else thisv_z += targ.mins_z;
		thisv = W_HitPlotUnnormalizedUntransform(screenforward, screenright, screenup, thisv);
		if(i || j || k)
		{
			if(mi_x > thisv_x) mi_x = thisv_x; if(ma_x < thisv_x) ma_x = thisv_x;
			if(mi_y > thisv_y) mi_y = thisv_y; if(ma_y < thisv_y) ma_y = thisv_y;
			//if(mi_z > thisv_z) mi_z = thisv_z; if(ma_z < thisv_z) ma_y = thisv_z;
		}
		else
		{
			// first run
			mi = ma = thisv;
		}
	}

	thisv = W_HitPlotUnnormalizedUntransform(screenforward, screenright, screenup, v);
	ret_x = (thisv_x - mi_x) / (ma_x - mi_x);
	ret_y = (thisv_y - mi_y) / (ma_y - mi_y);
	ret_z = thisv_z - myv_z;
	return ret;
}

void W_HitPlotAnalysis(entity player, vector screenforward, vector screenright, vector screenup)
{
	vector hitplot;
	vector org;
	float lag;

	if(player.hitplotfh >= 0)
	{
		lag = ANTILAG_LATENCY(player);
		if(lag < 0.001)
			lag = 0;
		if(clienttype(player) != CLIENTTYPE_REAL)
			lag = 0; // only antilag for clients

		org = player.origin + player.view_ofs;
		traceline_antilag_force(player, org, org + screenforward * MAX_SHOT_DISTANCE, MOVE_NORMAL, player, lag);
		if(trace_ent.flags & FL_CLIENT)
		{
			antilag_takeback(trace_ent, time - lag);
			hitplot = W_HitPlotNormalizedUntransform(org, trace_ent, screenforward, screenright, screenup, trace_endpos);
			antilag_restore(trace_ent);
			fputs(player.hitplotfh, strcat(ftos(hitplot_x), " ", ftos(hitplot_y), " ", ftos(hitplot_z), " ", ftos(player.switchweapon), "\n"));
			//print(strcat(ftos(hitplot_x), " ", ftos(hitplot_y), " ", ftos(hitplot_z), "\n"));
		}
	}
}

vector w_shotorg;
vector w_shotdir;

// this function calculates w_shotorg and w_shotdir based on the weapon model
// offset, trueaim and antilag, and won't put w_shotorg inside a wall.
// make sure you call makevectors first (FIXME?)
void W_SetupShot_Dir_ProjectileSize(entity ent, vector s_forward, vector mi, vector ma, float antilag, float recoil, string snd, float maxdamage)
{
	float nudge = 1; // added to traceline target and subtracted from result
	local vector trueaimpoint;
	local float oldsolid;
	vector vecs, dv;
	oldsolid = ent.dphitcontentsmask;
	if(ent.weapon == WEP_CAMPINGRIFLE)
		ent.dphitcontentsmask = DPCONTENTS_BODY | DPCONTENTS_CORPSE;
	else
		ent.dphitcontentsmask = DPCONTENTS_SOLID | DPCONTENTS_BODY | DPCONTENTS_CORPSE;
	if(antilag)
		traceline_antilag(world, ent.origin + ent.view_ofs, ent.origin + ent.view_ofs + s_forward * MAX_SHOT_DISTANCE, MOVE_NORMAL, ent, ANTILAG_LATENCY(ent));
		// passing world, because we do NOT want it to touch dphitcontentsmask
	else
		traceline(ent.origin + ent.view_ofs, ent.origin + ent.view_ofs + s_forward * MAX_SHOT_DISTANCE, MOVE_NOMONSTERS, ent);
	ent.dphitcontentsmask = DPCONTENTS_SOLID | DPCONTENTS_BODY | DPCONTENTS_CORPSE;
	trueaimpoint = trace_endpos;

	// Track max damage and set the stat to be sent later in g_world.qc
	if not(inWarmupStage)
	{
		ent.max_damage[ent.weapon] += maxdamage;
		ent.maxdamage_fired = ent.weapon + 64 * rint(ent.max_damage[ent.weapon]);
	}

	W_HitPlotAnalysis(ent, v_forward, v_right, v_up);

	if(ent.weaponentity.movedir_x > 0)
	{
		vecs = ent.weaponentity.movedir;
		vecs_y = -vecs_y;
	}
	else
		vecs = '0 0 0';

	if(debug_shotorg != '0 0 0')
		vecs = debug_shotorg;

	dv = v_right * vecs_y + v_up * vecs_z;
	w_shotorg = ent.origin + ent.view_ofs + dv;

	// now move the shotorg forward as much as requested if possible
	if(antilag)
	{
		if(ent.antilag_debug)
			tracebox_antilag(ent, w_shotorg, mi, ma, w_shotorg + v_forward * (vecs_x + nudge), MOVE_NORMAL, ent, ent.antilag_debug);
		else
			tracebox_antilag(ent, w_shotorg, mi, ma, w_shotorg + v_forward * (vecs_x + nudge), MOVE_NORMAL, ent, ANTILAG_LATENCY(ent));
	}
	else
		tracebox(w_shotorg, mi, ma, w_shotorg + v_forward * (vecs_x + nudge), MOVE_NORMAL, ent);
	w_shotorg = trace_endpos - v_forward * nudge;
	// calculate the shotdir from the chosen shotorg
	w_shotdir = normalize(trueaimpoint - w_shotorg);

#if 0
	// explanation of g_antilag:
	// if client reports it was aiming at a player, and the serverside trace
	// says it would miss, change the aim point to the player's new origin,
	// but only if the shot at the player's new origin would hit of course
	//
	// FIXME: a much better method for bullet weapons would be to leave a
	// trail of lagged 'ghosts' behind players, and see if the bullet hits the
	// ghost corresponding to this player's ping time, and if so it would do
	// damage to the real player
	if (antilag)
	if (ent.cursor_trace_ent)                 // client was aiming at someone
	if (ent.cursor_trace_ent != ent)         // just to make sure
	if (ent.cursor_trace_ent.takedamage)      // and that person is killable
	if (ent.cursor_trace_ent.classname == "player") // and actually a player
	if (cvar("g_antilag") == 1)
	{
		// verify that the shot would miss without antilag
		// (avoids an issue where guns would always shoot at their origin)
		traceline(w_shotorg, w_shotorg + w_shotdir * MAX_SHOT_DISTANCE, MOVE_NORMAL, ent);
		if (!trace_ent.takedamage)
		{
			// verify that the shot would hit if altered
			traceline(w_shotorg, ent.cursor_trace_ent.origin, MOVE_NORMAL, ent);
			if (trace_ent == ent.cursor_trace_ent)
			{
				// verify that the shot would hit in the past
				if(ent.antilag_debug)
					antilag_takeback(ent.cursor_trace_ent, time - ent.antilag_debug);
				else
					antilag_takeback(ent.cursor_trace_ent, time - ANTILAG_LATENCY(ent));

				traceline(ent.origin + ent.view_ofs, ent.origin + ent.view_ofs + v_forward * MAX_SHOT_DISTANCE, MOVE_NORMAL, ent);
				antilag_restore(ent.cursor_trace_ent);

				if(trace_ent == ent.cursor_trace_ent)
				{
					// HIT!
					w_shotdir = normalize(ent.cursor_trace_ent.origin - w_shotorg);
					dprint("ANTILAG HIT for ", ent.netname, "\n");
				}
				else
				{
					// prydon cursor aimbot or odd network conditions
					dprint("WARNING: antilag ghost trace for ", ent.netname, " failed!\n");
				}

				if(cvar("developer") >= 2)
				{
					vector v, vplus, vel;
					float X;
					v     = antilag_takebackorigin(ent.cursor_trace_ent, time - (ANTILAG_LATENCY(ent)       ));
					vplus = antilag_takebackorigin(ent.cursor_trace_ent, time - (ANTILAG_LATENCY(ent) + 0.01));
					vel = (vplus - v) * (1 / 0.01);
					// solve: v + X * vel = closest to ent.origin + ent.view_ofs, v_forward axis
					v     -= (ent.origin + ent.view_ofs);
					// solve: v + X * vel = closest to v_forward axis
					// project into 2D by subtracting v_forward components:
					v   -= (v   * v_forward) * v_forward;
					vel -= (vel * v_forward) * v_forward;
					// solve: v + X * vel = closest to origin
					// (v + X * vel)^2 closest to 0
					// v^2 + 2 * X * (v * vel) + X^2 * vel^2 closest to 0
					X = -(v * vel) / (vel * vel);
					dprint("dead center needs adjustment of ", ftos(X), " (that is, ", ftos(ANTILAG_LATENCY(ent) + X), " instead of ", ftos(ANTILAG_LATENCY(ent)), "\n");
				}
			}
		}
	}
#else
	if (antilag)
	{
		if (cvar("g_antilag") == 1) // switch to "ghost" if not hitting original
		{
			traceline(w_shotorg, w_shotorg + w_shotdir * MAX_SHOT_DISTANCE, MOVE_NORMAL, ent);
			if (!trace_ent.takedamage)
			{
				traceline_antilag_force (ent, w_shotorg, w_shotorg + w_shotdir * MAX_SHOT_DISTANCE, MOVE_NORMAL, ent, ANTILAG_LATENCY(ent));
				if (trace_ent.takedamage && trace_ent.classname == "player")
				{
					entity e;
					e = trace_ent;
					traceline(w_shotorg, e.origin, MOVE_NORMAL, ent);
					if(trace_ent == e)
						w_shotdir = normalize(trace_ent.origin - w_shotorg);
				}
			}
		}
		else if(cvar("g_antilag") == 3) // client side hitscan
		{
			if (ent.cursor_trace_ent)                 // client was aiming at someone
			if (ent.cursor_trace_ent != ent)         // just to make sure
			if (ent.cursor_trace_ent.takedamage)      // and that person is killable
			if (ent.cursor_trace_ent.classname == "player") // and actually a player
			{
				// verify that the shot would miss without antilag
				// (avoids an issue where guns would always shoot at their origin)
				traceline(w_shotorg, w_shotorg + w_shotdir * MAX_SHOT_DISTANCE, MOVE_NORMAL, ent);
				if (!trace_ent.takedamage)
				{
					// verify that the shot would hit if altered
					traceline(w_shotorg, ent.cursor_trace_ent.origin, MOVE_NORMAL, ent);
					if (trace_ent == ent.cursor_trace_ent)
						w_shotdir = normalize(ent.cursor_trace_ent.origin - w_shotorg);
					else
						print("antilag fail\n");
				}
			}
		}
	}
#endif

	ent.dphitcontentsmask = oldsolid; // restore solid type (generally SOLID_SLIDEBOX)

	if (!g_norecoil)
		ent.punchangle_x = recoil * -1;

	if (snd != "")
	{
		sound (ent, CHAN_WEAPON, snd, VOL_BASE, ATTN_NORM);
	}

	if (ent.items & IT_STRENGTH)
	if (!g_minstagib)
		sound (ent, CHAN_AUTO, "weapons/strength_fire.wav", VOL_BASE, ATTN_NORM);
};

#define W_SetupShot_ProjectileSize(ent,mi,ma,antilag,recoil,snd,maxdamage) W_SetupShot_Dir_ProjectileSize(ent, v_forward, mi, ma, antilag, recoil, snd, maxdamage)
#define W_SetupShot_Dir(ent,s_forward,antilag,recoil,snd,maxdamage) W_SetupShot_Dir_ProjectileSize(ent, s_forward, '0 0 0', '0 0 0', antilag, recoil, snd, maxdamage)
#define W_SetupShot(ent,antilag,recoil,snd,maxdamage) W_SetupShot_ProjectileSize(ent, '0 0 0', '0 0 0', antilag, recoil, snd, maxdamage)

void LaserTarget_Think()
{
	entity e;
	vector offset;
	float uselaser;
	uselaser = 0;

	// list of weapons that will use the laser, and the options that enable it
	if(self.owner.laser_on && self.owner.weapon == WEP_ROCKET_LAUNCHER && g_laserguided_missile)
		uselaser = 1;
	// example
	//if(self.owner.weapon == WEP_ELECTRO && cvar("g_laserguided_electro"))
	//	uselaser = 1;



	// if a laser-enabled weapon isn't selected, delete any existing laser and quit
	if(!uselaser)
	{
		// rocket launcher isn't selected, so no laser target.
		if(self.lasertarget != world)
		{
			remove(self.lasertarget);
			self.lasertarget = world;
		}
		return;
	}

	if(!self.lasertarget)
	{
		// we don't have a lasertarget entity, so spawn one
		//bprint("create laser target\n");
		e = self.lasertarget = spawn();
		e.owner = self.owner;			// Its owner is my owner
		e.classname = "laser_target";
		e.movetype = MOVETYPE_NOCLIP;	// don't touch things
		setmodel(e, "models/laser_dot.mdl");	// what it looks like, precision set below
		e.scale = 1.25;				// make it larger
		e.alpha = 0.25;				// transparency
		e.colormod = '255 0 0' * (1/255) * 8;	// change colors
		e.effects = EF_FULLBRIGHT | EF_LOWPRECISION;
		// make it dynamically glow
		// you should avoid over-using this, as it can slow down the player's computer.
		e.glow_color = 251; // red color
		e.glow_size = 12;
	}
	else
		e = self.lasertarget;

	// move the laser dot to where the player is looking

	makevectors(self.owner.v_angle); // set v_forward etc to the direction the player is looking
	offset = '0 0 26' + v_right*3;
	traceline(self.owner.origin + offset, self.owner.origin + offset + v_forward * MAX_SHOT_DISTANCE, FALSE, self); // trace forward until you hit something, like a player or wall
	setorigin(e, trace_endpos + v_forward*8); // move me to where the traceline ended
	if(trace_plane_normal != '0 0 0')
		e.angles = vectoangles(trace_plane_normal);
	else
		e.angles = vectoangles(v_forward);
}

float CL_Weaponentity_CustomizeEntityForClient()
{
	self.viewmodelforclient = self.owner;
	if(other.classname == "spectator")
		if(other.enemy == self.owner)
			self.viewmodelforclient = other;
	return TRUE;
}

float qcweaponanimation;
vector weapon_offset = '0 -10 0';
vector weapon_adjust = '10 0 -15';
.vector weapon_morph0origin;
.vector weapon_morph0angles;
.float  weapon_morph0time;
.vector weapon_morph1origin;
.vector weapon_morph1angles;
.float  weapon_morph1time;
.vector weapon_morph2origin;
.vector weapon_morph2angles;
.float  weapon_morph2time;
.vector weapon_morph3origin;
.vector weapon_morph3angles;
.float  weapon_morph3time;
.vector weapon_morph4origin;
.vector weapon_morph4angles;
.float  weapon_morph4time;
.string weaponname;
#define QCWEAPONANIMATION_ORIGIN(e) ((weapon_offset_x + e.view_ofs_x) * v_forward - (weapon_offset_y + e.view_ofs_y) * v_right + (weapon_offset_z + e.view_ofs_z) * v_up + weapon_adjust)

/*
 * supported formats:
 *
 * 1. simple animated model, muzzlr flash handling on h_ model:
 *    h_tuba.dpm, h_tuba.dpm.framegroups - invisible model controlling the animation
 *      tags:
 *        shot = muzzle end (shot origin, also used for muzzle flashes)
 *        shell = casings ejection point (must be on the right hand side of the gun)
 *        weapon = attachment for v_tuba.md3
 *    v_tuba.md3 - first and third person model
 *    g_tuba.md3 - pickup model
 *
 * 2. fully animated model, muzzle flash handling on h_ model:
 *    h_tuba.dpm, h_tuba.dpm.framegroups - animated first person model
 *      tags:
 *        shot = muzzle end (shot origin, also used for muzzle flashes)
 *        shell = casings ejection point (must be on the right hand side of the gun)
 *        handle = corresponding to the origin of v_tuba.md3 (used for muzzle flashes)
 *    v_tuba.md3 - third person model
 *    g_tuba.md3 - pickup model
 *
 * 3. fully animated model, muzzle flash handling on v_ model:
 *    h_tuba.dpm, h_tuba.dpm.framegroups - animated first person model
 *      tags:
 *        shot = muzzle end (shot origin)
 *        shell = casings ejection point (must be on the right hand side of the gun)
 *    v_tuba.md3 - third person model
 *      tags:
 *        shot = muzzle end (for muzzle flashes)
 *    g_tuba.md3 - pickup model
 */

void CL_Weaponentity_Think()
{
	float tb, v_shot_idx;
	self.nextthink = time;
	if (intermission_running)
		self.frame = self.anim_idle_x;
	if (self.owner.weaponentity != self)
	{
		if (self.weaponentity)
			remove(self.weaponentity);
		remove(self);
		return;
	}
	if (self.owner.deadflag != DEAD_NO)
	{
		self.model = "";
		if (self.weaponentity)
			self.weaponentity.model = "";
		return;
	}
	if (self.cnt != self.owner.weapon || self.dmg != self.owner.modelindex || self.deadflag != self.owner.deadflag)
	{
		self.cnt = self.owner.weapon;
		self.dmg = self.owner.modelindex;
		self.deadflag = self.owner.deadflag;

		string animfilename;
		float animfile;
		if (self.owner.weaponname != "")
		{
			// if there is a child entity, hide it until we're sure we use it
			if (self.weaponentity)
				self.weaponentity.model = "";
			setmodel(self, strcat("models/weapons/v_", self.owner.weaponname, ".md3")); // precision set below
			v_shot_idx = gettagindex(self, "shot"); // used later

			if(qcweaponanimation)
			{
				self.angles = '0 0 0';
				makevectors(self.angles_x * '-1 0 0' + self.angles_y * '0 1 0' + self.angles_z * '0 0 1');
				self.movedir = weapon_offset_x * v_forward - weapon_offset_y * v_right + weapon_offset_z * v_up + weapon_adjust;
				self.movedir_x += 32;
				self.spawnorigin = self.movedir;
				// oldorigin - not calculated here
			}
			else
			{
				setmodel(self, strcat("models/weapons/h_", self.owner.weaponname, ".dpm")); // precision set below
				animfilename = strcat("models/weapons/h_", self.owner.weaponname, ".dpm.animinfo");
				animfile = fopen(animfilename, FILE_READ);
				// preset some defaults that work great for renamed zym files (which don't need an animinfo)
				self.anim_fire1  = '0 1 0.01';
				self.anim_fire2  = '1 1 0.01';
				self.anim_idle   = '2 1 0.01';
				self.anim_reload = '3 1 0.01';
				if (animfile >= 0)
				{
					animparseerror = FALSE;
					self.anim_fire1  = animparseline(animfile);
					self.anim_fire2  = animparseline(animfile);
					self.anim_idle   = animparseline(animfile);
					self.anim_reload = animparseline(animfile);
					fclose(animfile);
					if (animparseerror)
						print("Parse error in ", animfilename, ", some player animations are broken\n");
				}

				// if we have a "weapon" tag, let's attach the v_ model to it ("invisible hand" style model)
				// if we don't, this is a "real" animated model
				if(gettagindex(self, "weapon"))
				{
					if (!self.weaponentity)
						self.weaponentity = spawn();
					setmodel(self.weaponentity, strcat("models/weapons/v_", self.owner.weaponname, ".md3")); // precision does not matter
					setattachment(self.weaponentity, self, "weapon");
				}
				else
				{
					if(self.weaponentity)
						remove(self.weaponentity);
					self.weaponentity = world;
				}

				setorigin(self,'0 0 0');
				self.angles = '0 0 0';
				self.frame = 0;
				self.viewmodelforclient = world;

				float idx;
				idx = gettagindex(self, "shot");
				if(idx)
				{
					self.movedir = gettaginfo(self, idx);
				}
				else
				{
					print("WARNING: weapon model ", self.model, " does not support the 'shot' tag, will display shots TOTALLY wrong\n");
					self.movedir = '0 0 0';
				}

				idx = gettagindex(self, "shell");
				if(idx)
				{
					self.spawnorigin = gettaginfo(self, idx);
				}
				else
				{
					print("WARNING: weapon model ", self.model, " does not support the 'shell' tag, will display casings wrong\n");
					self.spawnorigin = self.movedir;
				}

				if(v_shot_idx)
				{
					self.oldorigin = '0 0 0';
				}
				else
				{
					if(self.weaponentity)
						idx = gettagindex(self, "weapon");
					else
						idx = gettagindex(self, "handle");
					if(idx)
					{
						self.oldorigin = self.movedir - gettaginfo(self, idx);
					}
					else
					{
						print("WARNING: weapon model ", self.model, " does not support the 'handle' tag and neither does the v_ model support the 'shot' tag, will display muzzle flashes TOTALLY wrong\n");
						self.oldorigin = '0 0 0'; // there is no way to recover from this
					}
				}

				self.viewmodelforclient = self.owner;
			}
		}
		else
		{
			self.model = "";
			if(self.weaponentity)
				remove(self.weaponentity);
			self.weaponentity = world;
			self.movedir = '0 0 0';
			self.spawnorigin = '0 0 0';
			self.oldorigin = '0 0 0';
			self.anim_fire1  = '0 1 0.01';
			self.anim_fire2  = '0 1 0.01';
			self.anim_idle   = '0 1 0.01';
			self.anim_reload = '0 1 0.01';
		}

		self.view_ofs = '0 0 0';

		if(self.movedir_x >= 0)
		{
			vector v0;
			v0 = self.movedir;
			self.movedir = shotorg_adjust(v0, FALSE, FALSE);
			self.view_ofs = shotorg_adjust(v0, FALSE, TRUE) - v0;
		}
		self.owner.stat_shotorg = compressShotOrigin(self.movedir);
		self.movedir = decompressShotOrigin(self.owner.stat_shotorg); // make them match perfectly

		self.spawnorigin += self.view_ofs; // offset the casings origin by the same amount

		// check if an instant weapon switch occurred
		if (qcweaponanimation)
		{
			if (self.state == WS_READY)
			{
				self.angles = '0 0 0';
				makevectors(self.angles_x * '-1 0 0' + self.angles_y * '0 1 0' + self.angles_z * '0 0 1');
				setorigin(self, QCWEAPONANIMATION_ORIGIN(self));
			}
		}
		else
			setorigin(self, self.view_ofs);
		// reset animstate now
		self.wframe = WFRAME_IDLE;
		self.weapon_morph0time = 0;
		self.weapon_morph1time = 0;
		self.weapon_morph2time = 0;
		self.weapon_morph3time = 0;
		self.weapon_morph4time = 0;
		setanim(self, self.anim_idle, TRUE, FALSE, TRUE);
	}

	tb = (self.effects & EF_TELEPORT_BIT);
	self.effects = self.owner.effects & EFMASK_CHEAP;
	self.effects &~= EF_LOWPRECISION;
	self.effects &~= EF_FULLBRIGHT; // can mask team color, so get rid of it
	self.effects &~= EF_TELEPORT_BIT;
	self.effects |= tb;

	if(self.owner.alpha != 0)
		self.alpha = self.owner.alpha;
	else
		self.alpha = 1;

	self.colormap = self.owner.colormap;
	if (self.weaponentity)
	{
		self.weaponentity.effects = self.effects;
		self.weaponentity.alpha = self.alpha;
		self.weaponentity.colormap = self.colormap;
	}

	self.angles = '0 0 0';
	local float f;
	f = 0;
	if (self.state == WS_RAISE && !intermission_running)
	{
		f = (self.owner.weapon_nextthink - time) * g_weaponratefactor / cvar("g_balance_weaponswitchdelay");
		self.angles_x = -90 * f * f;
		if (qcweaponanimation)
		{
			makevectors(self.angles_x * '-1 0 0' + self.angles_y * '0 1 0' + self.angles_z * '0 0 1');
			setorigin(self, QCWEAPONANIMATION_ORIGIN(self));
		}
	}
	else if (self.state == WS_DROP && !intermission_running)
	{
		f = 1 - (self.owner.weapon_nextthink - time) * g_weaponratefactor / cvar("g_balance_weaponswitchdelay");
		self.angles_x = -90 * f * f;
		if (qcweaponanimation)
		{
			makevectors(self.angles_x * '-1 0 0' + self.angles_y * '0 1 0' + self.angles_z * '0 0 1');
			setorigin(self, QCWEAPONANIMATION_ORIGIN(self));
		}
	}
	else if (self.state == WS_CLEAR)
	{
		f = 1;
		self.angles_x = -90 * f * f;
		if (qcweaponanimation)
		{
			makevectors(self.angles_x * '-1 0 0' + self.angles_y * '0 1 0' + self.angles_z * '0 0 1');
			setorigin(self, QCWEAPONANIMATION_ORIGIN(self));
		}
	}
	else if (qcweaponanimation && time < self.owner.weapon_morph1time)
	{
		f = (time - self.owner.weapon_morph0time) / (self.owner.weapon_morph1time - self.owner.weapon_morph0time);
		f = 1 - pow(1 - f, 3);
		self.angles = self.owner.weapon_morph0angles * (1 - f) + self.owner.weapon_morph1angles * f;
		setorigin(self, self.owner.weapon_morph0origin * (1 - f) + self.owner.weapon_morph1origin * f);
	}
	else if (qcweaponanimation && time < self.owner.weapon_morph2time)
	{
		f = (time - self.owner.weapon_morph1time) / (self.owner.weapon_morph2time - self.owner.weapon_morph1time);
		f = 1 - pow(1 - f, 3);
		self.angles = self.owner.weapon_morph1angles * (1 - f) + self.owner.weapon_morph2angles * f;
		setorigin(self, self.owner.weapon_morph1origin * (1 - f) + self.owner.weapon_morph2origin * f);
	}
	else if (qcweaponanimation && time < self.owner.weapon_morph3time)
	{
		f = (time - self.owner.weapon_morph2time) / (self.owner.weapon_morph3time - self.owner.weapon_morph2time);
		f = 1 - pow(1 - f, 3);
		self.angles = self.owner.weapon_morph2angles * (1 - f) + self.owner.weapon_morph3angles * f;
		setorigin(self, self.owner.weapon_morph2origin * (1 - f) + self.owner.weapon_morph3origin * f);
	}
	else if (qcweaponanimation && time < self.owner.weapon_morph4time)
	{
		f = (time - self.owner.weapon_morph3time) / (self.owner.weapon_morph4time - self.owner.weapon_morph3time);
		f = 1 - pow(1 - f, 3);
		self.angles = self.owner.weapon_morph3angles * (1 - f) + self.owner.weapon_morph4angles * f;
		setorigin(self, self.owner.weapon_morph3origin * (1 - f) + self.owner.weapon_morph4origin * f);
	}
	else if (qcweaponanimation)
	{
		// begin a new idle morph
		self.owner.weapon_morph0time   = time;
		self.owner.weapon_morph0angles = self.angles;
		self.owner.weapon_morph0origin = self.origin;

		float r;
		float t;

		r = random();
		if (r < 0.1)
		{
			// turn gun to the left to look at it
			t = 2;
			self.owner.weapon_morph1time   = time + t * 0.2;
			self.owner.weapon_morph1angles = randomvec() * 3 + '-5 30 0';
			makevectors(self.owner.weapon_morph1angles_x * '-1 0 0' + self.owner.weapon_morph1angles_y * '0 1 0' + self.owner.weapon_morph1angles_z * '0 0 1');
			self.owner.weapon_morph1origin = QCWEAPONANIMATION_ORIGIN(self);

			self.owner.weapon_morph2time   = time + t * 0.6;
			self.owner.weapon_morph2angles = randomvec() * 3 + '-5 30 0';
			makevectors(self.owner.weapon_morph2angles_x * '-1 0 0' + self.owner.weapon_morph2angles_y * '0 1 0' + self.owner.weapon_morph2angles_z * '0 0 1');
			self.owner.weapon_morph2origin = QCWEAPONANIMATION_ORIGIN(self);

			self.owner.weapon_morph3time   = time + t;
			self.owner.weapon_morph3angles = '0 0 0';
			makevectors(self.owner.weapon_morph3angles_x * '-1 0 0' + self.owner.weapon_morph3angles_y * '0 1 0' + self.owner.weapon_morph3angles_z * '0 0 1');
			self.owner.weapon_morph3origin = QCWEAPONANIMATION_ORIGIN(self);
		}
		else if (r < 0.2)
		{
			// raise the gun a bit
			t = 2;
			self.owner.weapon_morph1time   = time + t * 0.2;
			self.owner.weapon_morph1angles = randomvec() * 3 + '30 -10 0';
			makevectors(self.owner.weapon_morph1angles_x * '-1 0 0' + self.owner.weapon_morph1angles_y * '0 1 0' + self.owner.weapon_morph1angles_z * '0 0 1');
			self.owner.weapon_morph1origin = QCWEAPONANIMATION_ORIGIN(self);

			self.owner.weapon_morph2time   = time + t * 0.5;
			self.owner.weapon_morph2angles = randomvec() * 3 + '30 -10 5';
			makevectors(self.owner.weapon_morph2angles_x * '-1 0 0' + self.owner.weapon_morph2angles_y * '0 1 0' + self.owner.weapon_morph2angles_z * '0 0 1');
			self.owner.weapon_morph2origin = QCWEAPONANIMATION_ORIGIN(self);

			self.owner.weapon_morph3time   = time + t;
			self.owner.weapon_morph3angles = '0 0 0';
			makevectors(self.owner.weapon_morph3angles_x * '-1 0 0' + self.owner.weapon_morph3angles_y * '0 1 0' + self.owner.weapon_morph3angles_z * '0 0 1');
			self.owner.weapon_morph3origin = QCWEAPONANIMATION_ORIGIN(self);
		}
		else if (r < 0.3)
		{
			// tweak it a bit
			t = 5;
			self.owner.weapon_morph1time   = time + t * 0.3;
			self.owner.weapon_morph1angles = randomvec() * 6;
			makevectors(self.owner.weapon_morph1angles_x * '-1 0 0' + self.owner.weapon_morph1angles_y * '0 1 0' + self.owner.weapon_morph1angles_z * '0 0 1');
			self.owner.weapon_morph1origin = QCWEAPONANIMATION_ORIGIN(self);

			self.owner.weapon_morph2time   = time + t * 0.7;
			self.owner.weapon_morph2angles = randomvec() * 6;
			makevectors(self.owner.weapon_morph2angles_x * '-1 0 0' + self.owner.weapon_morph2angles_y * '0 1 0' + self.owner.weapon_morph2angles_z * '0 0 1');
			self.owner.weapon_morph2origin = QCWEAPONANIMATION_ORIGIN(self);

			self.owner.weapon_morph3time   = time + t;
			self.owner.weapon_morph3angles = '0 0 0';
			makevectors(self.owner.weapon_morph3angles_x * '-1 0 0' + self.owner.weapon_morph3angles_y * '0 1 0' + self.owner.weapon_morph3angles_z * '0 0 1');
			self.owner.weapon_morph3origin = QCWEAPONANIMATION_ORIGIN(self);
		}
		else
		{
			// hold it mostly steady
			t = random() * 6 + 4;
			self.owner.weapon_morph1time   = time + t * 0.2;
			self.owner.weapon_morph1angles = randomvec() * 1;
			makevectors(self.owner.weapon_morph1angles_x * '-1 0 0' + self.owner.weapon_morph1angles_y * '0 1 0' + self.owner.weapon_morph1angles_z * '0 0 1');
			self.owner.weapon_morph1origin = QCWEAPONANIMATION_ORIGIN(self);

			self.owner.weapon_morph2time   = time + t * 0.5;
			self.owner.weapon_morph2angles = randomvec() * 1;
			makevectors(self.owner.weapon_morph2angles_x * '-1 0 0' + self.owner.weapon_morph2angles_y * '0 1 0' + self.owner.weapon_morph2angles_z * '0 0 1');
			self.owner.weapon_morph2origin = QCWEAPONANIMATION_ORIGIN(self);

			self.owner.weapon_morph3time   = time + t * 0.7;
			self.owner.weapon_morph3angles = randomvec() * 1;
			makevectors(self.owner.weapon_morph3angles_x * '-1 0 0' + self.owner.weapon_morph3angles_y * '0 1 0' + self.owner.weapon_morph3angles_z * '0 0 1');
			self.owner.weapon_morph3origin = QCWEAPONANIMATION_ORIGIN(self);
		}

		self.owner.weapon_morph4time   = time + t;
		self.owner.weapon_morph4angles = '0 0 0';
		makevectors(self.owner.weapon_morph4angles_x * '-1 0 0' + self.owner.weapon_morph4angles_y * '0 1 0' + self.owner.weapon_morph4angles_z * '0 0 1');
		self.owner.weapon_morph4origin = QCWEAPONANIMATION_ORIGIN(self);

	}

	// create or update the lasertarget entity
	LaserTarget_Think();
};

void CL_ExteriorWeaponentity_Think()
{
	float tag_found;
	self.nextthink = time;
	if (self.owner.exteriorweaponentity != self)
	{
		remove(self);
		return;
	}
	if (self.owner.deadflag != DEAD_NO)
	{
		self.model = "";
		return;
	}
	if (self.cnt != self.owner.weapon || self.dmg != self.owner.modelindex || self.deadflag != self.owner.deadflag)
	{
		self.cnt = self.owner.weapon;
		self.dmg = self.owner.modelindex;
		self.deadflag = self.owner.deadflag;
		if (self.owner.weaponname != "")
			setmodel(self, strcat("models/weapons/v_", self.owner.weaponname, ".md3")); // precision set below
		else
			self.model = "";

		if((tag_found = gettagindex(self.owner, "tag_weapon")))
		{
			self.tag_index = tag_found;
			self.tag_entity = self.owner;
		}
		else
			setattachment(self, self.owner, "bip01 r hand");

		// if that didn't find a tag, hide the exterior weapon model
		if (!self.tag_index)
			self.model = "";
	}
	self.effects = self.owner.effects | EF_LOWPRECISION;
	self.effects = self.effects & EFMASK_CHEAP; // eat performance
	if(self.owner.alpha != 0)
		self.alpha = self.owner.alpha;
	else
		self.alpha = 1;

	self.colormap = self.owner.colormap;
};

// spawning weaponentity for client
void CL_SpawnWeaponentity()
{
	self.weaponentity = spawn();
	self.weaponentity.classname = "weaponentity";
	self.weaponentity.solid = SOLID_NOT;
	self.weaponentity.owner = self;
	setmodel(self.weaponentity, ""); // precision set when changed
	setorigin(self.weaponentity, '0 0 0');
	self.weaponentity.angles = '0 0 0';
	self.weaponentity.viewmodelforclient = self;
	self.weaponentity.flags = 0;
	self.weaponentity.think = CL_Weaponentity_Think;
	self.weaponentity.customizeentityforclient = CL_Weaponentity_CustomizeEntityForClient;
	self.weaponentity.nextthink = time;

	self.exteriorweaponentity = spawn();
	self.exteriorweaponentity.classname = "exteriorweaponentity";
	self.exteriorweaponentity.solid = SOLID_NOT;
	self.exteriorweaponentity.exteriorweaponentity = self.exteriorweaponentity;
	self.exteriorweaponentity.owner = self;
	setorigin(self.exteriorweaponentity, '0 0 0');
	self.exteriorweaponentity.angles = '0 0 0';
	self.exteriorweaponentity.think = CL_ExteriorWeaponentity_Think;
	self.exteriorweaponentity.nextthink = time;
};

.float hasweapon_complain_spam;

float client_hasweapon(entity cl, float wpn, float andammo, float complain)
{
	local float weaponbit, f;
	local entity oldself;

	if(time < self.hasweapon_complain_spam)
		complain = 0;
	if(complain)
		self.hasweapon_complain_spam = time + 0.2;

	if (wpn < WEP_FIRST || wpn > WEP_LAST)
	{
		if (complain)
			sprint(self, "Invalid weapon\n");
		return FALSE;
	}
	weaponbit = W_WeaponBit(wpn);
	if (cl.weapons & weaponbit)
	{
		if (andammo)
		{
			if(cl.items & IT_UNLIMITED_WEAPON_AMMO)
			{
				f = 1;
			}
			else
			{
				oldself = self;
				self = cl;
				f = weapon_action(wpn, WR_CHECKAMMO1);
				f = f + weapon_action(wpn, WR_CHECKAMMO2);
				self = oldself;
			}
			if (!f)
			{
				if (complain)
				if(clienttype(cl) == CLIENTTYPE_REAL)
				{
					play2(cl, "weapons/unavailable.wav");
					sprint(cl, strcat("You don't have any ammo for the ^2", W_Name(wpn), "\n"));
				}
				return FALSE;
			}
		}
		return TRUE;
	}
	if (complain)
	{
		// DRESK - 3/16/07
		// Report Proper Weapon Status / Modified Weapon Ownership Message
		if(weaponsInMap & weaponbit)
		{
			sprint(cl, strcat("You do not have the ^2", W_Name(wpn), "\n") );

			if(cvar("g_showweaponspawns"))
			{
				entity e;
				string s;

				e = get_weaponinfo(wpn);
				s = e.model2;

				for(e = world; (e = findfloat(e, weapons, weaponbit)); )
				{
					if(e.classname == "droppedweapon")
						continue;
					if not(e.flags & FL_ITEM)
						continue;
					WaypointSprite_Spawn(
						s,
						1, 0,
						world, e.origin,
						self, 0,
						world, enemy,
						0
					);
				}
			}
		}
		else
			sprint(cl, strcat("The ^2", W_Name(wpn), "^7 is ^1NOT AVAILABLE^7 in this map\n") );

		play2(cl, "weapons/unavailable.wav");
	}
	return FALSE;
};

// Weapon subs
void w_clear()
{
	if (self.weapon != -1)
		self.weapon = 0;
	if (self.weaponentity)
	{
		self.weaponentity.state = WS_CLEAR;
		self.weaponentity.effects = 0;
	}
};

void w_ready()
{
	if (self.weaponentity)
		self.weaponentity.state = WS_READY;
	weapon_thinkf(WFRAME_IDLE, 1000000, w_ready);
};

// Setup weapon for client (after this raise frame will be launched)
void weapon_setup(float windex)
{
	entity e;
	qcweaponanimation = cvar("sv_qcweaponanimation");
	e = get_weaponinfo(windex);
	self.items &~= IT_AMMO;
	self.items = self.items | e.items;

	// the two weapon entities will notice this has changed and update their models
	self.weapon = windex;
	self.weaponname = e.mdl;
	self.bulletcounter = 0;
};

// perform weapon to attack (weaponstate and attack_finished check is here)
.float race_penalty;
float weapon_prepareattack(float secondary, float attacktime)
{
	//if sv_ready_restart_after_countdown is set, don't allow the player to shoot
	//if all players readied up and the countdown is running
	if(time < game_starttime || time < self.race_penalty) {
		return FALSE;
	}

	if not(self.items & IT_UNLIMITED_WEAPON_AMMO)
	if (!weapon_action(self.weapon, WR_CHECKAMMO1 + secondary))
	{
		W_SwitchWeapon_Force(self, w_getbestweapon(self));
		return FALSE;
	}

	if (timeoutStatus == 2) //don't allow the player to shoot while game is paused
		return FALSE;

	// do not even think about shooting if switching
	if(self.switchweapon != self.weapon)
		return FALSE;

	if(attacktime >= 0)
	{
		// don't fire if previous attack is not finished
		if (ATTACK_FINISHED(self) > time + self.weapon_frametime * 0.5)
			return FALSE;
		// don't fire while changing weapon
		if (self.weaponentity.state != WS_READY)
			return FALSE;
	}
	self.weaponentity.state = WS_INUSE;

	self.spawnshieldtime = min(self.spawnshieldtime, time); // kill spawn shield when you fire

	// if the weapon hasn't been firing continuously, reset the timer
	if(attacktime >= 0)
	{
		if (ATTACK_FINISHED(self) < time - self.weapon_frametime * 1.5)
		{
			ATTACK_FINISHED(self) = time;
			//dprint("resetting attack finished to ", ftos(time), "\n");
		}
		ATTACK_FINISHED(self) = ATTACK_FINISHED(self) + attacktime * W_WeaponRateFactor();
	}
	self.bulletcounter += 1;
	//dprint("attack finished ", ftos(ATTACK_FINISHED(self)), "\n");
	return TRUE;
};

void weapon_thinkf(float fr, float t, void() func)
{
	vector a;
	vector of, or, ou;
	float restartanim;

	if(fr == WFRAME_DONTCHANGE)
	{
		fr = self.weaponentity.wframe;
		restartanim = FALSE;
	}
	else if (fr == WFRAME_IDLE)
		restartanim = FALSE;
	else
		restartanim = TRUE;

	of = v_forward;
	or = v_right;
	ou = v_up;

	if (self.weaponentity)
	{
		self.weaponentity.wframe = fr;
		if (qcweaponanimation)
		{
			if (fr != WFRAME_IDLE)
			{
				self.weapon_morph0time = time;
				self.weapon_morph0angles = self.weaponentity.angles;
				self.weapon_morph0origin = self.weaponentity.origin;

				self.weapon_morph1angles = '0 0 0';
				self.weapon_morph1time = time + t;
				makevectors(self.weapon_morph1angles_x * '-1 0 0' + self.weapon_morph1angles_y * '0 1 0' + self.weapon_morph1angles_z * '0 0 1');
				self.weapon_morph1origin = QCWEAPONANIMATION_ORIGIN(self.weaponentity);

				self.weapon_morph2angles = '0 0 0';
				self.weapon_morph2time = time + t;
				makevectors(self.weapon_morph2angles_x * '-1 0 0' + self.weapon_morph2angles_y * '0 1 0' + self.weapon_morph2angles_z * '0 0 1');
				self.weapon_morph2origin = QCWEAPONANIMATION_ORIGIN(self.weaponentity);

				self.weapon_morph3angles = '0 0 0';
				self.weapon_morph3time = time + t;
				makevectors(self.weapon_morph3angles_x * '-1 0 0' + self.weapon_morph3angles_y * '0 1 0' + self.weapon_morph3angles_z * '0 0 1');
				self.weapon_morph3origin = QCWEAPONANIMATION_ORIGIN(self.weaponentity);

				self.weapon_morph4angles = '0 0 0';
				self.weapon_morph4time = time + t;
				makevectors(self.weapon_morph4angles_x * '-1 0 0' + self.weapon_morph4angles_y * '0 1 0' + self.weapon_morph4angles_z * '0 0 1');
				self.weapon_morph4origin = QCWEAPONANIMATION_ORIGIN(self.weaponentity);

				if (fr == WFRAME_FIRE1)
				{
					self.weapon_morph1angles = '5 0 0';
					self.weapon_morph1time = time + t * 0.1;
					makevectors(self.weapon_morph1angles_x * '-1 0 0' + self.weapon_morph1angles_y * '0 1 0' + self.weapon_morph1angles_z * '0 0 1');
					self.weapon_morph1origin = QCWEAPONANIMATION_ORIGIN(self.weaponentity);
					self.weapon_morph4time = time + t + 1; // delay idle effect
				}
				else if (fr == WFRAME_FIRE2)
				{
					self.weapon_morph1angles = '10 0 0';
					self.weapon_morph1time = time + t * 0.1;
					makevectors(self.weapon_morph1angles_x * '-1 0 0' + self.weapon_morph1angles_y * '0 1 0' + self.weapon_morph1angles_z * '0 0 1');
					self.weapon_morph1origin = QCWEAPONANIMATION_ORIGIN(self.weaponentity);
					self.weapon_morph4time = time + t + 1; // delay idle effect
				}
				else if (fr == WFRAME_RELOAD)
				{
					self.weapon_morph1time = time + t * 0.05;
					self.weapon_morph1angles = '-10 40 0';
					makevectors(self.weapon_morph1angles_x * '-1 0 0' + self.weapon_morph1angles_y * '0 1 0' + self.weapon_morph1angles_z * '0 0 1');
					self.weapon_morph1origin = QCWEAPONANIMATION_ORIGIN(self.weaponentity);

					self.weapon_morph2time = time + t * 0.15;
					self.weapon_morph2angles = '-10 40 5';
					makevectors(self.weapon_morph2angles_x * '-1 0 0' + self.weapon_morph2angles_y * '0 1 0' + self.weapon_morph2angles_z * '0 0 1');
					self.weapon_morph2origin = QCWEAPONANIMATION_ORIGIN(self.weaponentity);

					self.weapon_morph3time = time + t * 0.25;
					self.weapon_morph3angles = '-10 40 0';
					makevectors(self.weapon_morph3angles_x * '-1 0 0' + self.weapon_morph3angles_y * '0 1 0' + self.weapon_morph3angles_z * '0 0 1');
					self.weapon_morph3origin = QCWEAPONANIMATION_ORIGIN(self.weaponentity);
				}
			}
		}
		else
		{
			if (fr == WFRAME_IDLE)
				a = self.weaponentity.anim_idle;
			else if (fr == WFRAME_FIRE1)
				a = self.weaponentity.anim_fire1;
			else if (fr == WFRAME_FIRE2)
				a = self.weaponentity.anim_fire2;
			else if (fr == WFRAME_RELOAD)
				a = self.weaponentity.anim_reload;
			a_z *= g_weaponratefactor;
			setanim(self.weaponentity, a, restartanim == FALSE, restartanim, restartanim);
		}
	}

	v_forward = of;
	v_right = or;
	v_up = ou;

	if(self.weapon_think == w_ready && func != w_ready && self.weaponentity.state == WS_RAISE)
	{
		backtrace("Tried to override initial weapon think function - should this really happen?");
	}

	t *= W_WeaponRateFactor();

	// VorteX: haste can be added here
	if (self.weapon_think == w_ready)
	{
		self.weapon_nextthink = time;
		//dprint("started firing at ", ftos(time), "\n");
	}
	if (self.weapon_nextthink < time - self.weapon_frametime * 1.5 || self.weapon_nextthink > time + self.weapon_frametime * 1.5)
	{
		self.weapon_nextthink = time;
		//dprint("reset weapon animation timer at ", ftos(time), "\n");
	}
	self.weapon_nextthink = self.weapon_nextthink + t;
	self.weapon_think = func;
	//dprint("next ", ftos(self.weapon_nextthink), "\n");

	if (restartanim)
	if (t)
	if (!self.crouch) // shoot anim stands up, this looks bad
	{
		local vector anim;
		anim = self.anim_shoot;
		anim_z = anim_y / t;
		setanim(self, anim, FALSE, TRUE, TRUE);
	}
};

void weapon_boblayer1(float spd, vector org)
{
	// VorteX: haste can be added here
};

vector W_CalculateProjectileVelocity(vector pvelocity, vector mvelocity)
{
	vector mdirection;
	float mspeed;
	float outspeed;
	float nstyle;
	vector outvelocity;

	mvelocity = mvelocity * g_weaponspeedfactor;

	mdirection = normalize(mvelocity);
	mspeed = vlen(mvelocity);

	nstyle = cvar("g_projectiles_newton_style");
	if(nstyle == 0)
	{
		// absolute velocity
		outvelocity = mvelocity;
	}
	else if(nstyle == 1)
	{
		// true Newtonian projectiles
		outvelocity = pvelocity + mvelocity;
	}
	else if(nstyle == 2)
	{
		// true Newtonian projectiles with automatic aim adjustment
		//
		// solve: |outspeed * mdirection - pvelocity| = mspeed
		// outspeed^2 - 2 * outspeed * (mdirection * pvelocity) + pvelocity^2 - mspeed^2 = 0
		// outspeed = (mdirection * pvelocity) +- sqrt((mdirection * pvelocity)^2 - pvelocity^2 + mspeed^2)
		// PLUS SIGN!
		// not defined?
		// then...
		// pvelocity^2 - (mdirection * pvelocity)^2 > mspeed^2
		// velocity without mdirection component > mspeed
		// fire at smallest possible mspeed that works?
		// |(mdirection * pvelocity) * pvelocity - pvelocity| = mspeed

		vector solution;
		solution = solve_quadratic(1, -2 * (mdirection * pvelocity), pvelocity * pvelocity - mspeed * mspeed);
		if(solution_z)
			outspeed = solution_y; // the larger one
		else
		{
			//outspeed = 0; // slowest possible shot
			outspeed = solution_x; // the real part (that is, the average!)
			//dprint("impossible shot, adjusting\n");
		}

		outspeed = bound(mspeed * cvar("g_projectiles_newton_style_2_minfactor"), outspeed, mspeed * cvar("g_projectiles_newton_style_2_maxfactor"));
		outvelocity = mdirection * outspeed;
	}
	else if(nstyle == 3)
	{
		// pseudo-Newtonian:
		outspeed = mspeed + mdirection * pvelocity;
		outspeed = bound(mspeed * 0.7, outspeed, mspeed * 5.0);
		outvelocity = mdirection * outspeed;
	}
	else if(nstyle == 4)
	{
		// tZorkian:
		outspeed = mspeed + vlen(pvelocity);
		outvelocity = mdirection * outspeed;
	}
	else
		error("g_projectiles_newton_style must be 0 (absolute), 1 (Newtonian), 2 (Newtonian + aimfix), 3 (pseudo Newtonian) or 4 (tZorkian)!");

	return outvelocity;
}

void W_SetupProjectileVelocity(entity missile)
{
	if(missile.owner == world)
		error("Unowned missile");

	missile.velocity = W_CalculateProjectileVelocity(missile.owner.velocity, missile.velocity);
}

void W_AttachToShotorg(entity flash, vector offset)
{
	entity xflash;
	flash.owner = self;
	flash.angles_z = random() * 360;
	if(qcweaponanimation)
	{
		setorigin(flash, w_shotorg + w_shotdir * 50);
		flash.angles = vectoangles(w_shotdir);
		flash.angles_z = random() * 360;
	}
	else
	{
		setattachment(flash, self.weaponentity, "shot");
		setorigin(flash, offset);

		xflash = spawn();
		copyentity(flash, xflash);

		flash.viewmodelforclient = self;

		if(self.weaponentity.oldorigin_x > 0)
		{
			setattachment(xflash, self.exteriorweaponentity, "");
			setorigin(xflash, self.weaponentity.oldorigin + offset);
		}
		else
		{
			setattachment(xflash, self.exteriorweaponentity, "shot");
		}
	}
}
